"","ts",""
"1",3184001,3185000
"2",3193001,3195000
"3",3201001,3202000
"4",3203001,3208000
"5",3210001,3214000
"6",3217001,3218000
"7",3219001,3223000
"8",3236001,3237000
"9",3263001,3264000
"10",3280001,3282000
"11",3289001,3294000
"12",3300001,3306000
"13",3330001,3335000
"14",3347001,3349000
"15",3368001,3369000
"16",3377001,3378000
"17",3390001,3392000
"18",3410001,3413000
"19",3414001,3417000
"20",3420001,3421000
"21",3422001,3424000
"22",3448001,3450000
"23",3474001,3475000
"24",3579001,3580000
"25",3586001,3587000
"26",3595001,3596000
"27",3601001,3602000
"28",3603001,3604000
"29",3607001,3608000
"30",3616001,3618000
"31",3629001,3631000
"32",3642001,3647000
"33",3663001,3668000
"34",3675001,3676000
"35",3684001,3685000
"36",3692001,3697000
"37",3703001,3706000
"38",3707001,3710000
"39",4103001,4104000
"40",4119001,4120000
"41",4123001,4126000
"42",4131001,4132000
"43",4135001,4138000
"44",4148001,4152000
"45",4164001,4165000
"46",4427001,4428000
"47",4431001,4432000
"48",4445001,4447000
"49",4470001,4472000
"50",4478001,4480000
"51",4498001,4499000
"52",4501001,4504000
"53",4509001,4511000
"54",4513001,4514000
"55",4516001,4517000
"56",4521001,4522000
"57",4524001,4525000
"58",4526001,4528000
"59",4532001,4533000
"60",4536001,4538000
"61",4546001,4548000
"62",4556001,4558000
"63",4620001,4621000
"64",4623001,4625000
"65",4658001,4661000
"66",4684001,4692000
"67",4702001,4703000
"68",4705001,4706000
"69",4738001,4742000
"70",4748001,4750000
"71",4751001,4754000
"72",4765001,4766000
"73",4777001,4778000
"74",4788001,4794000
"75",4795001,4800000
"76",4806001,4808000
"77",4811001,4815000
"78",4825001,4826000
"79",4836001,4838000
"80",4842001,4846000
"81",4849001,4850000
"82",4865001,4868000
"83",4876001,4878000
"84",4900001,4902000
"85",4911001,4913000
"86",4914001,4917000
"87",4922001,4927000
"88",4938001,4939000
"89",4940001,4941000
"90",4942001,4944000
"91",4964001,4965000
"92",4992001,4993000
"93",4995001,4997000
"94",5001001,5002000
"95",5013001,5017000
"96",5019001,5022000
"97",5037001,5040000
"98",5051001,5054000
"99",5055001,5058000
"100",5060001,5066000
"101",5078001,5079000
"102",5080001,5083000
"103",5125001,5127000
"104",6127001,6128000
"105",6154001,6158000
"106",6171001,6175000
"107",6191001,6192000
"108",6194001,6195000
"109",6213001,6214000
"110",6220001,6221000
"111",6240001,6242000
"112",6258001,6260000
"113",6265001,6266000
"114",6282001,6288000
"115",6298001,6299000
"116",6330001,6332000
"117",6343001,6345000
"118",6358001,6366000
"119",6381001,6385000
"120",6398001,6399000
"121",6410001,6411000
"122",6430001,6431000
"123",6434001,6437000
"124",6526001,6527000
"125",6586001,6587000
"126",6658001,6660000
"127",6690001,6691000
"128",6696001,6697000
"129",6727001,6734000
"130",6736001,6737000
"131",6753001,6754000
"132",6760001,6761000
"133",6770001,6771000
"134",6777001,6778000
"135",6784001,6785000
"136",6810001,6812000
"137",6814001,6815000
"138",6821001,6825000
"139",6851001,6853000
"140",6855001,6856000
"141",6858001,6863000
"142",6888001,6890000
"143",6895001,6896000
"144",6910001,6911000
"145",6916001,6919000
"146",6920001,6921000
"147",6926001,6928000
"148",6930001,6931000
"149",6936001,6938000
"150",6940001,6942000
"151",6955001,6956000
"152",7120001,7123000
"153",7136001,7137000
"154",7171001,7172000
"155",7187001,7189000
"156",7278001,7279000
"157",7295001,7297000
"158",7298001,7301000
"159",10495001,10496000
"160",11617001,11618000
"161",12010001,12011000
"162",12422001,12423000
"163",12477001,12480000
"164",12780001,12782000
"165",12802001,12805000
"166",12818001,12820000
"167",12833001,12836000
"168",12880001,12882000
"169",12893001,12894000
"170",12897001,12899000
"171",12903001,12904000
"172",12910001,12911000
"173",12921001,12924000
"174",12925001,12926000
"175",12927001,12929000
"176",12943001,12944000
"177",12948001,12951000
"178",12955001,12956000
"179",12961001,12963000
"180",12965001,12967000
"181",12977001,12979000
"182",12992001,12993000
"183",13006001,13007000
"184",13008001,13013000
"185",13014001,13015000
"186",13016001,13017000
"187",13020001,13021000
"188",13022001,13026000
"189",13031001,13040000
"190",13044001,13047000
"191",13053001,13057000
"192",13059001,13060000
"193",13278001,13279000
"194",13288001,13289000
"195",14120001,14121000
"196",14317001,14318000
"197",15896001,15897000
"198",15900001,15902000
"199",15911001,15913000
"200",15914001,15915000
"201",15921001,15924000
"202",15930001,15931000
"203",15936001,15937000
"204",15944001,15949000
"205",15955001,15956000
"206",15959001,15961000
"207",15967001,15969000
"208",15974001,15975000
"209",15976001,15977000
"210",15983001,15984000
"211",16004001,16005000
"212",16046001,16050000
"213",16051001,16055000
"214",16056001,16057000
"215",16062001,16063000
"216",16097001,16100000
"217",16118001,16122000
"218",16129001,16133000
"219",16153001,16154000
"220",16171001,16176000
"221",16192001,16194000
"222",16220001,16223000
"223",16263001,16264000
"224",16265001,16266000
"225",16271001,16275000
"226",16285001,16289000
"227",16294001,16301000
"228",16306001,16316000
"229",16316001,16317000
"230",16326001,16327000
"231",16360001,16361000
"232",16363001,16368000
"233",16373001,16374000
"234",16386001,16389000
"235",16393001,16394000
"236",16396001,16406000
"237",16414001,16415000
"238",16426001,16427000
"239",16452001,16454000
"240",16463001,16464000
"241",16465001,16466000
"242",16476001,16477000
"243",16490001,16495000
"244",16507001,16508000
"245",16610001,16611000
"246",16612001,16620000
"247",16623001,16624000
"248",16628001,16630000
"249",16728001,16731000
"250",16736001,16739000
"251",16746001,16747000
"252",16780001,16785000
"253",16804001,16805000
"254",16809001,16812000
"255",16815001,16818000
"256",16842001,16844000
"257",16860001,16861000
"258",16869001,16870000
"259",16871001,16872000
"260",16874001,16878000
"261",16880001,16881000
"262",16884001,16886000
"263",16890001,16893000
"264",16894001,16896000
"265",16913001,16915000
"266",16923001,16926000
"267",16928001,16929000
"268",16930001,16934000
"269",16938001,16939000
"270",16940001,16941000
"271",16943001,16948000
"272",16950001,16952000
"273",16957001,16958000
"274",16959001,16960000
"275",16980001,16981000
"276",16982001,16984000
"277",16990001,16995000
"278",16999001,17001000
"279",17002001,17004000
"280",17026001,17029000
"281",17051001,17052000
"282",17055001,17058000
"283",17062001,17063000
"284",17066001,17067000
"285",17074001,17075000
"286",18211001,18212000
"287",18746001,18751000
"288",18828001,18829000
"289",18840001,18841000
"290",18872001,18874000
"291",18892001,18895000
"292",18896001,18897000
"293",18909001,18911000
"294",18921001,18922000
"295",18923001,18927000
"296",18937001,18938000
"297",18939001,18940000
"298",18942001,18943000
"299",18948001,18952000
"300",18956001,18960000
"301",18961001,18964000
"302",18990001,18993000
"303",19001001,19005000
"304",19006001,19007000
"305",19011001,19013000
"306",19023001,19026000
"307",19029001,19030000
"308",19054001,19055000
"309",19068001,19070000
"310",19073001,19074000
"311",19075001,19077000
"312",19085001,19087000
"313",19089001,19090000
"314",19092001,19096000
"315",19114001,19115000
"316",19117001,19121000
"317",19130001,19133000
"318",19137001,19138000
"319",19148001,19151000
"320",19157001,19159000
"321",19160001,19161000
"322",19164001,19167000
"323",19172001,19174000
"324",19175001,19177000
"325",19178001,19182000
"326",19209001,19210000
"327",19212001,19213000
"328",19227001,19230000
"329",19239001,19240000
"330",19255001,19256000
"331",19257001,19258000
"332",19269001,19274000
"333",19276001,19277000
"334",19279001,19285000
"335",19290001,19292000
"336",19295001,19297000
"337",19299001,19302000
"338",19303001,19306000
"339",19308001,19313000
"340",19316001,19317000
"341",19319001,19321000
"342",19326001,19328000
"343",19332001,19334000
"344",19341001,19347000
"345",19359001,19365000
"346",19370001,19371000
"347",19380001,19383000
"348",19400001,19401000
"349",19403001,19406000
"350",19421001,19422000
"351",19424001,19425000
"352",19443001,19444000
"353",19458001,19460000
"354",19461001,19462000
"355",19473001,19475000
"356",19503001,19504000
"357",19506001,19510000
"358",19523001,19525000
"359",19559001,19560000
"360",19561001,19564000
"361",19572001,19578000
"362",19589001,19591000
"363",19604001,19605000
"364",19619001,19620000
"365",19628001,19632000
"366",19664001,19667000
"367",19668001,19670000
"368",19686001,19688000
"369",19691001,19693000
"370",19697001,19700000
"371",19701001,19702000
"372",19712001,19717000
"373",19718001,19719000
"374",19741001,19743000
"375",19747001,19751000
"376",19770001,19772000
"377",19782001,19783000
"378",19790001,19791000
"379",19797001,19798000
"380",19801001,19802000
"381",19803001,19804000
"382",19811001,19812000
"383",19815001,19819000
"384",19822001,19825000
"385",19826001,19827000
"386",19842001,19844000
"387",19847001,19848000
"388",19849001,19850000
"389",19872001,19873000
"390",19876001,19878000
"391",19890001,19891000
"392",19910001,19911000
"393",19919001,19923000
"394",19928001,19929000
"395",19933001,19934000
"396",19950001,19951000
"397",19952001,19954000
"398",19956001,19957000
"399",23767001,23770000
"400",23779001,23780000
"401",24081001,24083000
"402",24112001,24114000
"403",24133001,24135000
"404",24174001,24176000
"405",24186001,24187000
"406",24207001,24209000
"407",24237001,24238000
"408",24254001,24255000
"409",24268001,24271000
"410",24286001,24287000
"411",24298001,24302000
"412",24316001,24318000
"413",24336001,24337000
"414",24364001,24366000
"415",24377001,24378000
"416",24385001,24386000
"417",24391001,24392000
"418",24399001,24401000
"419",24407001,24408000
"420",24419001,24420000
"421",24462001,24464000
"422",24473001,24476000
"423",24480001,24484000
"424",24504001,24509000
"425",24517001,24518000
"426",24529001,24533000
"427",24546001,24549000
"428",24564001,24565000
"429",24587001,24589000
"430",24592001,24595000
"431",24600001,24602000
"432",24603001,24604000
"433",24610001,24613000
"434",24628001,24631000
"435",24642001,24643000
"436",24653001,24654000
"437",24662001,24663000
"438",24817001,24818000
"439",24844001,24847000
"440",24849001,24854000
"441",24869001,24870000
"442",24879001,24881000
"443",24882001,24886000
"444",24889001,24894000
"445",24902001,24906000
"446",24907001,24908000
"447",24944001,24945000
"448",24949001,24951000
"449",24953001,24955000
"450",24964001,24966000
"451",24971001,24974000
"452",24975001,24976000
"453",25005001,25012000
"454",25030001,25031000
"455",25036001,25037000
"456",25071001,25074000
"457",25075001,25079000
"458",25082001,25083000
"459",25084001,25091000
"460",25094001,25095000
"461",25105001,25107000
"462",25133001,25134000
"463",25145001,25148000
"464",25149001,25156000
"465",25173001,25176000
"466",25177001,25183000
"467",25186001,25190000
"468",25192001,25193000
"469",25214001,25215000
"470",25219001,25222000
"471",25237001,25240000
"472",25241001,25243000
"473",25248001,25254000
"474",25256001,25257000
"475",25264001,25265000
"476",25266001,25270000
"477",25275001,25284000
"478",25295001,25300000
"479",25301001,25302000
"480",25304001,25307000
"481",25314001,25319000
"482",25320001,25324000
"483",25366001,25367000
"484",25376001,25378000
"485",25379001,25380000
"486",25395001,25398000
"487",25399001,25400000
"488",25401001,25404000
"489",25409001,25410000
"490",25417001,25418000
"491",25424001,25425000
"492",25432001,25434000
"493",25448001,25449000
"494",25450001,25451000
"495",25479001,25480000
"496",25531001,25532000
"497",25599001,25600000
"498",25618001,25620000
"499",25627001,25628000
"500",25658001,25660000
"501",25669001,25670000
"502",25672001,25673000
"503",25680001,25682000
"504",25686001,25690000
"505",25705001,25706000
"506",25708001,25709000
"507",25718001,25721000
"508",25753001,25757000
"509",25788001,25789000
"510",25805001,25806000
"511",25816001,25818000
"512",25847001,25849000
"513",25860001,25861000
"514",25903001,25905000
"515",26706001,26707000
"516",26778001,26779000
"517",26780001,26781000
"518",27132001,27133000
"519",27160001,27161000
"520",27166001,27168000
"521",27178001,27181000
"522",27185001,27186000
"523",27189001,27190000
"524",27195001,27197000
"525",27227001,27234000
"526",27244001,27245000
"527",27249001,27250000
"528",27257001,27261000
"529",27273001,27275000
"530",27285001,27286000
"531",27302001,27303000
"532",27306001,27307000
"533",27308001,27312000
"534",27325001,27327000
"535",27329001,27334000
"536",27335001,27338000
"537",27341001,27342000
"538",27345001,27346000
"539",27354001,27358000
"540",27359001,27363000
"541",27368001,27369000
"542",27385001,27386000
"543",27395001,27398000
"544",27402001,27404000
"545",27406001,27407000
"546",27408001,27410000
"547",27433001,27434000
"548",27437001,27438000
"549",27447001,27450000
"550",27472001,27476000
"551",27480001,27483000
"552",27484001,27489000
"553",27490001,27492000
"554",27506001,27510000
"555",27520001,27521000
"556",27526001,27527000
"557",27542001,27544000
"558",27550001,27551000
"559",27552001,27554000
"560",27586001,27588000
"561",27589001,27593000
"562",27647001,27648000
"563",27649001,27655000
"564",27674001,27676000
"565",27685001,27687000
"566",27688001,27692000
"567",27725001,27726000
"568",27731001,27736000
"569",27745001,27746000
"570",27753001,27754000
"571",27756001,27758000
"572",27794001,27795000
"573",27798001,27800000
"574",27801001,27802000
"575",27803001,27806000
"576",27837001,27841000
"577",27859001,27862000
"578",27929001,27930000
"579",27978001,27980000
"580",28013001,28015000
"581",28049001,28051000
"582",28148001,28149000
"583",28161001,28162000
"584",28168001,28171000
"585",28178001,28181000
"586",28208001,28210000
"587",28264001,28265000
"588",28267001,28270000
"589",28271001,28272000
"590",28277001,28279000
"591",28290001,28296000
"592",28298001,28304000
"593",28309001,28310000
"594",28311001,28314000
"595",28336001,28343000
"596",28344001,28346000
"597",28348001,28356000
"598",28358001,28359000
"599",28371001,28377000
"600",28379001,28384000
"601",28386001,28387000
"602",28392001,28394000
"603",28397001,28399000
"604",28418001,28419000
"605",28434001,28438000
"606",28446001,28449000
"607",28451001,28452000
"608",28464001,28469000
"609",28484001,28485000
"610",28488001,28489000
"611",28490001,28491000
"612",28492001,28493000
"613",28528001,28529000
"614",28545001,28546000
"615",28556001,28557000
"616",28568001,28569000
"617",28578001,28579000
"618",28596001,28603000
"619",28656001,28657000
"620",28675001,28676000
"621",28677001,28678000
"622",28692001,28695000
"623",28716001,28718000
"624",28719001,28720000
"625",28726001,28728000
"626",28732001,28735000
"627",28741001,28744000
"628",28765001,28768000
"629",28780001,28781000
"630",28794001,28795000
"631",28796001,28797000
"632",28801001,28807000
"633",28808001,28815000
"634",28816001,28817000
"635",28818001,28827000
"636",28828001,28829000
"637",28834001,28836000
"638",28837001,28838000
"639",28866001,28869000
"640",28879001,28880000
"641",28893001,28894000
"642",28938001,28939000
"643",28946001,28947000
"644",28951001,28955000
"645",28956001,28965000
"646",28966001,28968000
"647",28969001,28970000
"648",28972001,28974000
"649",28981001,28985000
"650",29000001,29002000
"651",29039001,29042000
"652",29043001,29045000
"653",29046001,29047000
"654",29051001,29052000
"655",29061001,29062000
"656",29071001,29072000
"657",29124001,29128000
"658",29132001,29133000
"659",29137001,29138000
"660",29155001,29157000
"661",29158001,29159000
"662",29163001,29164000
"663",29168001,29172000
"664",29178001,29182000
"665",29211001,29215000
"666",29231001,29233000
"667",29237001,29240000
"668",29247001,29249000
"669",29280001,29284000
"670",29288001,29298000
"671",29301001,29302000
"672",29303001,29310000
"673",29313001,29314000
"674",29315001,29316000
"675",29317001,29321000
"676",29364001,29365000
"677",29367001,29368000
"678",29383001,29384000
"679",29404001,29405000
"680",29417001,29418000
"681",29432001,29433000
"682",29453001,29454000
"683",29481001,29482000
"684",29489001,29492000
"685",29496001,29498000
"686",29517001,29520000
"687",29521001,29524000
"688",29767001,29770000
"689",29783001,29786000
"690",29815001,29817000
"691",29818001,29820000
"692",29853001,29855000
"693",29859001,29862000
"694",29904001,29910000
"695",29942001,29945000
"696",29952001,29956000
"697",29981001,29986000
"698",30010001,30011000
"699",30025001,30027000
"700",30031001,30032000
"701",30050001,30052000
"702",30053001,30054000
"703",30072001,30075000
"704",30089001,30092000
"705",30093001,30097000
"706",30099001,30100000
"707",30121001,30123000
"708",30143001,30145000
"709",30168001,30172000
"710",30179001,30180000
"711",30181001,30182000
"712",30183001,30185000
"713",30189001,30190000
"714",30193001,30201000
"715",30203001,30206000
"716",30216001,30218000
"717",30219001,30220000
"718",30229001,30230000
"719",30231001,30234000
"720",30279001,30282000
"721",30291001,30292000
"722",30301001,30302000
"723",30306001,30307000
"724",30308001,30310000
"725",30314001,30315000
"726",30321001,30324000
"727",30325001,30326000
"728",30329001,30330000
"729",30331001,30333000
"730",30336001,30337000
"731",30346001,30349000
"732",30353001,30354000
"733",30358001,30360000
"734",30362001,30364000
"735",30370001,30371000
"736",30373001,30375000
"737",30399001,30400000
"738",30421001,30423000
"739",30431001,30433000
"740",30434001,30435000
"741",30437001,30438000
"742",30440001,30441000
"743",30443001,30446000
"744",30453001,30454000
"745",30456001,30459000
"746",30463001,30464000
"747",30472001,30473000
"748",30477001,30479000
"749",30490001,30491000
"750",30492001,30494000
"751",30518001,30519000
"752",30534001,30537000
"753",30551001,30554000
"754",30559001,30564000
"755",30568001,30569000
"756",30587001,30590000
"757",30599001,30601000
"758",30602001,30603000
"759",30608001,30609000
"760",30613001,30616000
"761",30619001,30620000
"762",30625001,30627000
"763",30634001,30635000
"764",30639001,30640000
"765",30649001,30651000
"766",30652001,30653000
"767",30664001,30666000
"768",30669001,30670000
"769",30717001,30718000
"770",30721001,30722000
"771",30728001,30731000
"772",30844001,30846000
"773",30859001,30861000
"774",30955001,30960000
"775",30972001,30975000
"776",31053001,31054000
"777",31056001,31057000
"778",31058001,31060000
"779",31078001,31079000
"780",31097001,31099000
"781",31116001,31117000
"782",31126001,31128000
"783",31148001,31153000
"784",31156001,31157000
"785",31168001,31169000
"786",31177001,31178000
"787",34132001,34136000
"788",34165001,34171000
"789",34183001,34184000
"790",34196001,34199000
"791",34229001,34236000
"792",34237001,34238000
"793",34252001,34253000
"794",34309001,34310000
"795",34312001,34315000
"796",34319001,34320000
"797",34382001,34383000
"798",34385001,34386000
"799",34387001,34393000
"800",34407001,34408000
"801",34439001,34440000
"802",34444001,34445000
"803",34462001,34463000
"804",34570001,34573000
"805",34606001,34608000
"806",34630001,34631000
"807",34652001,34657000
"808",34669001,34670000
"809",34671001,34673000
"810",34676001,34677000
"811",34690001,34691000
"812",34692001,34693000
"813",34717001,34718000
"814",34719001,34720000
"815",34721001,34723000
"816",34750001,34751000
"817",34752001,34753000
"818",34773001,34774000
"819",34798001,34801000
"820",34811001,34814000
"821",34826001,34827000
"822",34849001,34851000
"823",34897001,34898000
"824",34910001,34913000
"825",34938001,34941000
"826",34974001,34975000
"827",35026001,35027000
"828",35055001,35058000
"829",35073001,35074000
"830",35086001,35088000
"831",35116001,35121000
"832",35169001,35170000
"833",35172001,35173000
"834",35177001,35178000
"835",35185001,35186000
"836",35214001,35217000
"837",35230001,35231000
"838",35232001,35236000
"839",35238001,35239000
"840",35252001,35254000
"841",35269001,35271000
"842",35318001,35320000
"843",35322001,35324000
"844",35331001,35336000
"845",35340001,35341000
"846",35351001,35352000
"847",35371001,35372000
"848",35373001,35374000
"849",35382001,35384000
"850",35393001,35394000
"851",35395001,35398000
"852",35401001,35402000
"853",35448001,35449000
"854",35512001,35513000
"855",35529001,35531000
"856",35537001,35538000
"857",35546001,35547000
"858",35553001,35557000
"859",35579001,35581000
"860",35584001,35587000
"861",35628001,35629000
"862",35646001,35650000
"863",35659001,35660000
"864",35667001,35669000
"865",35686001,35688000
"866",35753001,35756000
"867",35759001,35760000
"868",35801001,35804000
"869",35880001,35881000
"870",35901001,35903000
"871",35948001,35950000
"872",35958001,35959000
"873",36016001,36018000
"874",36071001,36077000
"875",36269001,36270000
"876",36418001,36419000
"877",36480001,36481000
"878",36548001,36549000
"879",36658001,36660000
"880",36678001,36680000
"881",36690001,36693000
"882",36694001,36700000
"883",36706001,36712000
"884",36721001,36722000
"885",36730001,36732000
"886",36876001,36879000
"887",36973001,36976000
"888",37044001,37045000
"889",37180001,37182000
"890",37213001,37214000
"891",37267001,37268000
"892",37290001,37291000
"893",37311001,37312000
"894",37318001,37319000
"895",37320001,37321000
"896",37338001,37339000
"897",37342001,37343000
"898",37346001,37347000
"899",37357001,37358000
"900",37360001,37365000
"901",37366001,37367000
"902",37369001,37370000
"903",37374001,37375000
"904",37439001,37440000
"905",37464001,37465000
"906",37466001,37467000
"907",37483001,37484000
"908",37557001,37558000
"909",37562001,37567000
"910",37604001,37605000
"911",37624001,37627000
"912",37689001,37692000
"913",37694001,37696000
"914",37733001,37735000
"915",37736001,37737000
"916",37768001,37776000
"917",37842001,37843000
"918",37935001,37936000
"919",37951001,37952000
"920",37970001,37972000
"921",37973001,37974000
"922",37999001,3.8e+07
"923",38017001,38020000
"924",38027001,38031000
"925",38047001,38048000
"926",38060001,38062000
"927",38074001,38076000
"928",38084001,38086000
"929",38106001,38110000
"930",38112001,38114000
"931",38141001,38142000
"932",38167001,38168000
"933",38174001,38176000
"934",38182001,38185000
"935",38200001,38202000
"936",38227001,38229000
"937",38255001,38256000
"938",38270001,38273000
"939",39449001,39451000
"940",39487001,39488000
"941",39494001,39495000
"942",39517001,39519000
"943",39544001,39546000
"944",39552001,39554000
"945",39655001,39656000
"946",39705001,39706000
"947",39716001,39717000
"948",39728001,39729000
"949",39848001,39849000
"950",40273001,40274000
"951",40332001,40333000
"952",40391001,40392000
"953",40659001,40661000
"954",40898001,40900000
"955",40901001,40902000
"956",40942001,40943000
"957",41393001,41394000
"958",41499001,41501000
"959",41512001,41513000
"960",41560001,41561000
"961",41582001,41583000
"962",41598001,41601000
"963",41632001,41635000
"964",42497001,42498000
"965",42505001,42507000
"966",42642001,42643000
"967",42692001,42694000
"968",43160001,43161000
"969",43163001,43165000
"970",43166001,43168000
"971",43169001,43170000
"972",43171001,43172000
"973",43177001,43178000
"974",43185001,43187000
"975",43190001,43192000
"976",43201001,43202000
"977",43203001,43204000
"978",43267001,43268000
"979",43283001,43284000
"980",43312001,43314000
"981",43326001,43327000
"982",43333001,43334000
"983",43344001,43345000
"984",43346001,43347000
"985",43378001,43379000
"986",43423001,43424000
"987",43442001,43446000
"988",43465001,43467000
"989",43482001,43483000
"990",43489001,43491000
"991",43495001,43496000
"992",43561001,43563000
"993",43578001,43581000
"994",43601001,43603000
"995",43606001,43609000
"996",43624001,43625000
"997",43671001,43673000
"998",43681001,43682000
"999",43782001,43783000
"1000",43797001,43798000
"1001",43873001,43874000
"1002",43895001,43896000
"1003",43920001,43921000
"1004",44245001,44248000
"1005",44262001,44264000
"1006",44276001,44277000
"1007",44291001,44292000
"1008",44301001,44302000
"1009",44303001,44306000
"1010",44310001,44312000
"1011",44335001,44336000
"1012",44350001,44352000
"1013",44353001,44354000
"1014",44356001,44361000
"1015",44373001,44376000
"1016",44383001,44385000
"1017",44398001,44399000
"1018",44404001,44407000
"1019",44428001,44431000
"1020",44433001,44435000
"1021",44442001,44444000
"1022",44462001,44465000
"1023",44467001,44469000
"1024",44485001,44486000
"1025",44495001,44498000
"1026",44501001,44502000
"1027",44527001,44528000
"1028",44548001,44550000
"1029",44553001,44555000
"1030",44561001,44562000
"1031",44586001,44595000
"1032",44602001,44607000
"1033",44614001,44616000
"1034",44639001,44640000
"1035",44641001,44642000
"1036",44647001,44648000
"1037",44650001,44651000
"1038",44655001,44656000
"1039",44670001,44672000
"1040",44697001,44698000
"1041",44702001,44705000
"1042",44707001,44709000
"1043",44745001,44750000
"1044",44815001,44820000
"1045",44824001,44826000
"1046",44848001,44851000
"1047",44854001,44859000
"1048",44860001,44861000
"1049",44868001,44871000
"1050",44891001,44899000
"1051",44901001,44902000
"1052",44925001,44926000
"1053",44929001,44933000
"1054",44951001,44954000
"1055",44955001,44957000
"1056",44958001,44959000
"1057",44970001,44971000
"1058",44973001,44976000
"1059",44983001,44989000
"1060",44990001,44991000
"1061",44996001,44999000
"1062",45015001,45020000
"1063",45024001,45026000
"1064",45050001,45056000
"1065",45061001,45064000
"1066",45067001,45069000
"1067",45078001,45082000
"1068",45091001,45095000
"1069",45105001,45108000
"1070",45110001,45111000
"1071",45115001,45119000
"1072",45120001,45122000
"1073",45123001,45132000
"1074",45133001,45135000
"1075",45136001,45137000
"1076",45151001,45152000
"1077",45153001,45156000
"1078",45161001,45164000
"1079",45168001,45169000
"1080",45175001,45176000
"1081",45182001,45183000
"1082",45198001,45199000
"1083",45203001,45206000
"1084",45211001,45214000
"1085",45215001,45218000
"1086",45229001,45230000
"1087",45233001,45236000
"1088",45240001,45242000
"1089",45247001,45249000
"1090",45277001,45278000
"1091",45299001,45301000
"1092",45305001,45306000
"1093",45309001,45310000
"1094",45313001,45314000
"1095",45333001,45335000
"1096",45338001,45344000
"1097",45360001,45370000
"1098",45370001,45373000
"1099",45374001,45375000
"1100",45393001,45397000
"1101",45403001,45408000
"1102",45413001,45415000
"1103",45433001,45436000
"1104",45437001,45439000
"1105",45447001,45450000
"1106",45451001,45452000
"1107",45454001,45464000
"1108",45464001,45469000
"1109",45470001,45472000
"1110",45477001,45478000
"1111",45481001,45482000
"1112",45487001,45492000
"1113",45509001,45511000
"1114",45519001,45524000
"1115",45525001,45529000
"1116",45538001,45539000
"1117",45551001,45552000
"1118",45555001,45557000
"1119",45560001,45562000
"1120",45567001,45572000
"1121",45577001,45578000
"1122",45589001,45592000
"1123",45593001,45594000
"1124",45599001,45600000
"1125",45616001,45617000
"1126",45621001,45622000
"1127",45628001,45631000
"1128",45636001,45637000
"1129",45638001,45641000
"1130",45642001,45645000
"1131",45682001,45684000
"1132",45687001,45688000
"1133",45694001,45695000
"1134",45699001,45709000
"1135",45709001,45710000
"1136",45714001,45720000
"1137",45721001,45722000
"1138",45731001,45732000
"1139",45735001,45736000
"1140",45739001,45740000
"1141",45744001,45745000
"1142",45779001,45780000
"1143",45783001,45788000
"1144",45799001,45802000
"1145",45805001,45806000
"1146",45813001,45816000
"1147",45830001,45832000
"1148",45857001,45858000
"1149",45865001,45868000
"1150",45871001,45874000
"1151",45895001,45899000
"1152",45901001,45902000
"1153",45903001,45904000
"1154",45916001,45918000
"1155",45919001,45920000
"1156",45921001,45925000
"1157",45929001,45930000
"1158",45935001,45936000
"1159",45943001,45944000
"1160",45987001,45988000
"1161",46009001,46010000
"1162",46013001,46014000
"1163",46030001,46031000
"1164",46033001,46035000
"1165",46085001,46087000
"1166",46096001,46097000
"1167",46100001,46102000
"1168",46131001,46132000
"1169",46134001,46135000
"1170",46179001,46181000
"1171",46218001,46219000
"1172",46226001,46227000
"1173",46280001,46281000
"1174",46377001,46378000
"1175",46379001,46380000
"1176",46393001,46394000
"1177",46395001,46398000
"1178",46418001,46419000
"1179",46422001,46423000
"1180",46454001,46455000
"1181",46508001,46510000
"1182",46573001,46574000
"1183",46601001,46603000
"1184",46606001,46608000
"1185",46638001,46641000
"1186",46665001,46666000
"1187",46667001,46668000
"1188",46677001,46678000
"1189",46685001,46687000
"1190",46709001,46712000
"1191",46714001,46715000
"1192",46761001,46762000
"1193",46770001,46771000
"1194",46795001,46800000
"1195",46838001,46840000
"1196",46845001,46848000
"1197",46918001,46922000
"1198",46958001,46960000
"1199",46962001,46965000
"1200",47007001,47010000
"1201",47015001,47018000
"1202",47023001,47024000
"1203",47049001,47052000
"1204",47132001,47133000
"1205",47144001,47145000
"1206",47146001,47147000
"1207",47150001,47151000
"1208",48132001,48133000
"1209",48137001,48139000
"1210",48749001,48751000
"1211",48788001,48791000
"1212",48835001,48836000
"1213",48876001,48877000
"1214",48880001,48883000
"1215",48894001,48895000
"1216",48897001,48898000
"1217",48918001,48919000
"1218",48928001,48929000
"1219",48930001,48931000
"1220",48958001,48960000
"1221",48982001,48983000
"1222",48994001,48997000
"1223",49004001,49005000
"1224",49018001,49019000
"1225",49052001,49054000
"1226",49065001,49067000
"1227",49069001,49072000
"1228",49079001,49080000
"1229",49085001,49086000
"1230",49103001,49106000
"1231",49120001,49122000
"1232",49132001,49133000
"1233",49209001,49210000
"1234",49245001,49247000
"1235",49250001,49251000
"1236",49253001,49254000
"1237",49272001,49273000
"1238",49303001,49305000
"1239",49306001,49307000
"1240",49337001,49338000
"1241",49340001,49342000
"1242",49347001,49349000
"1243",49375001,49376000
"1244",49399001,49401000
"1245",49426001,49427000
"1246",49429001,49430000
"1247",49467001,49469000
"1248",49493001,49494000
"1249",49504001,49505000
"1250",49522001,49524000
"1251",49527001,49528000
"1252",49601001,49602000
"1253",49616001,49617000
"1254",49633001,49642000
"1255",49652001,49653000
"1256",49677001,49679000
"1257",49687001,49688000
"1258",49689001,49690000
"1259",49696001,49698000
"1260",49699001,49700000
"1261",49703001,49706000
"1262",49709001,49711000
"1263",49742001,49743000
"1264",49751001,49756000
"1265",49778001,49780000
"1266",49787001,49788000
"1267",49819001,49820000
"1268",49842001,49843000
"1269",49902001,49903000
"1270",49908001,49912000
"1271",49915001,49916000
"1272",49922001,49924000
"1273",49974001,49976000
"1274",50267001,50268000
"1275",50357001,50358000
"1276",50515001,50516000
"1277",50924001,50925000
"1278",51259001,51260000
"1279",51270001,51271000
"1280",51300001,51301000
"1281",51314001,51315000
"1282",51435001,51436000
"1283",51511001,51512000
"1284",51614001,51615000
"1285",51618001,51619000
"1286",51621001,51622000
"1287",51626001,51628000
"1288",51694001,51695000
"1289",51772001,51773000
"1290",51783001,51785000
"1291",51860001,51864000
"1292",51869001,51870000
"1293",51878001,51880000
"1294",51928001,51930000
"1295",51972001,51973000
"1296",52004001,52007000
"1297",52038001,52039000
"1298",52392001,52393000
"1299",54734001,54735000
"1300",55711001,55712000
"1301",55793001,55795000
"1302",55841001,55844000
"1303",55961001,55965000
"1304",55967001,55969000
"1305",55986001,55987000
"1306",56019001,56021000
"1307",56042001,56043000
"1308",56048001,56052000
"1309",56518001,56520000
"1310",57384001,57385000
"1311",57387001,57388000
"1312",57509001,57511000
"1313",57538001,57539000
"1314",57590001,57593000
"1315",57994001,57995000
"1316",58187001,58188000
"1317",58224001,58226000
"1318",58397001,58401000
"1319",58657001,58659000
"1320",58668001,58669000
"1321",58752001,58753000
"1322",58822001,58823000
"1323",58842001,58845000
"1324",58866001,58868000
"1325",59227001,59233000
"1326",59235001,59236000
"1327",59268001,59269000
"1328",60001001,60008000
"1329",60170001,60172000
"1330",60243001,60245000
"1331",60391001,60392000
"1332",60449001,60450000
"1333",60492001,60494000
"1334",60622001,60623000
"1335",61740001,61741000
"1336",61837001,61838000
"1337",61877001,61879000
"1338",61916001,61918000
"1339",61940001,61942000
"1340",61992001,61993000
"1341",62209001,62210000
"1342",62224001,62226000
"1343",62227001,62229000
"1344",62230001,62232000
"1345",62234001,62235000
"1346",62236001,62237000
"1347",62242001,62243000
"1348",62260001,62264000
"1349",62266001,62267000
"1350",62268001,62273000
"1351",62302001,62303000
"1352",62306001,62309000
"1353",62347001,62349000
"1354",62365001,62366000
"1355",62375001,62378000
"1356",62382001,62383000
"1357",62388001,62389000
"1358",62399001,62401000
"1359",62406001,62411000
"1360",62414001,62424000
"1361",62424001,62425000
"1362",62427001,62429000
"1363",62433001,62434000
"1364",62436001,62437000
"1365",62445001,62448000
"1366",62452001,62453000
"1367",62462001,62466000
"1368",62877001,62878000
"1369",62924001,62926000
"1370",62964001,62965000
"1371",63113001,63116000
"1372",63189001,63191000
"1373",63209001,63210000
"1374",63211001,63213000
"1375",63319001,63320000
"1376",63322001,63323000
"1377",63346001,63347000
"1378",63443001,63446000
"1379",63586001,63587000
"1380",63672001,63673000
"1381",63752001,63754000
"1382",63755001,63756000
"1383",63757001,63759000
"1384",63765001,63766000
"1385",63796001,63797000
"1386",63887001,63888000
"1387",63897001,63898000
"1388",63908001,63909000
"1389",63912001,63914000
"1390",63935001,63941000
"1391",63948001,63949000
"1392",63952001,63953000
"1393",63955001,63959000
"1394",63970001,63972000
"1395",63974001,63975000
"1396",63986001,63987000
"1397",64033001,64034000
"1398",64048001,64049000
"1399",64059001,64061000
"1400",64159001,64160000
"1401",64165001,64166000
"1402",64226001,64227000
"1403",64271001,64273000
"1404",64275001,64276000
"1405",64277001,64278000
"1406",64279001,64281000
"1407",64284001,64285000
"1408",64286001,64289000
"1409",64326001,64328000
"1410",64373001,64375000
"1411",64391001,64394000
"1412",64425001,64426000
"1413",64497001,64498000
"1414",64501001,64504000
"1415",64505001,64506000
"1416",64518001,64519000
"1417",64521001,64523000
"1418",64533001,64534000
"1419",64540001,64541000
"1420",64579001,64580000
"1421",64608001,64609000
"1422",64634001,64635000
"1423",64648001,64649000
"1424",64688001,64689000
"1425",64730001,64731000
"1426",64738001,64743000
"1427",64751001,64752000
"1428",64754001,64755000
"1429",64773001,64774000
"1430",64784001,64786000
"1431",64788001,64789000
"1432",64806001,64807000
"1433",64828001,64833000
"1434",64839001,64842000
"1435",64843001,64844000
"1436",64871001,64875000
"1437",64896001,64897000
"1438",64920001,64921000
"1439",64950001,64951000
"1440",65073001,65075000
"1441",65082001,65083000
"1442",65154001,65158000
"1443",65317001,65318000
"1444",65319001,65320000
"1445",65356001,65357000
"1446",65368001,65373000
"1447",65393001,65395000
"1448",65416001,65418000
"1449",65420001,65423000
"1450",65430001,65431000
"1451",65438001,65439000
"1452",65450001,65451000
"1453",65453001,65455000
"1454",65486001,65487000
"1455",65498001,65499000
"1456",65519001,65521000
"1457",65526001,65528000
"1458",65532001,65533000
"1459",65642001,65643000
"1460",65644001,65647000
"1461",65692001,65695000
"1462",65704001,65706000
"1463",65861001,65863000
"1464",65864001,65865000
"1465",65873001,65874000
"1466",65930001,65931000
"1467",65955001,65956000
"1468",66055001,66056000
"1469",66060001,66062000
"1470",66078001,66081000
"1471",66102001,66103000
"1472",66108001,66112000
"1473",66165001,66166000
"1474",66247001,66248000
"1475",66282001,66284000
"1476",66293001,66294000
"1477",66297001,66298000
"1478",66300001,66302000
"1479",66310001,66311000
"1480",66347001,66348000
"1481",66387001,66390000
"1482",66427001,66428000
"1483",66434001,66435000
"1484",66448001,66451000
"1485",66480001,66481000
"1486",66660001,66662000
"1487",66688001,66691000
"1488",66790001,66791000
"1489",66803001,66804000
"1490",66820001,66821000
"1491",66839001,66841000
"1492",66842001,66843000
"1493",66966001,66968000
"1494",67087001,67088000
"1495",67199001,67200000
"1496",67211001,67213000
"1497",67222001,67223000
"1498",67243001,67245000
"1499",67295001,67296000
"1500",67356001,67357000
"1501",67362001,67363000
"1502",67370001,67375000
"1503",67445001,67447000
"1504",67463001,67464000
"1505",67619001,67621000
"1506",67630001,67632000
"1507",67644001,67650000
"1508",67672001,67673000
"1509",67704001,67705000
"1510",67714001,67715000
"1511",67758001,67761000
"1512",67788001,67789000
"1513",67803001,67804000
"1514",67849001,67850000
"1515",67948001,67955000
"1516",67961001,67963000
"1517",67973001,67974000
"1518",68080001,68081000
"1519",68085001,68087000
"1520",68118001,68119000
"1521",68127001,68131000
"1522",68233001,68234000
"1523",68264001,68265000
"1524",68275001,68277000
"1525",68301001,68304000
"1526",68306001,68307000
"1527",68357001,68358000
"1528",68369001,68371000
"1529",68374001,68375000
"1530",68396001,68397000
"1531",68440001,68443000
"1532",68477001,68479000
"1533",68480001,68482000
"1534",68571001,68572000
"1535",68579001,68581000
"1536",68746001,68747000
"1537",68748001,68752000
"1538",68760001,68761000
"1539",68810001,68811000
"1540",68823001,68824000
"1541",68830001,68831000
"1542",68977001,68979000
"1543",69116001,69117000
"1544",69244001,69245000
"1545",69398001,69399000
"1546",69418001,69419000
"1547",69490001,69492000
"1548",69578001,69580000
"1549",69581001,69583000
"1550",69584001,69585000
"1551",69810001,69811000
"1552",69950001,69951000
"1553",69980001,69981000
"1554",70068001,70069000
"1555",70091001,70092000
"1556",70104001,70106000
"1557",70109001,70110000
"1558",70118001,70120000
"1559",70166001,70167000
"1560",70279001,70283000
"1561",70286001,70289000
"1562",70325001,70335000
"1563",70335001,70336000
"1564",70337001,70339000
"1565",70341001,70344000
"1566",70345001,70355000
"1567",70355001,70365000
"1568",70365001,70374000
"1569",70402001,70403000
"1570",70424001,70425000
"1571",70514001,70516000
"1572",70588001,70589000
"1573",70590001,70593000
"1574",70623001,70627000
"1575",70744001,70745000
"1576",70785001,70786000
"1577",70788001,70790000
"1578",70794001,70798000
"1579",70813001,70814000
"1580",70845001,70850000
"1581",70860001,70865000
"1582",70922001,70923000
"1583",70928001,70933000
"1584",70971001,70975000
"1585",71018001,71019000
"1586",71021001,71026000
"1587",71098001,71099000
"1588",71112001,71113000
"1589",71121001,71122000
"1590",71216001,71217000
"1591",71219001,71221000
"1592",71223001,71225000
"1593",71234001,71235000
"1594",71249001,71250000
"1595",71372001,71373000
"1596",71379001,71387000
"1597",71411001,71413000
"1598",71471001,71473000
"1599",71501001,71502000
"1600",71581001,71583000
"1601",71705001,71707000
"1602",71746001,71747000
"1603",71867001,71868000
"1604",71960001,71962000
"1605",72104001,72105000
"1606",72149001,72150000
"1607",72238001,72239000
"1608",72240001,72241000
"1609",72306001,72307000
"1610",72362001,72363000
"1611",72391001,72392000
"1612",72400001,72402000
"1613",72497001,72498000
"1614",72501001,72502000
"1615",72519001,72520000
"1616",72540001,72543000
"1617",72715001,72716000
"1618",72738001,72739000
"1619",72751001,72753000
"1620",72773001,72775000
"1621",72836001,72839000
"1622",72857001,72858000
"1623",72867001,72868000
"1624",72967001,72969000
"1625",73032001,73033000
"1626",73133001,73134000
"1627",73137001,73143000
"1628",73151001,73152000
"1629",73184001,73187000
"1630",73188001,73189000
"1631",73191001,73193000
"1632",73207001,73210000
"1633",73222001,73224000
"1634",73302001,73308000
"1635",73336001,73337000
"1636",73344001,73345000
"1637",73372001,73379000
"1638",73386001,73388000
"1639",73389001,73395000
"1640",73397001,73401000
"1641",73402001,73403000
"1642",73419001,73421000
"1643",73422001,73427000
"1644",73434001,73435000
"1645",73437001,73438000
"1646",73459001,73460000
"1647",73476001,73477000
"1648",73501001,73502000
"1649",73507001,73508000
"1650",73517001,73522000
"1651",73523001,73530000
"1652",73531001,73532000
"1653",73533001,73543000
"1654",73543001,73553000
"1655",73553001,73560000
"1656",73561001,73562000
"1657",73576001,73577000
"1658",73578001,73579000
"1659",73584001,73587000
"1660",73589001,73590000
"1661",73593001,73597000
"1662",73602001,73610000
"1663",73611001,73612000
"1664",73614001,73621000
"1665",73622001,73623000
"1666",73626001,73632000
"1667",73637001,73640000
"1668",73647001,73649000
"1669",73654001,73657000
"1670",73715001,73717000
"1671",73730001,73731000
"1672",73739001,73742000
"1673",73855001,73856000
"1674",73890001,73892000
"1675",73894001,73896000
"1676",73918001,73919000
"1677",73938001,73939000
"1678",74006001,74008000
"1679",74009001,74010000
"1680",74012001,74015000
"1681",74025001,74026000
"1682",74130001,74131000
"1683",74224001,74225000
"1684",74241001,74242000
"1685",74330001,74331000
"1686",74354001,74355000
"1687",74371001,74372000
"1688",74393001,74394000
"1689",74553001,74556000
"1690",74687001,74689000
"1691",74709001,74711000
"1692",74772001,74773000
"1693",75107001,75108000
"1694",75110001,75111000
"1695",75118001,75119000
"1696",75134001,75136000
"1697",75142001,75143000
"1698",75209001,75210000
"1699",75211001,75212000
"1700",75246001,75247000
"1701",75295001,75297000
"1702",75308001,75309000
"1703",75329001,75330000
"1704",75366001,75367000
"1705",75371001,75372000
"1706",75399001,75400000
"1707",75414001,75416000
"1708",75431001,75432000
"1709",75454001,75458000
"1710",75468001,75469000
"1711",75470001,75471000
"1712",75520001,75522000
"1713",75575001,75576000
"1714",75613001,75614000
"1715",75633001,75635000
"1716",75639001,75640000
"1717",75641001,75644000
"1718",75739001,75740000
"1719",75752001,75756000
"1720",75778001,75779000
"1721",75781001,75783000
"1722",75826001,75829000
"1723",75846001,75850000
"1724",75854001,75855000
"1725",75880001,75882000
"1726",75899001,75900000
"1727",75910001,75911000
"1728",75914001,75915000
"1729",75927001,75928000
"1730",75982001,75984000
"1731",76165001,76166000
"1732",76185001,76186000
"1733",76354001,76355000
"1734",76371001,76372000
"1735",76392001,76394000
"1736",76560001,76562000
"1737",76889001,76891000
"1738",76941001,76942000
"1739",77445001,77446000
"1740",77623001,77624000
"1741",77812001,77813000
"1742",78566001,78567000
"1743",78569001,78570000
"1744",78577001,78580000
"1745",78596001,78597000
"1746",78766001,78767000
"1747",78782001,78784000
"1748",78791001,78792000
"1749",78826001,78828000
"1750",78846001,78848000
"1751",78880001,78888000
"1752",78889001,78891000
"1753",78893001,78894000
"1754",78895001,78897000
"1755",78910001,78913000
"1756",78924001,78925000
"1757",78990001,78992000
"1758",79053001,79054000
"1759",79080001,79081000
"1760",79104001,79105000
"1761",79130001,79131000
"1762",79139001,79142000
"1763",79146001,79147000
"1764",79148001,79150000
"1765",79167001,79168000
"1766",79211001,79213000
"1767",79222001,79223000
"1768",79228001,79229000
"1769",79239001,79240000
"1770",79246001,79247000
"1771",79272001,79277000
"1772",79313001,79314000
"1773",79331001,79332000
"1774",79346001,79347000
"1775",79349001,79351000
"1776",79369001,79370000
"1777",79371001,79373000
"1778",79388001,79389000
"1779",79390001,79396000
"1780",79398001,79399000
"1781",79412001,79413000
"1782",79465001,79468000
"1783",79469001,79470000
"1784",79473001,79474000
"1785",79494001,79501000
"1786",79502001,79512000
"1787",79513001,79517000
"1788",79518001,79519000
"1789",79524001,79527000
"1790",79530001,79533000
"1791",79534001,79538000
"1792",79539001,79540000
"1793",79542001,79545000
"1794",79546001,79550000
"1795",79555001,79556000
"1796",79563001,79564000
"1797",79576001,79580000
"1798",79592001,79596000
"1799",79607001,79608000
"1800",79609001,79610000
"1801",79649001,79650000
"1802",79654001,79656000
"1803",79658001,79663000
"1804",79710001,79711000
"1805",79715001,79717000
"1806",79720001,79722000
"1807",79727001,79730000
"1808",79742001,79744000
"1809",79780001,79782000
"1810",79786001,79787000
"1811",79792001,79794000
"1812",79799001,79800000
"1813",79810001,79812000
"1814",79848001,79849000
"1815",79869001,79870000
"1816",79914001,79915000
"1817",79920001,79923000
"1818",79934001,79937000
"1819",79955001,79956000
"1820",79968001,79969000
"1821",80011001,80012000
"1822",80014001,80017000
"1823",80021001,80029000
"1824",80030001,80032000
"1825",80048001,80049000
"1826",80057001,80059000
"1827",80069001,80070000
"1828",80075001,80077000
"1829",80084001,80085000
"1830",80109001,80112000
"1831",80113001,80116000
"1832",80129001,80133000
"1833",80140001,80144000
"1834",80152001,80153000
"1835",80156001,80157000
"1836",80182001,80183000
"1837",80184001,80190000
"1838",80191001,80196000
"1839",80197001,80200000
"1840",80215001,80216000
"1841",80221001,80222000
"1842",80231001,80235000
"1843",80242001,80243000
"1844",80244001,80249000
"1845",80251001,80252000
"1846",80256001,80257000
"1847",80260001,80262000
"1848",80265001,80266000
"1849",80268001,80271000
"1850",80293001,80297000
"1851",80322001,80326000
"1852",80338001,80344000
"1853",80348001,80349000
"1854",80370001,80374000
"1855",80377001,80378000
"1856",80379001,80380000
"1857",80386001,80389000
"1858",80401001,80404000
"1859",80534001,80537000
"1860",80539001,80540000
"1861",80584001,80585000
"1862",80587001,80588000
"1863",80605001,80606000
"1864",80687001,80691000
"1865",80705001,80706000
"1866",80729001,80730000
"1867",80741001,80742000
"1868",80745001,80747000
"1869",80779001,80780000
"1870",80781001,80784000
"1871",80802001,80805000
"1872",80828001,80829000
"1873",80830001,80831000
"1874",80833001,80835000
"1875",80840001,80841000
"1876",80843001,80845000
"1877",80846001,80847000
"1878",80849001,80850000
"1879",80857001,80858000
"1880",80859001,80862000
"1881",80883001,80884000
"1882",80885001,80886000
"1883",80888001,80890000
"1884",80900001,80902000
"1885",80905001,80906000
"1886",80911001,80912000
"1887",80943001,80944000
"1888",80946001,80950000
"1889",80992001,80996000
"1890",80997001,80998000
"1891",81002001,81003000
"1892",81058001,81060000
"1893",81063001,81064000
"1894",81081001,81082000
"1895",81094001,81095000
"1896",81141001,81142000
"1897",81151001,81153000
"1898",81154001,81156000
"1899",81161001,81163000
"1900",81167001,81168000
"1901",81183001,81184000
"1902",81202001,81203000
"1903",81209001,81210000
"1904",81211001,81214000
"1905",81215001,81217000
"1906",81276001,81277000
"1907",81331001,81332000
"1908",81336001,81337000
"1909",81338001,81342000
"1910",81343001,81347000
"1911",81372001,81373000
"1912",81374001,81375000
"1913",81452001,81456000
"1914",81480001,81482000
"1915",81483001,81484000
"1916",81493001,81495000
"1917",81496001,81499000
"1918",81501001,81502000
"1919",81515001,81516000
"1920",81521001,81525000
"1921",81538001,81540000
"1922",81562001,81563000
"1923",81570001,81573000
"1924",81580001,81581000
"1925",81599001,81600000
"1926",81610001,81611000
"1927",81650001,81652000
"1928",81656001,81657000
"1929",81706001,81708000
"1930",81762001,81765000
"1931",81770001,81771000
"1932",81787001,81791000
"1933",81797001,81798000
"1934",81828001,81832000
"1935",81858001,81860000
"1936",81868001,81869000
"1937",81885001,81886000
"1938",81920001,81921000
"1939",81930001,81931000
"1940",81932001,81936000
"1941",81945001,81946000
"1942",81959001,81961000
"1943",81992001,81993000
"1944",82119001,82120000
"1945",82174001,82176000
"1946",82203001,82204000
"1947",82224001,82225000
"1948",82233001,82237000
"1949",82260001,82261000
"1950",82263001,82264000
"1951",82274001,82275000
"1952",82504001,82505000
"1953",82648001,82649000
"1954",82715001,82717000
"1955",82719001,82720000
"1956",82725001,82726000
"1957",82766001,82767000
"1958",82835001,82836000
"1959",82839001,82840000
"1960",82864001,82871000
"1961",82872001,82874000
"1962",82953001,82954000
"1963",83036001,83039000
"1964",83074001,83075000
"1965",83077001,83079000
"1966",83088001,83091000
"1967",83093001,83095000
"1968",83201001,83205000
"1969",83207001,83208000
"1970",83401001,83403000
"1971",83434001,83435000
"1972",83438001,83439000
"1973",83443001,83447000
"1974",83489001,83491000
"1975",83511001,83512000
"1976",83549001,83551000
"1977",83568001,83569000
"1978",83584001,83585000
"1979",83600001,83601000
"1980",83631001,83633000
"1981",83696001,83697000
"1982",83794001,83796000
"1983",83810001,83811000
"1984",83813001,83815000
"1985",83878001,83881000
"1986",83882001,83886000
"1987",83889001,83894000
"1988",83914001,83915000
"1989",84085001,84087000
"1990",84089001,84090000
"1991",84150001,84154000
"1992",84272001,84273000
"1993",84356001,84357000
"1994",84409001,84411000
"1995",84447001,84448000
"1996",84594001,84595000
"1997",84605001,84608000
"1998",84669001,84670000
"1999",84678001,84681000
"2000",84688001,84691000
"2001",84749001,84751000
"2002",84778001,84781000
"2003",84884001,84885000
"2004",85818001,85819000
"2005",85949001,85950000
"2006",86211001,86212000
"2007",86488001,86489000
"2008",86775001,86777000
"2009",87110001,87112000
"2010",87113001,87115000
"2011",87186001,87187000
"2012",87246001,87247000
"2013",87277001,87278000
"2014",87411001,87412000
"2015",87413001,87414000
"2016",87566001,87567000
"2017",88278001,88279000
"2018",88357001,88358000
"2019",88430001,88431000
"2020",88491001,88492000
"2021",88544001,88545000
"2022",88680001,88682000
"2023",88947001,88948000
"2024",89086001,89087000
"2025",89126001,89127000
"2026",89151001,89152000
"2027",89168001,89170000
"2028",89181001,89182000
"2029",89309001,89310000
"2030",89333001,89334000
"2031",89336001,89340000
"2032",89341001,89343000
"2033",89365001,89366000
"2034",89401001,89402000
"2035",89403001,89406000
"2036",89419001,89420000
"2037",89423001,89424000
"2038",89426001,89427000
"2039",89437001,89438000
"2040",89456001,89457000
"2041",89473001,89474000
"2042",89477001,89478000
"2043",89500001,89501000
"2044",89516001,89519000
"2045",89579001,89581000
"2046",89627001,89631000
"2047",89632001,89634000
"2048",89657001,89659000
"2049",89676001,89678000
"2050",89679001,89683000
"2051",89698001,89699000
"2052",89700001,89701000
"2053",89763001,89765000
"2054",89766001,89770000
"2055",89773001,89776000
"2056",89841001,89844000
"2057",89856001,89857000
"2058",89903001,89904000
"2059",89908001,89909000
"2060",89926001,89927000
"2061",89939001,89942000
"2062",89943001,89944000
"2063",89949001,89950000
"2064",89953001,89954000
"2065",89975001,89976000
"2066",89978001,89985000
"2067",89998001,89999000
"2068",90017001,90018000
"2069",90025001,90026000
"2070",90055001,90056000
"2071",90128001,90133000
"2072",90150001,90151000
"2073",90155001,90156000
"2074",90179001,90180000
"2075",90212001,90213000
"2076",90265001,90267000
"2077",90302001,90304000
"2078",90306001,90307000
"2079",90390001,90391000
"2080",90410001,90411000
"2081",90426001,90427000
"2082",90441001,90445000
"2083",90447001,90448000
"2084",90449001,90450000
"2085",90451001,90459000
"2086",90460001,90461000
"2087",90475001,90478000
"2088",90488001,90489000
"2089",90508001,90509000
"2090",90539001,90540000
"2091",90568001,90571000
"2092",90843001,90844000
"2093",90887001,90889000
"2094",90941001,90942000
"2095",90977001,90978000
"2096",91081001,91082000
"2097",91226001,91227000
"2098",91261001,91264000
"2099",91398001,91399000
"2100",91430001,91431000
"2101",91432001,91433000
"2102",91457001,91458000
"2103",91463001,91464000
"2104",91582001,91583000
"2105",91687001,91689000
"2106",92027001,92028000
"2107",92103001,92106000
"2108",92205001,92206000
"2109",92235001,92236000
"2110",92255001,92257000
"2111",92293001,92294000
"2112",92322001,92324000
"2113",92551001,92552000
"2114",92560001,92564000
"2115",92636001,92638000
"2116",92639001,92640000
"2117",92641001,92649000
"2118",92656001,92658000
"2119",92662001,92665000
"2120",92666001,92672000
"2121",92675001,92676000
"2122",92727001,92728000
"2123",92729001,92736000
"2124",92738001,92744000
"2125",92807001,92808000
"2126",92866001,92868000
"2127",92870001,92871000
"2128",92873001,92877000
"2129",92903001,92905000
"2130",92938001,92939000
"2131",92965001,92966000
"2132",92967001,92968000
"2133",92984001,92986000
"2134",93026001,93027000
"2135",93035001,93041000
"2136",93044001,93045000
"2137",93060001,93064000
"2138",93067001,93068000
"2139",93076001,93078000
"2140",93079001,93083000
"2141",93084001,93085000
"2142",93093001,93094000
"2143",93095001,93096000
"2144",93336001,93337000
"2145",93671001,93672000
"2146",93853001,93854000
"2147",94042001,94044000
"2148",94046001,94047000
"2149",94213001,94214000
"2150",94359001,94360000
"2151",94445001,94446000
"2152",94858001,94859000
"2153",95091001,95092000
"2154",95125001,95126000
"2155",95480001,95481000
"2156",95484001,95485000
"2157",95489001,95491000
"2158",95686001,95692000
"2159",95695001,95696000
"2160",95698001,95700000
"2161",95754001,95755000
"2162",95810001,95811000
"2163",95814001,95815000
"2164",95841001,95842000
"2165",95991001,95992000
"2166",96081001,96082000
"2167",96151001,96154000
"2168",96166001,96170000
"2169",96204001,96206000
"2170",96207001,96208000
"2171",96209001,96216000
"2172",96288001,96289000
"2173",96303001,96305000
"2174",96336001,96337000
"2175",96368001,96370000
"2176",96392001,96393000
"2177",96408001,96410000
"2178",96418001,96419000
"2179",96420001,96421000
"2180",96519001,96520000
"2181",96554001,96555000
"2182",96604001,96605000
"2183",96636001,96637000
"2184",96643001,96645000
"2185",96649001,96650000
"2186",96651001,96653000
"2187",96654001,96658000
"2188",96661001,96663000
"2189",96670001,96674000
"2190",96719001,96720000
"2191",96746001,96747000
"2192",96796001,96801000
"2193",96817001,96818000
"2194",96819001,96820000
"2195",96864001,96866000
"2196",96914001,96916000
"2197",96949001,96954000
"2198",96970001,96971000
"2199",97064001,97065000
"2200",97079001,97086000
"2201",97182001,97186000
"2202",97297001,97298000
"2203",97331001,97333000
"2204",97335001,97336000
"2205",97361001,97362000
"2206",97370001,97373000
"2207",97391001,97392000
"2208",97396001,97397000
"2209",97399001,97401000
"2210",97424001,97426000
"2211",97429001,97431000
"2212",97480001,97483000
"2213",97578001,97584000
"2214",97609001,97610000
"2215",97619001,97620000
"2216",97679001,97680000
"2217",97693001,97694000
"2218",97695001,97699000
"2219",97729001,97731000
"2220",97737001,97740000
"2221",97745001,97746000
"2222",97748001,97749000
"2223",97757001,97758000
"2224",97787001,97792000
"2225",97800001,97801000
"2226",97802001,97807000
"2227",97842001,97844000
"2228",97977001,97978000
"2229",97984001,97985000
"2230",98103001,98104000
"2231",98119001,98121000
"2232",98155001,98156000
"2233",98177001,98180000
"2234",98186001,98187000
"2235",98190001,98191000
"2236",98193001,98194000
"2237",98258001,98259000
"2238",98289001,98290000
"2239",98308001,98311000
"2240",98341001,98342000
"2241",98349001,98350000
"2242",98359001,98363000
"2243",98377001,98378000
"2244",98423001,98424000
"2245",98481001,98482000
"2246",98489001,98491000
"2247",98572001,98574000
"2248",98585001,98586000
"2249",98616001,98617000
"2250",98633001,98634000
"2251",98655001,98660000
"2252",98697001,98698000
"2253",98702001,98706000
"2254",98743001,98744000
"2255",98814001,98817000
"2256",98834001,98840000
"2257",98889001,98890000
"2258",98928001,98929000
"2259",98931001,98932000
"2260",98962001,98963000
"2261",99045001,99046000
"2262",99079001,99080000
"2263",99095001,99096000
"2264",99107001,99108000
"2265",99139001,99142000
"2266",99150001,99152000
"2267",99182001,99184000
"2268",99229001,99230000
"2269",99249001,99251000
"2270",99267001,99270000
"2271",99271001,99273000
"2272",99279001,99280000
"2273",99286001,99288000
"2274",99305001,99308000
"2275",99312001,99314000
"2276",99325001,99326000
"2277",99329001,99330000
"2278",99332001,99334000
"2279",99350001,99357000
"2280",99359001,99362000
"2281",99365001,99366000
"2282",99375001,99376000
"2283",99378001,99385000
"2284",99386001,99387000
"2285",99410001,99412000
"2286",99429001,99431000
"2287",99436001,99438000
"2288",99445001,99446000
"2289",99449001,99451000
"2290",99465001,99470000
"2291",99474001,99478000
"2292",99480001,99485000
"2293",99500001,99501000
"2294",99519001,99520000
"2295",99521001,99522000
"2296",99534001,99537000
"2297",99539001,99541000
"2298",99548001,99549000
"2299",99556001,99557000
"2300",99559001,99560000
"2301",99579001,99580000
"2302",99590001,99591000
"2303",99619001,99620000
"2304",99625001,99628000
"2305",99659001,99660000
"2306",99710001,99711000
"2307",99788001,99789000
"2308",99795001,99796000
"2309",99798001,99799000
"2310",99828001,99829000
"2311",99857001,99860000
"2312",99863001,99865000
"2313",99876001,99877000
"2314",99917001,99918000
"2315",99971001,99972000
"2316",99974001,99975000
"2317",99976001,99977000
"2318",99978001,99982000
"2319",99988001,99989000
"2320",99990001,99991000
"2321",100029001,100030000
"2322",100120001,100125000
"2323",100130001,100131000
"2324",100158001,100161000
"2325",100187001,100188000
"2326",100190001,100192000
"2327",100214001,100218000
"2328",100226001,100231000
"2329",100234001,100236000
"2330",100276001,100277000
"2331",100279001,100286000
"2332",100288001,100289000
"2333",100359001,100360000
"2334",100364001,100365000
"2335",100370001,100374000
"2336",100428001,100430000
"2337",100492001,100496000
"2338",100502001,100503000
"2339",100515001,100516000
"2340",100520001,100521000
"2341",100536001,100538000
"2342",100555001,100557000
"2343",100580001,100584000
"2344",100590001,100593000
"2345",100606001,100611000
"2346",100612001,100613000
"2347",100615001,100616000
"2348",100622001,100623000
"2349",100644001,100646000
"2350",100654001,100655000
"2351",100658001,100659000
"2352",100663001,100665000
"2353",100684001,100686000
"2354",100699001,100701000
"2355",100702001,100703000
"2356",100704001,100709000
"2357",100711001,100714000
"2358",100723001,100724000
"2359",100803001,100804000
"2360",100827001,100828000
"2361",100862001,100868000
"2362",100871001,100872000
"2363",100879001,100880000
"2364",100886001,100887000
"2365",100895001,100896000
"2366",100907001,100909000
"2367",100911001,100912000
"2368",100926001,100927000
"2369",100931001,100934000
"2370",100943001,100947000
"2371",100953001,100954000
"2372",100974001,100975000
"2373",100985001,100986000
"2374",100988001,100989000
"2375",101011001,101013000
"2376",101051001,101053000
"2377",101061001,101062000
"2378",101107001,101111000
"2379",101147001,101148000
"2380",101160001,101161000
"2381",101170001,101171000
"2382",101173001,101174000
"2383",101228001,101229000
"2384",101231001,101232000
"2385",101263001,101264000
"2386",101288001,101289000
"2387",101296001,101297000
"2388",101301001,101303000
"2389",101310001,101312000
"2390",101320001,101322000
"2391",101347001,101349000
"2392",101374001,101375000
"2393",101377001,101379000
"2394",101394001,101395000
"2395",101412001,101414000
"2396",101419001,101420000
"2397",101440001,101441000
"2398",101442001,101443000
"2399",101450001,101452000
"2400",101501001,101502000
"2401",101503001,101504000
"2402",101516001,101517000
"2403",101523001,101524000
"2404",101538001,101539000
"2405",101541001,101542000
"2406",101620001,101621000
"2407",101623001,101624000
"2408",101650001,101651000
"2409",101653001,101654000
"2410",101662001,101665000
"2411",101666001,101667000
"2412",101676001,101678000
"2413",101679001,101680000
"2414",101725001,101726000
"2415",101739001,101740000
"2416",101817001,101819000
"2417",101820001,101824000
"2418",101836001,101840000
"2419",101850001,101851000
"2420",101866001,101870000
"2421",101894001,101898000
"2422",101904001,101907000
"2423",101918001,101919000
"2424",101933001,101936000
"2425",101958001,101959000
"2426",101960001,101961000
"2427",101965001,101967000
"2428",101968001,101973000
"2429",102019001,102021000
"2430",102064001,102067000
"2431",102099001,102104000
"2432",102137001,102139000
"2433",102153001,102154000
"2434",102156001,102157000
"2435",102158001,102159000
"2436",102160001,102161000
"2437",102165001,102166000
"2438",102180001,102181000
"2439",102200001,102202000
"2440",102208001,102212000
"2441",102222001,102224000
"2442",102231001,102232000
"2443",102249001,102252000
"2444",102258001,102259000
"2445",102266001,102269000
"2446",102289001,102290000
"2447",102416001,102418000
"2448",102440001,102444000
"2449",102458001,102459000
"2450",102479001,102480000
"2451",102507001,102508000
"2452",102512001,102514000
"2453",102565001,102566000
"2454",102665001,102666000
"2455",102686001,102688000
"2456",102695001,102696000
"2457",102919001,102920000
"2458",104199001,104201000
"2459",104218001,104220000
"2460",104231001,104232000
"2461",104244001,104245000
"2462",104352001,104354000
"2463",104603001,104604000
"2464",104647001,104648000
"2465",104771001,104772000
"2466",105398001,105402000
"2467",105412001,105413000
"2468",105425001,105426000
"2469",105480001,105483000
"2470",105515001,105516000
"2471",105553001,105555000
"2472",105569001,105570000
"2473",105580001,105583000
"2474",105603001,105604000
"2475",105632001,105635000
"2476",105639001,105642000
"2477",105650001,105652000
"2478",105685001,105686000
"2479",105726001,105727000
"2480",105735001,105740000
"2481",105744001,105745000
"2482",105751001,105753000
"2483",105778001,105779000
"2484",105784001,105789000
"2485",105803001,105804000
"2486",105808001,105809000
"2487",105810001,105813000
"2488",105817001,105819000
"2489",106967001,106968000
"2490",107046001,107047000
"2491",107208001,107210000
"2492",107211001,107212000
"2493",107215001,107217000
"2494",107236001,107238000
"2495",107339001,107341000
"2496",107370001,107372000
"2497",107526001,107527000
"2498",107594001,107596000
"2499",107618001,107619000
"2500",107661001,107662000
"2501",107665001,107666000
"2502",107680001,107681000
"2503",107708001,107709000
"2504",107748001,107750000
"2505",107779001,107780000
"2506",107788001,107789000
"2507",108014001,108015000
"2508",108760001,108762000
"2509",108815001,108816000
"2510",108933001,108936000
"2511",108943001,108945000
"2512",108950001,108952000
"2513",108954001,108955000
"2514",109000001,109001000
"2515",109011001,109013000
"2516",109016001,109017000
"2517",109021001,109022000
"2518",109028001,109029000
"2519",109082001,109084000
"2520",109098001,109099000
"2521",109114001,109116000
"2522",109139001,109140000
"2523",109145001,109146000
"2524",109169001,109172000
"2525",109174001,109176000
"2526",109191001,109193000
"2527",109196001,109198000
"2528",109218001,109220000
"2529",109230001,109231000
"2530",109234001,109235000
"2531",109241001,109242000
"2532",109326001,109327000
"2533",109401001,109402000
"2534",109405001,109406000
"2535",109424001,109425000
"2536",109438001,109441000
"2537",109444001,109446000
"2538",109507001,109508000
"2539",109517001,109526000
"2540",109528001,109529000
"2541",109578001,109582000
"2542",109609001,109611000
"2543",109612001,109613000
"2544",109614001,109620000
"2545",109629001,109630000
"2546",109646001,109647000
"2547",109671001,109674000
"2548",109695001,109696000
"2549",109698001,109699000
"2550",109702001,109705000
"2551",109707001,109708000
"2552",109719001,109720000
"2553",109751001,109753000
"2554",109781001,109782000
"2555",109792001,109793000
"2556",109802001,109803000
"2557",109812001,109815000
"2558",109849001,109852000
"2559",109853001,109854000
"2560",109859001,109860000
"2561",109863001,109864000
"2562",109865001,109869000
"2563",109892001,109893000
"2564",109944001,109945000
"2565",109958001,109963000
"2566",109968001,109970000
"2567",109977001,109978000
"2568",109984001,109988000
"2569",109998001,109999000
"2570",110002001,110003000
"2571",110013001,110014000
"2572",110016001,110022000
"2573",110023001,110025000
"2574",110040001,110044000
"2575",110045001,110046000
"2576",110050001,110051000
"2577",110052001,110053000
"2578",110055001,110064000
"2579",110083001,110084000
"2580",110097001,110099000
"2581",110109001,110110000
"2582",110116001,110119000
"2583",110120001,110128000
"2584",110129001,110130000
"2585",110162001,110167000
"2586",110190001,110191000
"2587",110220001,110224000
"2588",110265001,110267000
"2589",110287001,110288000
"2590",110419001,110420000
"2591",110432001,110433000
"2592",110520001,110521000
"2593",110525001,110526000
"2594",110548001,110549000
"2595",110607001,110608000
"2596",110611001,110612000
"2597",110613001,110617000
"2598",110619001,110620000
"2599",110627001,110632000
"2600",110637001,110639000
"2601",110642001,110643000
"2602",110645001,110646000
"2603",110653001,110655000
"2604",110689001,110690000
"2605",110727001,110728000
"2606",110768001,110770000
"2607",110777001,110778000
"2608",110801001,110802000
"2609",110819001,110820000
"2610",110821001,110823000
"2611",110843001,110846000
"2612",110930001,110931000
"2613",111015001,111016000
"2614",111023001,111026000
"2615",111028001,111030000
"2616",111040001,111041000
"2617",111049001,111050000
"2618",111068001,111074000
"2619",111075001,111076000
"2620",111078001,111086000
"2621",111107001,111108000
"2622",111121001,111125000
"2623",111182001,111183000
"2624",111249001,111250000
"2625",111266001,111267000
"2626",111283001,111284000
"2627",111321001,111322000
"2628",111739001,111741000
"2629",111779001,111781000
"2630",111782001,111783000
"2631",111968001,111970000
"2632",112021001,112026000
"2633",112041001,112042000
"2634",112085001,112086000
"2635",112158001,112159000
"2636",112170001,112171000
"2637",112179001,112181000
"2638",112183001,112184000
"2639",112225001,112227000
"2640",112229001,112230000
"2641",112233001,112234000
"2642",112280001,112281000
"2643",112283001,112285000
"2644",112369001,112370000
"2645",112377001,112378000
"2646",112390001,112391000
"2647",112399001,112401000
"2648",112416001,112417000
"2649",112427001,112429000
"2650",112452001,112453000
"2651",112469001,112470000
"2652",112472001,112474000
"2653",112500001,112501000
"2654",112502001,112504000
"2655",112535001,112536000
"2656",112642001,112643000
"2657",112676001,112682000
"2658",112684001,112687000
"2659",112688001,112689000
"2660",112690001,112692000
"2661",112697001,112698000
"2662",112700001,112701000
"2663",112718001,112721000
"2664",112722001,112723000
"2665",112741001,112746000
"2666",112760001,112762000
"2667",112784001,112785000
"2668",112788001,112789000
"2669",112807001,112808000
"2670",112809001,112810000
"2671",112812001,112813000
"2672",112822001,112827000
"2673",112828001,112829000
"2674",112841001,112843000
"2675",112851001,112855000
"2676",112868001,112870000
"2677",112905001,112907000
"2678",112908001,112909000
"2679",112916001,112917000
"2680",112919001,112921000
"2681",112949001,112950000
"2682",112953001,112956000
"2683",112983001,112984000
"2684",113048001,113049000
"2685",113109001,113110000
"2686",113132001,113133000
"2687",113143001,113144000
"2688",113167001,113168000
"2689",113186001,113187000
"2690",113197001,113198000
"2691",113206001,113210000
"2692",113250001,113251000
"2693",113258001,113259000
"2694",113260001,113261000
"2695",113295001,113296000
"2696",113311001,113313000
"2697",113367001,113371000
"2698",113377001,113379000
"2699",113434001,113435000
"2700",113508001,113509000
"2701",113512001,113517000
"2702",113518001,113519000
"2703",113560001,113561000
"2704",113562001,113565000
"2705",113569001,113570000
"2706",113594001,113595000
"2707",113609001,113610000
"2708",113653001,113654000
"2709",113744001,113745000
"2710",113759001,113760000
"2711",113762001,113763000
"2712",113765001,113770000
"2713",113773001,113775000
"2714",113813001,113815000
"2715",113818001,113820000
"2716",113827001,113831000
"2717",113898001,113899000
"2718",113975001,113976000
"2719",114004001,114005000
"2720",114020001,114022000
"2721",114059001,114060000
"2722",114066001,114068000
"2723",114071001,114072000
"2724",114116001,114119000
"2725",114141001,114142000
"2726",114213001,114214000
"2727",114253001,114256000
"2728",114275001,114278000
"2729",114281001,114282000
"2730",114291001,114293000
"2731",114414001,114417000
"2732",114418001,114419000
"2733",114431001,114432000
"2734",114474001,114475000
"2735",114496001,114497000
"2736",114502001,114503000
"2737",114562001,114565000
"2738",114580001,114582000
"2739",114635001,114637000
"2740",114673001,114674000
"2741",114677001,114680000
"2742",114729001,114731000
"2743",114740001,114741000
"2744",114747001,114748000
"2745",114753001,114755000
"2746",114817001,114818000
"2747",114874001,114875000
"2748",114922001,114923000
"2749",114948001,114949000
"2750",115057001,115060000
"2751",115123001,115124000
"2752",115131001,115133000
"2753",115216001,115219000
"2754",115233001,115235000
"2755",115275001,115276000
"2756",115290001,115292000
"2757",115367001,115368000
"2758",115401001,115402000
"2759",115415001,115416000
"2760",115453001,115454000
"2761",115500001,115502000
"2762",115543001,115544000
"2763",115564001,115565000
"2764",115567001,115570000
"2765",115615001,115617000
"2766",115645001,115646000
"2767",115666001,115670000
"2768",115673001,115674000
"2769",115721001,115723000
"2770",115733001,115734000
"2771",115750001,115751000
"2772",115752001,115753000
"2773",115808001,115809000
"2774",115824001,115826000
"2775",115846001,115847000
"2776",115864001,115869000
"2777",115903001,115905000
"2778",116031001,116041000
"2779",116091001,116095000
"2780",116131001,116133000
"2781",116161001,116162000
"2782",116191001,116192000
"2783",116193001,116194000
"2784",116210001,116211000
"2785",116212001,116213000
"2786",116223001,116224000
"2787",116237001,116238000
"2788",116241001,116242000
"2789",116244001,116247000
"2790",116262001,116263000
"2791",116280001,116281000
"2792",116282001,116284000
"2793",116285001,116286000
"2794",116300001,116301000
"2795",116305001,116310000
"2796",116323001,116324000
"2797",116330001,116331000
"2798",116333001,116337000
"2799",116347001,116348000
"2800",116373001,116374000
"2801",116378001,116379000
"2802",116442001,116446000
"2803",116502001,116506000
"2804",116517001,116518000
"2805",116531001,116532000
"2806",116574001,116575000
"2807",116608001,116609000
"2808",116645001,116646000
"2809",116701001,116702000
"2810",117139001,117141000
"2811",117380001,117382000
"2812",117474001,117475000
"2813",117618001,117620000
"2814",117685001,117688000
"2815",117882001,117884000
"2816",118102001,118106000
"2817",118107001,118108000
"2818",118113001,118120000
"2819",118128001,118132000
"2820",118230001,118231000
"2821",118241001,118246000
"2822",118277001,118278000
"2823",118295001,118296000
"2824",118297001,118298000
"2825",118304001,118306000
"2826",118447001,118449000
"2827",118463001,118464000
"2828",118491001,118493000
"2829",118518001,118519000
"2830",118532001,118535000
"2831",118569001,118570000
"2832",118580001,118581000
"2833",118584001,118586000
"2834",118593001,118596000
"2835",118597001,118598000
"2836",118688001,118689000
"2837",118704001,118707000
"2838",118710001,118714000
"2839",118739001,118742000
"2840",118766001,118767000
"2841",118855001,118857000
"2842",118887001,118888000
"2843",118889001,118891000
"2844",118895001,118897000
"2845",118944001,118945000
"2846",118972001,118973000
"2847",118976001,118978000
"2848",118992001,118997000
"2849",119011001,119012000
"2850",119019001,119020000
"2851",119023001,119024000
"2852",119146001,119147000
"2853",119184001,119187000
"2854",119427001,119428000
"2855",119513001,119514000
"2856",119515001,119516000
"2857",119519001,119520000
"2858",119643001,119644000
"2859",119673001,119674000
"2860",119717001,119718000
"2861",119720001,119722000
"2862",119733001,119735000
"2863",119737001,119739000
"2864",119744001,119745000
"2865",119788001,119789000
"2866",119793001,119795000
"2867",119849001,119850000
"2868",119860001,119864000
"2869",119894001,119899000
"2870",120097001,120099000
"2871",120102001,120103000
"2872",120105001,120106000
"2873",120124001,120125000
"2874",120157001,120159000
"2875",120202001,120203000
"2876",120327001,120328000
"2877",120361001,120362000
"2878",120597001,120599000
"2879",120610001,120611000
"2880",120634001,120637000
"2881",120661001,120662000
"2882",120670001,120671000
"2883",120676001,120679000
"2884",120695001,120696000
"2885",120714001,120715000
"2886",120727001,120728000
"2887",120739001,120740000
"2888",120754001,120755000
"2889",120823001,120824000
"2890",120830001,120832000
"2891",120835001,120837000
"2892",120838001,120840000
"2893",120842001,120845000
"2894",120861001,120862000
"2895",120863001,120864000
"2896",120865001,120866000
"2897",120915001,120920000
"2898",120934001,120935000
"2899",120980001,120984000
"2900",120994001,120995000
"2901",121033001,121036000
"2902",121078001,121079000
"2903",121120001,121121000
"2904",121259001,121260000
"2905",121391001,121392000
"2906",121572001,121573000
"2907",121579001,121580000
"2908",121639001,121640000
"2909",121641001,121642000
"2910",121697001,121698000
"2911",121705001,121709000
"2912",121734001,121735000
"2913",121781001,121782000
"2914",121981001,121983000
"2915",122015001,122017000
"2916",122018001,122023000
"2917",122024001,122025000
"2918",122065001,122069000
"2919",122099001,122100000
"2920",122101001,122103000
"2921",122131001,122134000
"2922",122158001,122160000
"2923",122189001,122190000
"2924",122191001,122192000
"2925",122197001,122198000
"2926",122199001,122200000
"2927",122242001,122243000
"2928",122251001,122252000
"2929",122288001,122291000
"2930",122352001,122353000
"2931",122459001,122460000
"2932",122466001,122467000
"2933",122470001,122471000
"2934",122478001,122479000
"2935",122670001,122672000
"2936",122920001,122921000
"2937",122940001,122941000
"2938",122945001,122946000
"2939",122968001,122972000
"2940",122973001,122976000
"2941",122981001,122982000
"2942",123003001,123004000
"2943",123017001,123020000
"2944",123030001,123032000
"2945",123039001,123040000
"2946",123069001,123070000
"2947",123084001,123085000
"2948",123097001,123099000
"2949",123123001,123127000
"2950",123128001,123129000
"2951",123130001,123131000
"2952",123155001,123156000
"2953",123205001,123206000
"2954",123218001,123219000
"2955",123336001,123337000
"2956",123345001,123346000
"2957",123369001,123372000
"2958",123377001,123379000
"2959",123399001,123400000
"2960",123465001,123466000
"2961",123499001,123502000
"2962",123524001,123525000
"2963",123964001,123965000
"2964",123982001,123983000
"2965",124129001,124130000
"2966",124383001,124384000
"2967",124585001,124586000
"2968",125211001,125213000
"2969",125263001,125264000
"2970",125340001,125341000
"2971",125393001,125395000
"2972",125420001,125421000
"2973",125444001,125446000
"2974",125472001,125474000
"2975",125489001,125493000
"2976",125517001,125518000
"2977",125551001,125553000
"2978",125565001,125567000
"2979",125580001,125582000
"2980",125639001,125640000
"2981",125706001,125709000
"2982",125748001,125749000
"2983",125763001,125764000
"2984",126006001,126009000
"2985",126052001,126053000
"2986",126082001,126083000
"2987",126086001,126087000
"2988",126088001,126091000
"2989",126181001,126182000
"2990",126198001,126203000
"2991",126213001,126214000
"2992",126217001,126218000
"2993",126220001,126221000
"2994",126233001,126234000
"2995",126236001,126237000
"2996",126256001,126257000
"2997",126260001,126262000
"2998",126271001,126275000
"2999",126297001,126299000
"3000",126323001,126325000
"3001",126326001,126327000
"3002",126345001,126346000
"3003",126351001,126352000
"3004",126359001,126360000
"3005",126377001,126380000
"3006",126392001,126393000
"3007",126396001,126400000
"3008",126416001,126418000
"3009",126425001,126426000
"3010",126427001,126431000
"3011",126436001,126438000
"3012",126474001,126478000
"3013",126481001,126484000
"3014",126486001,126488000
"3015",126491001,126492000
"3016",126501001,126507000
"3017",126527001,126529000
"3018",126535001,126538000
"3019",126565001,126568000
"3020",126577001,126578000
"3021",126582001,126585000
"3022",126587001,126589000
"3023",126625001,126626000
"3024",126629001,126631000
"3025",126637001,126638000
"3026",126643001,126645000
"3027",126648001,126651000
"3028",126693001,126697000
"3029",126698001,126699000
"3030",126701001,126702000
"3031",126704001,126705000
"3032",126754001,126756000
"3033",126758001,126761000
"3034",126774001,126778000
"3035",126779001,126782000
"3036",126791001,126796000
"3037",126798001,126801000
"3038",126808001,126812000
"3039",126821001,126824000
"3040",126832001,126833000
"3041",126845001,126846000
"3042",126847001,126848000
"3043",126861001,126864000
"3044",126883001,126887000
"3045",126888001,126889000
"3046",126897001,126899000
"3047",126912001,126913000
"3048",126917001,126925000
"3049",126926001,126927000
"3050",126928001,126930000
"3051",126949001,126951000
"3052",126963001,126964000
"3053",126973001,126974000
"3054",126975001,126978000
"3055",127006001,127009000
"3056",127014001,127015000
"3057",127016001,127019000
"3058",127020001,127023000
"3059",127024001,127030000
"3060",127041001,127044000
"3061",127091001,127092000
"3062",127104001,127106000
"3063",127110001,127112000
"3064",127118001,127119000
"3065",127121001,127122000
"3066",127145001,127147000
"3067",127195001,127198000
"3068",127207001,127211000
"3069",127212001,127214000
"3070",127215001,127217000
"3071",127224001,127226000
"3072",127227001,127230000
"3073",127231001,127235000
"3074",127238001,127240000
"3075",127241001,127242000
"3076",127243001,127246000
"3077",127251001,127257000
"3078",127259001,127263000
"3079",127273001,127275000
"3080",127276001,127277000
"3081",127309001,127310000
"3082",127345001,127349000
"3083",127362001,127364000
"3084",127375001,127377000
"3085",127387001,127388000
"3086",127393001,127395000
"3087",127406001,127408000
"3088",127421001,127423000
"3089",127448001,127451000
"3090",127465001,127467000
"3091",127470001,127473000
"3092",127477001,127480000
"3093",127491001,127492000
"3094",127498001,127499000
"3095",127508001,127509000
"3096",127510001,127518000
"3097",127556001,127557000
"3098",127565001,127566000
"3099",127570001,127571000
"3100",127572001,127575000
"3101",127587001,127590000
"3102",127614001,127617000
"3103",127631001,127632000
"3104",127634001,127635000
"3105",127636001,127638000
"3106",127652001,127653000
"3107",127657001,127658000
"3108",127675001,127676000
"3109",127677001,127678000
"3110",127691001,127694000
"3111",127707001,127710000
"3112",127711001,127714000
"3113",127717001,127718000
"3114",127728001,127729000
"3115",127743001,127748000
"3116",127761001,127762000
"3117",127767001,127773000
"3118",127774001,127779000
"3119",127800001,127801000
"3120",127824001,127825000
"3121",127839001,127840000
"3122",127841001,127843000
"3123",127870001,127871000
"3124",127874001,127878000
"3125",127894001,127897000
"3126",127898001,127899000
"3127",127902001,127905000
"3128",127911001,127914000
"3129",127918001,127919000
"3130",127931001,127933000
"3131",127934001,127937000
"3132",127949001,127950000
"3133",127966001,127971000
"3134",127973001,127974000
"3135",127975001,127977000
"3136",127978001,127979000
"3137",127980001,127981000
"3138",127982001,127985000
"3139",127986001,127987000
"3140",127988001,127995000
"3141",128023001,128024000
"3142",128031001,128032000
"3143",128080001,128081000
"3144",128208001,128209000
"3145",128236001,128240000
"3146",128246001,128248000
"3147",128277001,128278000
"3148",128281001,128283000
"3149",128284001,128285000
"3150",128288001,128291000
"3151",128297001,128299000
"3152",128304001,128306000
"3153",128312001,128313000
"3154",128345001,128346000
"3155",128348001,128351000
"3156",128357001,128358000
"3157",128363001,128364000
"3158",128366001,128367000
"3159",128417001,128419000
"3160",128439001,128440000
"3161",128455001,128456000
"3162",128458001,128463000
"3163",128468001,128469000
"3164",128474001,128475000
"3165",128523001,128526000
"3166",128529001,128537000
"3167",128550001,128552000
"3168",128563001,128564000
"3169",128573001,128575000
"3170",128578001,128580000
"3171",128582001,128584000
"3172",128590001,128594000
"3173",128610001,128613000
"3174",128671001,128674000
"3175",128687001,128694000
"3176",128705001,128707000
"3177",128708001,128709000
"3178",128724001,128729000
"3179",128731001,128732000
"3180",128739001,128746000
"3181",128779001,128780000
"3182",128860001,128861000
"3183",129134001,129135000
"3184",129141001,129143000
"3185",129256001,129258000
"3186",129303001,129304000
"3187",129307001,129308000
"3188",129421001,129422000
"3189",129430001,129431000
"3190",129507001,129508000
"3191",129526001,129527000
"3192",129591001,129593000
"3193",129649001,129650000
"3194",129653001,129655000
"3195",129661001,129662000
"3196",129663001,129664000
"3197",129673001,129675000
"3198",129679001,129682000
"3199",129842001,129843000
"3200",129958001,129959000
"3201",129962001,129963000
"3202",129987001,129989000
"3203",130047001,130049000
"3204",130050001,130051000
"3205",130092001,130093000
"3206",130166001,130167000
"3207",130182001,130183000
"3208",130206001,130207000
"3209",130215001,130217000
"3210",130231001,130232000
"3211",130234001,130235000
"3212",130251001,130253000
"3213",130258001,130259000
"3214",130263001,130270000
"3215",130273001,130274000
"3216",130277001,130280000
"3217",130290001,130291000
"3218",130335001,130336000
"3219",130340001,130341000
"3220",130367001,130370000
"3221",130420001,130421000
"3222",130469001,130471000
"3223",130472001,130478000
"3224",130518001,130521000
"3225",130530001,130534000
"3226",130535001,130536000
"3227",130545001,130548000
"3228",130552001,130553000
"3229",130571001,130572000
"3230",130590001,130591000
"3231",130593001,130595000
"3232",130600001,130601000
"3233",130605001,130606000
"3234",130645001,130648000
"3235",130649001,130650000
"3236",130653001,130654000
"3237",130669001,130670000
"3238",130671001,130672000
"3239",130673001,130675000
"3240",130690001,130691000
"3241",130692001,130695000
"3242",130709001,130711000
"3243",130734001,130735000
"3244",130749001,130753000
"3245",130762001,130763000
"3246",130765001,130768000
"3247",130770001,130772000
"3248",130773001,130774000
"3249",130812001,130813000
"3250",130827001,130828000
"3251",130834001,130839000
"3252",130840001,130841000
"3253",130850001,130851000
"3254",130853001,130855000
"3255",130860001,130863000
"3256",130865001,130869000
"3257",130877001,130878000
"3258",130888001,130890000
"3259",130898001,130899000
"3260",130913001,130916000
"3261",130935001,130937000
"3262",131112001,131113000
"3263",131361001,131365000
"3264",131370001,131372000
"3265",131398001,131400000
"3266",131408001,131412000
"3267",131432001,131433000
"3268",131464001,131467000
"3269",131477001,131478000
"3270",131497001,131498000
"3271",131540001,131548000
"3272",131550001,131560000
"3273",131560001,131562000
"3274",131565001,131566000
"3275",131572001,131573000
"3276",131598001,131599000
"3277",131602001,131603000
"3278",131644001,131645000
"3279",131649001,131650000
"3280",131670001,131671000
"3281",131696001,131698000
"3282",131722001,131724000
"3283",131727001,131729000
"3284",131746001,131747000
"3285",131756001,131757000
"3286",131776001,131779000
"3287",131788001,131789000
"3288",131805001,131806000
"3289",131882001,131883000
"3290",131899001,131900000
"3291",132213001,132214000
"3292",132226001,132228000
"3293",132233001,132234000
"3294",132242001,132243000
"3295",132247001,132249000
"3296",132284001,132285000
"3297",132315001,132319000
"3298",132372001,132374000
"3299",132384001,132387000
"3300",132403001,132405000
"3301",132413001,132414000
"3302",132426001,132427000
"3303",132503001,132504000
"3304",132551001,132553000
"3305",132573001,132574000
"3306",132575001,132577000
"3307",132597001,132601000
"3308",132602001,132603000
"3309",132610001,132612000
"3310",132637001,132639000
"3311",132641001,132642000
"3312",132656001,132657000
"3313",132729001,132730000
"3314",132735001,132736000
"3315",132781001,132782000
"3316",132808001,132816000
"3317",132851001,132854000
"3318",132858001,132860000
"3319",132861001,132862000
"3320",132867001,132869000
"3321",132898001,132899000
"3322",132929001,132934000
"3323",132981001,132982000
"3324",132984001,132987000
"3325",132989001,132990000
"3326",133029001,133030000
"3327",133032001,133034000
"3328",133037001,133038000
"3329",133041001,133042000
"3330",133072001,133075000
"3331",133077001,133078000
"3332",133112001,133122000
"3333",133122001,133126000
"3334",133136001,133137000
"3335",133186001,133187000
"3336",133422001,133423000
"3337",133437001,133439000
"3338",133441001,133442000
"3339",133478001,133479000
"3340",133572001,133573000
"3341",133609001,133610000
"3342",133632001,133633000
"3343",133634001,133639000
"3344",133662001,133663000
"3345",133707001,133710000
"3346",133758001,133762000
"3347",133775001,133778000
"3348",133782001,133784000
"3349",133805001,133806000
"3350",133824001,133825000
"3351",133856001,133857000
"3352",133915001,133916000
"3353",133947001,133948000
"3354",133957001,133959000
"3355",134022001,134023000
"3356",134027001,134028000
"3357",134032001,134034000
"3358",134113001,134115000
"3359",134132001,134133000
"3360",134192001,134194000
"3361",134223001,134226000
"3362",134227001,134229000
"3363",134412001,134413000
"3364",134444001,134446000
"3365",134471001,134472000
"3366",134566001,134567000
"3367",134619001,134620000
"3368",134670001,134672000
"3369",134679001,134680000
"3370",134724001,134726000
"3371",134753001,134754000
"3372",134771001,134772000
"3373",134883001,134884000
"3374",134938001,134939000
"3375",135165001,135166000
"3376",135324001,135326000
"3377",135343001,135345000
"3378",135392001,135394000
"3379",135398001,135399000
"3380",135403001,135404000
"3381",135465001,135466000
"3382",135479001,135480000
"3383",135487001,135488000
"3384",135537001,135538000
"3385",135548001,135549000
"3386",135603001,135604000
"3387",135632001,135633000
"3388",135669001,135670000
"3389",135714001,135717000
"3390",135736001,135737000
"3391",135768001,135769000
"3392",135791001,135792000
"3393",135793001,135795000
"3394",135837001,135838000
"3395",135853001,135854000
"3396",135888001,135890000
"3397",136047001,136049000
"3398",136057001,136058000
"3399",136059001,136063000
"3400",136083001,136084000
"3401",136152001,136153000
"3402",136294001,136295000
"3403",136430001,136431000
"3404",136488001,136490000
"3405",136613001,136614000
"3406",136660001,136661000
"3407",136722001,136723000
"3408",136826001,136828000
"3409",136846001,136847000
"3410",136864001,136865000
"3411",136872001,136873000
"3412",136894001,136895000
"3413",137040001,137041000
"3414",137192001,137193000
"3415",137207001,137209000
"3416",137221001,137222000
"3417",137227001,137228000
"3418",137239001,137240000
"3419",137241001,137242000
"3420",137246001,137247000
"3421",137253001,137254000
"3422",137255001,137256000
"3423",137266001,137267000
"3424",137295001,137298000
"3425",137302001,137304000
"3426",137305001,137307000
"3427",137308001,137318000
"3428",137318001,137323000
"3429",137410001,137412000
"3430",137437001,137440000
"3431",137471001,137472000
"3432",137478001,137479000
"3433",137550001,137551000
"3434",137596001,137597000
"3435",137603001,137604000
"3436",137805001,137806000
"3437",137841001,137842000
"3438",137996001,137997000
"3439",138005001,138007000
"3440",138061001,138062000
"3441",138084001,138085000
"3442",138153001,138155000
"3443",138168001,138169000
"3444",138396001,138399000
"3445",138593001,138594000
"3446",138606001,138607000
"3447",138827001,138829000
"3448",138841001,138843000
"3449",138845001,138848000
"3450",138850001,138851000
"3451",138854001,138855000
"3452",138907001,138911000
"3453",138919001,138920000
"3454",138924001,138925000
"3455",138940001,138942000
"3456",139068001,139069000
"3457",139074001,139076000
"3458",139080001,139081000
"3459",139085001,139087000
"3460",139119001,139120000
"3461",139140001,139141000
"3462",139145001,139147000
"3463",139151001,139152000
"3464",139187001,139189000
"3465",139200001,139201000
"3466",139205001,139206000
"3467",139208001,139209000
"3468",139212001,139214000
"3469",139220001,139221000
"3470",139233001,139236000
"3471",139247001,139250000
"3472",139298001,139300000
"3473",139303001,139304000
"3474",139319001,139320000
"3475",139363001,139365000
"3476",139388001,139390000
"3477",139439001,139440000
"3478",139473001,139474000
"3479",139493001,139494000
"3480",139498001,139499000
"3481",139519001,139520000
"3482",139528001,139532000
"3483",139534001,139535000
"3484",139556001,139557000
"3485",139580001,139586000
"3486",139587001,139589000
"3487",139590001,139592000
"3488",139595001,139596000
"3489",139616001,139617000
"3490",139648001,139649000
"3491",139683001,139686000
"3492",139703001,139704000
"3493",139834001,139835000
"3494",139850001,139851000
"3495",139861001,139862000
"3496",139905001,139906000
"3497",139914001,139916000
"3498",139943001,139946000
"3499",139949001,139953000
"3500",139969001,139971000
"3501",139978001,139979000
"3502",139994001,139995000
"3503",140035001,140037000
"3504",140047001,140051000
"3505",140057001,140059000
"3506",140060001,140064000
"3507",140077001,140083000
"3508",140102001,140103000
"3509",140115001,140118000
"3510",140125001,140126000
"3511",140128001,140129000
"3512",140136001,140139000
"3513",140141001,140142000
"3514",140188001,140189000
"3515",140805001,140806000
"3516",140810001,140811000
"3517",140815001,140816000
"3518",140821001,140823000
"3519",140828001,140829000
"3520",140845001,140846000
"3521",140856001,140858000
"3522",140881001,140883000
"3523",140903001,140904000
"3524",140908001,140909000
"3525",140922001,140924000
"3526",140938001,140943000
"3527",140954001,140961000
"3528",140962001,140964000
"3529",140967001,140969000
"3530",140973001,140975000
"3531",141008001,141012000
"3532",141024001,141028000
"3533",141041001,141042000
"3534",141047001,141050000
"3535",141051001,141052000
"3536",141059001,141062000
"3537",141070001,141071000
"3538",141092001,141093000
"3539",141100001,141101000
"3540",141122001,141125000
"3541",141127001,141128000
"3542",141130001,141132000
"3543",141148001,141149000
"3544",141168001,141169000
"3545",141171001,141177000
"3546",141193001,141196000
"3547",141214001,141217000
"3548",141220001,141223000
"3549",141227001,141231000
"3550",141254001,141255000
"3551",141265001,141266000
"3552",141278001,141280000
"3553",141292001,141293000
"3554",141294001,141295000
"3555",141325001,141331000
"3556",141351001,141352000
"3557",141363001,141364000
"3558",141370001,141371000
"3559",141372001,141374000
"3560",141390001,141396000
"3561",141408001,141410000
"3562",141413001,141415000
"3563",141429001,141431000
"3564",141434001,141438000
"3565",141440001,141441000
"3566",141443001,141445000
"3567",141446001,141456000
"3568",141456001,141457000
"3569",141458001,141459000
"3570",141461001,141463000
"3571",141467001,141469000
"3572",141474001,141477000
"3573",141480001,141483000
"3574",141525001,141526000
"3575",141539001,141542000
"3576",141561001,141564000
"3577",141569001,141570000
"3578",141638001,141640000
"3579",141658001,141659000
"3580",141666001,141667000
"3581",141755001,141757000
"3582",141774001,141775000
"3583",141901001,141904000
"3584",141925001,141926000
"3585",141934001,141935000
"3586",141945001,141946000
"3587",141948001,141952000
"3588",142016001,142017000
"3589",142045001,142046000
"3590",142061001,142062000
"3591",142089001,142090000
"3592",142094001,142099000
"3593",142146001,142147000
"3594",142170001,142171000
"3595",142231001,142232000
"3596",142283001,142286000
"3597",142316001,142317000
"3598",142328001,142329000
"3599",142334001,142335000
"3600",142387001,142389000
"3601",142428001,142429000
"3602",142435001,142436000
"3603",142440001,142441000
"3604",142456001,142458000
"3605",142471001,142473000
"3606",142481001,142483000
"3607",142487001,142488000
"3608",142509001,142511000
"3609",142522001,142524000
"3610",142525001,142526000
"3611",142532001,142534000
"3612",142538001,142539000
"3613",142542001,142544000
"3614",142580001,142582000
"3615",142610001,142612000
"3616",142659001,142665000
"3617",142672001,142673000
"3618",142675001,142676000
"3619",142714001,142715000
"3620",142737001,142738000
"3621",142792001,142794000
"3622",142799001,142800000
"3623",142850001,142851000
"3624",142894001,142895000
"3625",142897001,142899000
"3626",142903001,142904000
"3627",142919001,142920000
"3628",142967001,142970000
"3629",143008001,143009000
"3630",143051001,143055000
"3631",143067001,143070000
"3632",143086001,143087000
"3633",143094001,143095000
"3634",143119001,143121000
"3635",143123001,143125000
"3636",143151001,143155000
"3637",143178001,143180000
"3638",143207001,143208000
"3639",143226001,143227000
"3640",143228001,143230000
"3641",143232001,143236000
"3642",143237001,143239000
"3643",143242001,143243000
"3644",143294001,143297000
"3645",143356001,143357000
"3646",143389001,143390000
"3647",143428001,143430000
"3648",143437001,143439000
"3649",143443001,143447000
"3650",143458001,143462000
"3651",143463001,143467000
"3652",143470001,143471000
"3653",143482001,143483000
"3654",143502001,143503000
"3655",143505001,143507000
"3656",143512001,143513000
"3657",143544001,143545000
"3658",143546001,143552000
"3659",143599001,143601000
"3660",143649001,143650000
"3661",143685001,143686000
"3662",143706001,143708000
"3663",143739001,143741000
"3664",143747001,143749000
"3665",143757001,143758000
"3666",143783001,143785000
"3667",143821001,143824000
"3668",143827001,143828000
"3669",143829001,143832000
"3670",143978001,143979000
"3671",144039001,144040000
"3672",144072001,144073000
"3673",144074001,144075000
"3674",144097001,144098000
"3675",144105001,144108000
"3676",144175001,144176000
"3677",144217001,144218000
"3678",144238001,144239000
"3679",144284001,144285000
"3680",144417001,144418000
"3681",144425001,144427000
"3682",144470001,144472000
"3683",144553001,144555000
"3684",144581001,144585000
"3685",144589001,144590000
"3686",144628001,144629000
"3687",144653001,144655000
"3688",144697001,144698000
"3689",144776001,144777000
"3690",144790001,144791000
"3691",144798001,144799000
"3692",144828001,144829000
"3693",144838001,144840000
"3694",144857001,144859000
"3695",144861001,144862000
"3696",144864001,144865000
"3697",144889001,144890000
"3698",144894001,144898000
"3699",144907001,144909000
"3700",144912001,144913000
"3701",144914001,144917000
"3702",144931001,144933000
"3703",144935001,144936000
"3704",144937001,144944000
"3705",145015001,145016000
"3706",145030001,145032000
"3707",145127001,145128000
"3708",145139001,145140000
"3709",145159001,145160000
"3710",145172001,145174000
"3711",145202001,145203000
"3712",145206001,145207000
"3713",145210001,145211000
"3714",145243001,145244000
"3715",145253001,145254000
"3716",145283001,145287000
"3717",145289001,145290000
