"","ts",""
"1",3000001,3010000
"2",3010001,3011000
"3",3015001,3025000
"4",3025001,3033000
"5",3034001,3039000
"6",3199001,3200000
"7",3258001,3259000
"8",3334001,3337000
"9",3402001,3405000
"10",3439001,3441000
"11",3531001,3535000
"12",3563001,3564000
"13",3640001,3641000
"14",3872001,3873000
"15",4260001,4261000
"16",4307001,4312000
"17",4372001,4374000
"18",4375001,4378000
"19",4443001,4444000
"20",4794001,4797000
"21",5635001,5636000
"22",5709001,5711000
"23",6168001,6169000
"24",6297001,6298000
"25",6668001,6669000
"26",7176001,7178000
"27",7183001,7186000
"28",7188001,7189000
"29",7216001,7217000
"30",7592001,7593000
"31",7595001,7596000
"32",7603001,7604000
"33",7634001,7635000
"34",7659001,7661000
"35",7714001,7715000
"36",7721001,7722000
"37",7762001,7766000
"38",7767001,7768000
"39",7795001,7797000
"40",7798001,7799000
"41",7805001,7806000
"42",7835001,7839000
"43",7855001,7856000
"44",7872001,7874000
"45",7897001,7898000
"46",7913001,7916000
"47",7984001,7985000
"48",7999001,8e+06
"49",8002001,8006000
"50",8035001,8036000
"51",8041001,8044000
"52",8133001,8135000
"53",8463001,8464000
"54",8544001,8545000
"55",8700001,8701000
"56",8725001,8726000
"57",8732001,8734000
"58",8735001,8736000
"59",8754001,8755000
"60",8762001,8763000
"61",8764001,8765000
"62",8770001,8771000
"63",8781001,8782000
"64",8812001,8813000
"65",8818001,8819000
"66",8832001,8833000
"67",8835001,8837000
"68",8866001,8867000
"69",8872001,8873000
"70",8898001,8903000
"71",8914001,8916000
"72",8944001,8945000
"73",8964001,8965000
"74",8975001,8976000
"75",9027001,9028000
"76",9049001,9050000
"77",9051001,9052000
"78",9157001,9158000
"79",9198001,9200000
"80",9215001,9216000
"81",9238001,9240000
"82",9260001,9261000
"83",9269001,9271000
"84",9375001,9376000
"85",9673001,9674000
"86",9855001,9856000
"87",10269001,10270000
"88",10324001,10325000
"89",10448001,10450000
"90",10909001,10910000
"91",11145001,11146000
"92",11192001,11193000
"93",11435001,11436000
"94",11441001,11442000
"95",11898001,11899000
"96",12381001,12382000
"97",12587001,12588000
"98",12598001,12599000
"99",12641001,12643000
"100",12687001,12688000
"101",12690001,12694000
"102",12876001,12877000
"103",12945001,12946000
"104",13195001,13196000
"105",13231001,13232000
"106",13242001,13246000
"107",13247001,13248000
"108",13296001,13299000
"109",13301001,13302000
"110",13303001,13304000
"111",13310001,13311000
"112",13454001,13456000
"113",13479001,13480000
"114",13497001,13498000
"115",13582001,13583000
"116",13613001,13614000
"117",13651001,13654000
"118",13662001,13663000
"119",13681001,13683000
"120",13687001,13688000
"121",13690001,13691000
"122",13698001,13701000
"123",13716001,13717000
"124",13748001,13751000
"125",13817001,13818000
"126",13825001,13830000
"127",13849001,13850000
"128",13889001,13890000
"129",14001001,14002000
"130",14173001,14176000
"131",14233001,14234000
"132",14242001,14243000
"133",14246001,14247000
"134",14274001,14279000
"135",14342001,14343000
"136",14348001,14349000
"137",14380001,14382000
"138",14498001,14502000
"139",14513001,14514000
"140",14523001,14524000
"141",14532001,14533000
"142",14585001,14586000
"143",14613001,14616000
"144",14641001,14643000
"145",14680001,14681000
"146",14699001,14700000
"147",14731001,14732000
"148",14751001,14753000
"149",14765001,14766000
"150",14783001,14786000
"151",14846001,14847000
"152",14859001,14861000
"153",14905001,14906000
"154",15015001,15016000
"155",15036001,15038000
"156",15044001,15046000
"157",15239001,15240000
"158",15241001,15242000
"159",15278001,15281000
"160",15302001,15304000
"161",15305001,15315000
"162",15315001,15316000
"163",15317001,15320000
"164",15357001,15359000
"165",15422001,15423000
"166",15434001,15436000
"167",15492001,15497000
"168",15515001,15517000
"169",15529001,15530000
"170",15586001,15587000
"171",15595001,15596000
"172",15627001,15628000
"173",15658001,15659000
"174",15682001,15683000
"175",15685001,15686000
"176",15709001,15711000
"177",15766001,15768000
"178",15880001,15881000
"179",15919001,15920000
"180",15944001,15945000
"181",15955001,15956000
"182",15957001,15959000
"183",15964001,15965000
"184",15994001,15996000
"185",16014001,16015000
"186",16074001,16075000
"187",16092001,16093000
"188",16139001,16140000
"189",16147001,16150000
"190",16152001,16156000
"191",16157001,16158000
"192",16215001,16217000
"193",16226001,16227000
"194",16231001,16233000
"195",16330001,16331000
"196",16347001,16348000
"197",16352001,16356000
"198",16361001,16362000
"199",16388001,16391000
"200",16394001,16395000
"201",16398001,16400000
"202",16438001,16439000
"203",16485001,16486000
"204",16497001,16498000
"205",16499001,16503000
"206",16599001,16600000
"207",17623001,17624000
"208",17726001,17727000
"209",17817001,17818000
"210",17987001,17988000
"211",18002001,18004000
"212",18073001,18074000
"213",18230001,18231000
"214",18277001,18278000
"215",18291001,18294000
"216",18326001,18327000
"217",18473001,18475000
"218",18721001,18723000
"219",18734001,18735000
"220",19620001,19624000
"221",20384001,20386000
"222",20453001,20454000
"223",20459001,20461000
"224",20467001,20468000
"225",20491001,20494000
"226",20520001,20523000
"227",20543001,20546000
"228",20580001,20583000
"229",20604001,20605000
"230",20606001,20609000
"231",20636001,20637000
"232",20641001,20646000
"233",20650001,20653000
"234",20662001,20670000
"235",20686001,20687000
"236",20688001,20691000
"237",20692001,20693000
"238",20694001,20699000
"239",20700001,20701000
"240",20713001,20714000
"241",20721001,20722000
"242",20725001,20729000
"243",20738001,20739000
"244",20740001,20741000
"245",20744001,20749000
"246",20753001,20754000
"247",20757001,20758000
"248",20815001,20816000
"249",20831001,20832000
"250",20868001,20869000
"251",20877001,20880000
"252",20887001,20889000
"253",20892001,20894000
"254",20898001,20900000
"255",20901001,20902000
"256",20944001,20945000
"257",20951001,20954000
"258",20975001,20980000
"259",20983001,20984000
"260",21000001,21004000
"261",21015001,21017000
"262",21029001,21035000
"263",21072001,21075000
"264",21090001,21093000
"265",21130001,21134000
"266",21135001,21136000
"267",21137001,21138000
"268",21149001,21154000
"269",21161001,21162000
"270",21164001,21167000
"271",21168001,21170000
"272",21198001,21199000
"273",21204001,21206000
"274",21208001,21209000
"275",21213001,21214000
"276",21216001,21217000
"277",21218001,21219000
"278",21220001,21222000
"279",21224001,21226000
"280",21227001,21228000
"281",21236001,21242000
"282",21243001,21246000
"283",21262001,21263000
"284",21264001,21266000
"285",21287001,21293000
"286",21309001,21310000
"287",21313001,21314000
"288",21320001,21322000
"289",21323001,21324000
"290",21357001,21358000
"291",21366001,21371000
"292",21408001,21413000
"293",21423001,21426000
"294",21427001,21428000
"295",21432001,21433000
"296",21441001,21442000
"297",21456001,21457000
"298",21469001,21470000
"299",21509001,21512000
"300",21545001,21549000
"301",21591001,21594000
"302",21598001,21599000
"303",21602001,21603000
"304",21610001,21611000
"305",21612001,21613000
"306",21614001,21618000
"307",21621001,21622000
"308",21627001,21628000
"309",21630001,21631000
"310",21691001,21692000
"311",21718001,21725000
"312",21726001,21727000
"313",21751001,21752000
"314",21759001,21763000
"315",21768001,21770000
"316",21786001,21788000
"317",21797001,21801000
"318",21804001,21805000
"319",21840001,21841000
"320",21849001,21854000
"321",21870001,21872000
"322",21901001,21903000
"323",21917001,21919000
"324",21924001,21925000
"325",21926001,21929000
"326",21936001,21938000
"327",21944001,21945000
"328",21950001,21953000
"329",21954001,21957000
"330",21961001,21963000
"331",21978001,21979000
"332",21988001,21990000
"333",22001001,22004000
"334",22016001,22017000
"335",22025001,22026000
"336",22028001,22030000
"337",22035001,22037000
"338",22047001,22056000
"339",22066001,22067000
"340",22070001,22073000
"341",22084001,22087000
"342",22096001,22097000
"343",22116001,22119000
"344",22131001,22132000
"345",22137001,22139000
"346",22143001,22144000
"347",22147001,22148000
"348",22149001,22150000
"349",22155001,22159000
"350",22160001,22162000
"351",22163001,22167000
"352",22188001,22189000
"353",22224001,22228000
"354",22230001,22231000
"355",22240001,22241000
"356",22259001,22261000
"357",22306001,22309000
"358",22316001,22317000
"359",22327001,22329000
"360",22346001,22347000
"361",22348001,22349000
"362",22354001,22357000
"363",22376001,22377000
"364",22386001,22391000
"365",22392001,22393000
"366",22397001,22400000
"367",22408001,22412000
"368",22467001,22470000
"369",22474001,22477000
"370",22486001,22487000
"371",22518001,22519000
"372",22533001,22534000
"373",22557001,22558000
"374",22625001,22626000
"375",22707001,22710000
"376",22732001,22733000
"377",22755001,22756000
"378",22837001,22839000
"379",22953001,22954000
"380",22962001,22964000
"381",23005001,23006000
"382",23009001,23013000
"383",23027001,23028000
"384",23034001,23035000
"385",23061001,23064000
"386",23083001,23084000
"387",23212001,23213000
"388",23222001,23225000
"389",23250001,23251000
"390",23378001,23382000
"391",23581001,23582000
"392",23697001,23698000
"393",24038001,24039000
"394",24119001,24120000
"395",24157001,24158000
"396",24160001,24162000
"397",24282001,24284000
"398",24291001,24292000
"399",24293001,24294000
"400",24341001,24342000
"401",24501001,24505000
"402",24542001,24543000
"403",24695001,24697000
"404",24701001,24702000
"405",24768001,24778000
"406",24778001,24779000
"407",24781001,24782000
"408",24818001,24819000
"409",24834001,24835000
"410",24861001,24862000
"411",24954001,24955000
"412",24956001,24957000
"413",24974001,24975000
"414",25027001,25028000
"415",25041001,25042000
"416",25104001,25105000
"417",25149001,25154000
"418",25167001,25168000
"419",25211001,25213000
"420",25241001,25242000
"421",25250001,25254000
"422",25257001,25258000
"423",25284001,25285000
"424",25309001,25311000
"425",25318001,25319000
"426",25401001,25402000
"427",25481001,25482000
"428",25592001,25593000
"429",25656001,25657000
"430",25693001,25697000
"431",25706001,25707000
"432",25854001,25855000
"433",26459001,26463000
"434",26733001,26735000
"435",26776001,26777000
"436",26805001,26807000
"437",26998001,27001000
"438",27029001,27032000
"439",27106001,27107000
"440",27116001,27117000
"441",27149001,27150000
"442",27154001,27156000
"443",27165001,27166000
"444",27175001,27177000
"445",27186001,27187000
"446",27191001,27193000
"447",27202001,27204000
"448",27287001,27289000
"449",27296001,27297000
"450",27298001,27302000
"451",27307001,27308000
"452",27326001,27327000
"453",27410001,27411000
"454",27414001,27415000
"455",27436001,27438000
"456",27449001,27451000
"457",27454001,27455000
"458",27670001,27671000
"459",27782001,27783000
"460",27784001,27785000
"461",27791001,27792000
"462",27813001,27814000
"463",28085001,28086000
"464",28120001,28121000
"465",28136001,28138000
"466",28172001,28173000
"467",28248001,28249000
"468",28261001,28262000
"469",28403001,28407000
"470",28591001,28593000
"471",28644001,28645000
"472",28779001,28780000
"473",28790001,28791000
"474",29036001,29037000
"475",29298001,29299000
"476",29307001,29308000
"477",29317001,29319000
"478",29367001,29368000
"479",29409001,29410000
"480",29411001,29413000
"481",29434001,29435000
"482",29458001,29459000
"483",29512001,29513000
"484",29643001,29644000
"485",29650001,29651000
"486",29655001,29656000
"487",29657001,29658000
"488",29661001,29662000
"489",29802001,29804000
"490",29865001,29866000
"491",29935001,29936000
"492",29962001,29963000
"493",30138001,30139000
"494",30240001,30241000
"495",30265001,30266000
"496",30315001,30316000
"497",30412001,30413000
"498",30423001,30424000
"499",30426001,30428000
"500",30480001,30481000
"501",30520001,30521000
"502",30820001,30821000
"503",30921001,30923000
"504",30936001,30938000
"505",30940001,30944000
"506",31010001,31011000
"507",31017001,31019000
"508",31027001,31028000
"509",31029001,31033000
"510",31071001,31072000
"511",31082001,31083000
"512",31086001,31087000
"513",31118001,31120000
"514",31130001,31132000
"515",31151001,31152000
"516",31209001,31214000
"517",31221001,31222000
"518",31253001,31255000
"519",31274001,31275000
"520",31278001,31283000
"521",31348001,31350000
"522",31385001,31388000
"523",31400001,31401000
"524",31405001,31406000
"525",31543001,31544000
"526",31559001,31560000
"527",31683001,31684000
"528",31688001,31689000
"529",31858001,31859000
"530",31910001,31911000
"531",31912001,31916000
"532",31924001,31927000
"533",31942001,31943000
"534",31960001,31961000
"535",31971001,31974000
"536",31976001,31977000
"537",31989001,31990000
"538",32011001,32012000
"539",32021001,32022000
"540",32028001,32030000
"541",32031001,32034000
"542",32052001,32055000
"543",32063001,32064000
"544",32090001,32091000
"545",32095001,32097000
"546",32136001,32137000
"547",32159001,32160000
"548",32186001,32187000
"549",32272001,32273000
"550",32302001,32303000
"551",32350001,32351000
"552",32369001,32370000
"553",32405001,32406000
"554",32409001,32410000
"555",32540001,32545000
"556",32590001,32593000
"557",32672001,32673000
"558",32675001,32677000
"559",32682001,32683000
"560",32685001,32687000
"561",32693001,32694000
"562",32695001,32698000
"563",32715001,32717000
"564",32835001,32836000
"565",32940001,32941000
"566",32949001,32950000
"567",33062001,33063000
"568",33095001,33096000
"569",33260001,33261000
"570",33492001,33493000
"571",33591001,33592000
"572",33773001,33774000
"573",33826001,33827000
"574",34203001,34206000
"575",34483001,34484000
"576",34485001,34487000
"577",34488001,34490000
"578",34498001,34499000
"579",34558001,34559000
"580",34660001,34661000
"581",34688001,34689000
"582",34721001,34723000
"583",34754001,34755000
"584",34825001,34826000
"585",34871001,34872000
"586",34953001,34954000
"587",34983001,34984000
"588",34995001,34996000
"589",35019001,35020000
"590",35044001,35045000
"591",35116001,35118000
"592",35166001,35168000
"593",35175001,35177000
"594",35199001,35201000
"595",35210001,35212000
"596",35218001,35219000
"597",35266001,35269000
"598",35282001,35283000
"599",35305001,35306000
"600",35317001,35319000
"601",35330001,35332000
"602",35420001,35423000
"603",35424001,35426000
"604",35434001,35435000
"605",35442001,35444000
"606",35524001,35525000
"607",35535001,35536000
"608",35541001,35542000
"609",35557001,35561000
"610",35562001,35563000
"611",35568001,35572000
"612",35573001,35574000
"613",35575001,35576000
"614",36714001,36715000
"615",36724001,36729000
"616",36730001,36732000
"617",36767001,36770000
"618",36793001,36799000
"619",36803001,36804000
"620",36805001,36806000
"621",36814001,36815000
"622",36816001,36825000
"623",36829001,36830000
"624",36831001,36835000
"625",36858001,36859000
"626",36882001,36883000
"627",36885001,36886000
"628",36890001,36891000
"629",36895001,36896000
"630",36916001,36917000
"631",36922001,36923000
"632",36933001,36935000
"633",36941001,36942000
"634",36950001,36951000
"635",36965001,36967000
"636",36968001,36975000
"637",37008001,37009000
"638",37025001,37027000
"639",37028001,37029000
"640",37048001,37049000
"641",37052001,37056000
"642",37067001,37068000
"643",37076001,37078000
"644",37084001,37086000
"645",37087001,37088000
"646",37089001,37091000
"647",37092001,37095000
"648",37099001,37103000
"649",37107001,37108000
"650",37114001,37116000
"651",37139001,37149000
"652",37149001,37150000
"653",37167001,37168000
"654",37177001,37178000
"655",37191001,37192000
"656",37203001,37206000
"657",37207001,37209000
"658",37230001,37231000
"659",37254001,37257000
"660",37261001,37262000
"661",37329001,37330000
"662",37347001,37350000
"663",37358001,37361000
"664",37364001,37365000
"665",37384001,37386000
"666",37388001,37389000
"667",37390001,37391000
"668",37420001,37422000
"669",37430001,37433000
"670",37434001,37435000
"671",37449001,37450000
"672",37452001,37455000
"673",37456001,37463000
"674",37485001,37486000
"675",37488001,37491000
"676",37527001,37532000
"677",37542001,37543000
"678",37544001,37545000
"679",37552001,37554000
"680",37611001,37615000
"681",37616001,37618000
"682",37636001,37637000
"683",37656001,37658000
"684",37690001,37691000
"685",37782001,37784000
"686",37932001,37933000
"687",37998001,37999000
"688",38692001,38693000
"689",38718001,38719000
"690",39509001,39510000
"691",39558001,39559000
"692",39602001,39605000
"693",40141001,40142000
"694",40191001,40194000
"695",40224001,40225000
"696",40228001,40229000
"697",40239001,40243000
"698",40269001,40271000
"699",40330001,40331000
"700",40333001,40334000
"701",40346001,40347000
"702",40350001,40351000
"703",40371001,40372000
"704",40376001,40377000
"705",40381001,40383000
"706",40391001,40393000
"707",40397001,40398000
"708",40403001,40404000
"709",40414001,40416000
"710",40439001,40440000
"711",40455001,40457000
"712",40531001,40532000
"713",40583001,40584000
"714",40616001,40618000
"715",40627001,40629000
"716",40635001,40640000
"717",40654001,40655000
"718",40685001,40687000
"719",40720001,40722000
"720",40730001,40734000
"721",40750001,40751000
"722",40756001,40759000
"723",40765001,40766000
"724",40783001,40786000
"725",40792001,40797000
"726",40798001,40803000
"727",40805001,40810000
"728",40811001,40813000
"729",40818001,40819000
"730",40821001,40823000
"731",40834001,40835000
"732",40851001,40852000
"733",40858001,40860000
"734",40871001,40881000
"735",40948001,40951000
"736",40963001,40965000
"737",40982001,40984000
"738",40990001,40991000
"739",41001001,41002000
"740",41007001,41009000
"741",41011001,41014000
"742",41028001,41029000
"743",41044001,41045000
"744",41053001,41054000
"745",41061001,41062000
"746",41156001,41158000
"747",41160001,41161000
"748",41182001,41183000
"749",41191001,41192000
"750",41205001,41209000
"751",41212001,41213000
"752",41228001,41230000
"753",41271001,41275000
"754",41285001,41287000
"755",41300001,41301000
"756",41302001,41305000
"757",41306001,41307000
"758",41325001,41330000
"759",41334001,41336000
"760",41363001,41368000
"761",41373001,41380000
"762",41384001,41385000
"763",41447001,41448000
"764",41461001,41463000
"765",41474001,41475000
"766",41539001,41540000
"767",41566001,41567000
"768",41579001,41582000
"769",41583001,41586000
"770",41590001,41591000
"771",41595001,41596000
"772",41611001,41614000
"773",41698001,41699000
"774",41735001,41738000
"775",41761001,41763000
"776",41804001,41806000
"777",41889001,41893000
"778",41898001,41899000
"779",41900001,41901000
"780",41935001,41939000
"781",41950001,41952000
"782",41953001,41955000
"783",41999001,4.2e+07
"784",42023001,42024000
"785",42100001,42101000
"786",42102001,42103000
"787",42109001,42110000
"788",42116001,42117000
"789",42123001,42125000
"790",42174001,42175000
"791",42179001,42180000
"792",42196001,42197000
"793",42208001,42209000
"794",42231001,42232000
"795",42240001,42242000
"796",42263001,42266000
"797",42313001,42316000
"798",42326001,42328000
"799",42342001,42343000
"800",42349001,42350000
"801",42353001,42359000
"802",42400001,42402000
"803",42413001,42415000
"804",42461001,42462000
"805",42463001,42465000
"806",42471001,42473000
"807",42520001,42521000
"808",42530001,42532000
"809",42550001,42551000
"810",42573001,42574000
"811",42626001,42627000
"812",42638001,42639000
"813",42658001,42659000
"814",42688001,42689000
"815",42778001,42779000
"816",42865001,42866000
"817",42896001,42899000
"818",42927001,42928000
"819",42942001,42946000
"820",42948001,42949000
"821",42951001,42952000
"822",43000001,43001000
"823",43083001,43084000
"824",43085001,43086000
"825",43098001,43100000
"826",43103001,43109000
"827",43115001,43117000
"828",43142001,43143000
"829",43210001,43212000
"830",43221001,43223000
"831",43239001,43241000
"832",43262001,43263000
"833",43264001,43265000
"834",43269001,43270000
"835",43284001,43285000
"836",43287001,43288000
"837",43339001,43340000
"838",43358001,43360000
"839",43454001,43455000
"840",43698001,43699000
"841",43730001,43731000
"842",43738001,43739000
"843",43742001,43748000
"844",43754001,43756000
"845",43761001,43762000
"846",43769001,43770000
"847",43802001,43803000
"848",43827001,43828000
"849",43843001,43844000
"850",43845001,43847000
"851",43852001,43853000
"852",43860001,43861000
"853",43864001,43865000
"854",43880001,43881000
"855",43903001,43905000
"856",43908001,43909000
"857",43920001,43921000
"858",43929001,43932000
"859",43934001,43935000
"860",43972001,43973000
"861",43984001,43985000
"862",43993001,43994000
"863",44043001,44044000
"864",44065001,44069000
"865",44071001,44074000
"866",44076001,44077000
"867",44084001,44086000
"868",44088001,44089000
"869",44094001,44095000
"870",44109001,44110000
"871",44113001,44115000
"872",44116001,44117000
"873",44119001,44121000
"874",44124001,44128000
"875",44129001,44132000
"876",44134001,44136000
"877",44144001,44145000
"878",44147001,44148000
"879",44178001,44180000
"880",44186001,44187000
"881",44233001,44238000
"882",44239001,44240000
"883",44268001,44270000
"884",44287001,44290000
"885",44305001,44307000
"886",44311001,44312000
"887",44319001,44322000
"888",44323001,44328000
"889",44330001,44331000
"890",44332001,44339000
"891",44340001,44341000
"892",44342001,44345000
"893",44346001,44348000
"894",44357001,44358000
"895",44360001,44363000
"896",44364001,44365000
"897",44378001,44380000
"898",44389001,44390000
"899",44391001,44392000
"900",44393001,44394000
"901",44395001,44399000
"902",44405001,44412000
"903",44417001,44421000
"904",44441001,44442000
"905",44454001,44455000
"906",44457001,44459000
"907",44477001,44481000
"908",44482001,44484000
"909",44489001,44491000
"910",44497001,44501000
"911",44502001,44503000
"912",44510001,44511000
"913",44565001,44566000
"914",44587001,44588000
"915",44590001,44591000
"916",44595001,44596000
"917",44598001,44602000
"918",44603001,44607000
"919",44609001,44611000
"920",44612001,44613000
"921",44624001,44625000
"922",44632001,44633000
"923",44641001,44642000
"924",44652001,44653000
"925",44655001,44656000
"926",44685001,44687000
"927",44708001,44709000
"928",44721001,44723000
"929",44733001,44737000
"930",44741001,44743000
"931",44755001,44756000
"932",44766001,44775000
"933",44779001,44780000
"934",44799001,44800000
"935",44801001,44802000
"936",44803001,44804000
"937",44836001,44837000
"938",44879001,44885000
"939",44916001,44917000
"940",44919001,44923000
"941",44964001,44968000
"942",45018001,45019000
"943",45022001,45024000
"944",45041001,45043000
"945",45048001,45049000
"946",45054001,45059000
"947",45115001,45116000
"948",45117001,45119000
"949",45121001,45123000
"950",45138001,45139000
"951",45145001,45147000
"952",45221001,45222000
"953",45299001,45301000
"954",45349001,45350000
"955",45370001,45372000
"956",45388001,45389000
"957",45408001,45409000
"958",45411001,45413000
"959",45416001,45418000
"960",45430001,45432000
"961",45502001,45503000
"962",45590001,45591000
"963",45626001,45627000
"964",45651001,45652000
"965",45657001,45658000
"966",45754001,45755000
"967",45798001,45799000
"968",45828001,45830000
"969",45838001,45839000
"970",45905001,45908000
"971",45936001,45938000
"972",45954001,45957000
"973",45960001,45961000
"974",45973001,45974000
"975",45978001,45979000
"976",45981001,45982000
"977",45983001,45986000
"978",46003001,46005000
"979",46011001,46015000
"980",46028001,46030000
"981",46046001,46048000
"982",46066001,46067000
"983",46070001,46071000
"984",46073001,46074000
"985",46120001,46121000
"986",46191001,46192000
"987",46229001,46231000
"988",46246001,46248000
"989",46272001,46274000
"990",46282001,46284000
"991",46302001,46303000
"992",46309001,46310000
"993",46314001,46317000
"994",46328001,46331000
"995",46338001,46339000
"996",46353001,46355000
"997",46389001,46390000
"998",46392001,46394000
"999",46423001,46424000
"1000",46442001,46444000
"1001",46479001,46484000
"1002",46511001,46512000
"1003",46582001,46583000
"1004",46703001,46704000
"1005",46735001,46736000
"1006",46814001,46816000
"1007",46883001,46884000
"1008",46890001,46892000
"1009",46896001,46897000
"1010",46907001,46908000
"1011",46951001,46952000
"1012",46964001,46966000
"1013",46968001,46970000
"1014",46971001,46972000
"1015",46979001,46980000
"1016",46994001,46995000
"1017",46998001,46999000
"1018",47004001,47005000
"1019",47012001,47014000
"1020",47015001,47016000
"1021",47022001,47023000
"1022",47055001,47056000
"1023",47069001,47071000
"1024",47077001,47078000
"1025",47126001,47127000
"1026",47280001,47281000
"1027",47363001,47364000
"1028",47367001,47369000
"1029",47383001,47386000
"1030",47408001,47409000
"1031",47506001,47507000
"1032",47514001,47515000
"1033",47528001,47534000
"1034",47535001,47536000
"1035",47538001,47539000
"1036",47553001,47554000
"1037",47565001,47566000
"1038",47571001,47572000
"1039",47581001,47582000
"1040",47587001,47589000
"1041",47604001,47605000
"1042",47609001,47610000
"1043",47621001,47622000
"1044",47624001,47625000
"1045",47684001,47685000
"1046",47699001,47700000
"1047",47708001,47709000
"1048",47714001,47715000
"1049",47725001,47726000
"1050",47745001,47746000
"1051",47747001,47748000
"1052",47770001,47771000
"1053",47828001,47829000
"1054",47838001,47840000
"1055",47847001,47849000
"1056",47860001,47861000
"1057",47894001,47896000
"1058",47901001,47902000
"1059",47904001,47905000
"1060",47910001,47911000
"1061",48082001,48083000
"1062",48099001,48100000
"1063",48141001,48142000
"1064",48161001,48163000
"1065",48183001,48184000
"1066",48258001,48259000
"1067",48265001,48268000
"1068",48354001,48355000
"1069",48479001,48482000
"1070",48494001,48496000
"1071",48538001,48539000
"1072",48586001,48587000
"1073",48597001,48598000
"1074",48606001,48607000
"1075",48618001,48619000
"1076",48645001,48651000
"1077",48674001,48676000
"1078",48677001,48678000
"1079",48679001,48680000
"1080",48686001,48687000
"1081",48692001,48698000
"1082",48733001,48734000
"1083",48795001,48796000
"1084",48834001,48840000
"1085",48860001,48861000
"1086",48894001,48897000
"1087",48898001,48899000
"1088",48916001,48917000
"1089",48961001,48964000
"1090",48972001,48973000
"1091",48984001,48988000
"1092",48991001,48992000
"1093",49024001,49026000
"1094",49051001,49052000
"1095",49054001,49057000
"1096",49081001,49082000
"1097",49084001,49085000
"1098",49087001,49089000
"1099",49102001,49103000
"1100",49110001,49111000
"1101",49201001,49202000
"1102",49273001,49274000
"1103",49338001,49339000
"1104",49340001,49342000
"1105",49366001,49367000
"1106",49385001,49386000
"1107",49483001,49484000
"1108",49485001,49487000
"1109",49488001,49490000
"1110",49494001,49495000
"1111",49529001,49532000
"1112",49534001,49535000
"1113",49572001,49573000
"1114",49594001,49596000
"1115",49606001,49607000
"1116",49617001,49618000
"1117",49634001,49636000
"1118",49653001,49655000
"1119",49665001,49666000
"1120",49728001,49729000
"1121",49746001,49747000
"1122",49751001,49754000
"1123",49756001,49760000
"1124",49770001,49771000
"1125",49777001,49778000
"1126",49794001,49795000
"1127",49796001,49801000
"1128",49804001,49805000
"1129",49860001,49862000
"1130",49873001,49875000
"1131",49879001,49881000
"1132",49922001,49923000
"1133",49935001,49937000
"1134",49939001,49940000
"1135",49949001,49952000
"1136",49961001,49964000
"1137",49967001,49968000
"1138",50006001,50007000
"1139",50106001,50107000
"1140",50124001,50125000
"1141",50172001,50173000
"1142",50236001,50237000
"1143",50241001,50242000
"1144",50244001,50246000
"1145",50306001,50307000
"1146",50311001,50312000
"1147",50315001,50316000
"1148",50333001,50334000
"1149",50438001,50439000
"1150",50444001,50445000
"1151",50452001,50454000
"1152",50462001,50464000
"1153",50491001,50492000
"1154",50496001,50497000
"1155",50500001,50502000
"1156",50519001,50520000
"1157",50528001,50530000
"1158",50554001,50555000
"1159",50556001,50557000
"1160",50561001,50562000
"1161",50593001,50594000
"1162",50603001,50606000
"1163",50608001,50609000
"1164",50615001,50618000
"1165",50658001,50661000
"1166",50674001,50675000
"1167",50692001,50695000
"1168",50696001,50699000
"1169",50709001,50710000
"1170",50727001,50729000
"1171",50732001,50736000
"1172",50739001,50740000
"1173",50745001,50747000
"1174",50767001,50770000
"1175",50774001,50777000
"1176",50849001,50850000
"1177",50854001,50858000
"1178",50967001,50968000
"1179",50986001,50987000
"1180",51003001,51004000
"1181",51005001,51011000
"1182",51030001,51031000
"1183",51076001,51078000
"1184",51101001,51105000
"1185",51106001,51107000
"1186",51152001,51153000
"1187",51161001,51163000
"1188",51233001,51234000
"1189",51278001,51280000
"1190",51292001,51293000
"1191",51335001,51336000
"1192",51363001,51365000
"1193",51398001,51400000
"1194",51764001,51768000
"1195",51777001,51778000
"1196",51909001,51910000
"1197",51962001,51964000
"1198",51977001,51978000
"1199",51979001,51980000
"1200",52027001,52028000
"1201",52046001,52050000
"1202",52053001,52054000
"1203",52098001,52099000
"1204",52145001,52151000
"1205",52166001,52170000
"1206",52188001,52189000
"1207",52223001,52225000
"1208",52278001,52279000
"1209",52287001,52288000
"1210",52298001,52299000
"1211",52676001,52677000
"1212",52679001,52680000
"1213",52858001,52859000
"1214",53144001,53145000
"1215",53247001,53250000
"1216",53254001,53255000
"1217",53301001,53302000
"1218",53341001,53342000
"1219",53383001,53386000
"1220",53398001,53399000
"1221",53402001,53406000
"1222",53508001,53509000
"1223",53526001,53527000
"1224",53535001,53538000
"1225",53541001,53542000
"1226",53594001,53595000
"1227",53609001,53611000
"1228",53620001,53621000
"1229",53646001,53647000
"1230",53663001,53665000
"1231",53666001,53670000
"1232",53673001,53674000
"1233",53705001,53708000
"1234",53771001,53773000
"1235",53806001,53807000
"1236",53818001,53821000
"1237",53825001,53826000
"1238",53829001,53830000
"1239",53890001,53891000
"1240",53974001,53976000
"1241",53991001,53992000
"1242",54068001,54070000
"1243",54112001,54113000
"1244",54181001,54182000
"1245",54228001,54230000
"1246",54323001,54324000
"1247",54336001,54337000
"1248",54438001,54439000
"1249",54500001,54503000
"1250",54534001,54535000
"1251",54536001,54538000
"1252",54559001,54561000
"1253",54568001,54569000
"1254",54585001,54588000
"1255",54593001,54594000
"1256",54614001,54615000
"1257",54661001,54662000
"1258",54676001,54677000
"1259",54699001,54703000
"1260",54732001,54737000
"1261",54738001,54740000
"1262",54745001,54747000
"1263",54749001,54750000
"1264",54751001,54754000
"1265",54759001,54761000
"1266",54763001,54771000
"1267",54801001,54804000
"1268",54810001,54811000
"1269",54821001,54822000
"1270",54830001,54831000
"1271",54840001,54841000
"1272",54854001,54855000
"1273",54856001,54858000
"1274",54861001,54862000
"1275",54863001,54865000
"1276",54889001,54890000
"1277",54902001,54903000
"1278",54911001,54912000
"1279",54913001,54914000
"1280",54916001,54919000
"1281",54931001,54932000
"1282",54946001,54947000
"1283",54949001,54952000
"1284",54974001,54976000
"1285",54981001,54983000
"1286",54984001,54985000
"1287",55010001,55011000
"1288",55012001,55013000
"1289",55024001,55027000
"1290",55044001,55045000
"1291",55046001,55050000
"1292",55066001,55069000
"1293",55083001,55084000
"1294",55088001,55092000
"1295",55100001,55102000
"1296",55110001,55112000
"1297",55147001,55151000
"1298",55174001,55175000
"1299",55208001,55210000
"1300",55216001,55217000
"1301",55223001,55226000
"1302",55242001,55243000
"1303",55311001,55312000
"1304",55325001,55328000
"1305",55354001,55356000
"1306",55382001,55383000
"1307",55392001,55393000
"1308",55429001,55430000
"1309",55467001,55468000
"1310",55511001,55513000
"1311",55536001,55537000
"1312",55538001,55548000
"1313",55549001,55551000
"1314",55554001,55555000
"1315",55581001,55582000
"1316",55598001,55599000
"1317",55606001,55607000
"1318",55608001,55610000
"1319",55694001,55696000
"1320",55719001,55720000
"1321",55721001,55723000
"1322",55761001,55763000
"1323",55793001,55794000
"1324",55918001,55919000
"1325",55937001,55941000
"1326",56041001,56045000
"1327",56048001,56049000
"1328",56073001,56076000
"1329",56090001,56091000
"1330",56118001,56119000
"1331",56121001,56122000
"1332",56159001,56162000
"1333",56200001,56202000
"1334",56213001,56215000
"1335",56260001,56261000
"1336",56302001,56305000
"1337",56306001,56307000
"1338",56314001,56315000
"1339",56367001,56368000
"1340",56416001,56420000
"1341",56465001,56466000
"1342",56505001,56508000
"1343",56534001,56536000
"1344",56552001,56554000
"1345",56606001,56607000
"1346",56634001,56637000
"1347",56774001,56775000
"1348",56796001,56799000
"1349",56825001,56826000
"1350",56843001,56844000
"1351",56847001,56848000
"1352",56889001,56892000
"1353",56927001,56930000
"1354",56936001,56940000
"1355",56948001,56952000
"1356",56994001,56999000
"1357",57056001,57057000
"1358",57070001,57079000
"1359",57128001,57129000
"1360",57130001,57132000
"1361",57147001,57150000
"1362",57157001,57159000
"1363",57209001,57210000
"1364",57220001,57221000
"1365",57259001,57264000
"1366",57265001,57266000
"1367",57268001,57269000
"1368",57270001,57271000
"1369",57273001,57274000
"1370",57281001,57282000
"1371",57428001,57429000
"1372",57433001,57435000
"1373",57439001,57441000
"1374",57467001,57469000
"1375",57485001,57487000
"1376",57497001,57499000
"1377",57501001,57506000
"1378",57510001,57511000
"1379",57517001,57519000
"1380",57520001,57526000
"1381",57535001,57539000
"1382",57541001,57542000
"1383",57552001,57555000
"1384",57557001,57558000
"1385",57559001,57562000
"1386",57589001,57591000
"1387",57600001,57601000
"1388",57629001,57630000
"1389",57644001,57647000
"1390",57653001,57657000
"1391",57659001,57661000
"1392",57708001,57710000
"1393",57744001,57745000
"1394",57759001,57760000
"1395",57764001,57767000
"1396",57774001,57775000
"1397",57798001,57800000
"1398",57814001,57815000
"1399",57820001,57823000
"1400",57830001,57832000
"1401",57835001,57838000
"1402",57847001,57848000
"1403",57850001,57851000
"1404",57862001,57863000
"1405",57883001,57884000
"1406",57897001,57898000
"1407",57901001,57902000
"1408",57910001,57912000
"1409",57935001,57937000
"1410",57939001,57941000
"1411",57990001,57991000
"1412",57995001,57996000
"1413",57998001,57999000
"1414",58003001,58004000
"1415",58008001,58010000
"1416",58011001,58012000
"1417",58038001,58039000
"1418",58041001,58042000
"1419",58044001,58046000
"1420",58048001,58050000
"1421",58051001,58054000
"1422",58060001,58062000
"1423",58065001,58066000
"1424",58085001,58086000
"1425",58105001,58107000
"1426",58111001,58117000
"1427",58125001,58126000
"1428",58129001,58131000
"1429",58134001,58135000
"1430",58140001,58141000
"1431",58168001,58169000
"1432",58170001,58171000
"1433",58175001,58176000
"1434",58195001,58205000
"1435",58209001,58210000
"1436",58214001,58215000
"1437",58216001,58217000
"1438",58226001,58227000
"1439",58238001,58239000
"1440",58241001,58242000
"1441",58247001,58251000
"1442",58252001,58254000
"1443",58267001,58268000
"1444",58269001,58279000
"1445",58279001,58282000
"1446",58295001,58297000
"1447",58311001,58314000
"1448",58330001,58331000
"1449",58369001,58370000
"1450",58438001,58439000
"1451",58455001,58456000
"1452",58487001,58490000
"1453",58535001,58536000
"1454",58540001,58541000
"1455",58545001,58546000
"1456",58553001,58557000
"1457",58567001,58568000
"1458",58578001,58580000
"1459",58581001,58585000
"1460",58595001,58596000
"1461",58648001,58649000
"1462",58652001,58653000
"1463",58672001,58673000
"1464",58680001,58681000
"1465",58710001,58711000
"1466",58741001,58742000
"1467",58775001,58776000
"1468",58806001,58807000
"1469",58822001,58824000
"1470",58835001,58836000
"1471",58849001,58850000
"1472",58903001,58904000
"1473",58914001,58915000
"1474",58956001,58957000
"1475",58978001,58980000
"1476",59013001,59016000
"1477",59017001,59018000
"1478",59024001,59025000
"1479",59034001,59040000
"1480",59065001,59067000
"1481",59071001,59074000
"1482",59075001,59076000
"1483",59134001,59135000
"1484",59162001,59165000
"1485",59188001,59190000
"1486",59269001,59270000
"1487",59271001,59272000
"1488",59275001,59276000
"1489",59282001,59284000
"1490",59288001,59293000
"1491",59352001,59354000
"1492",59388001,59389000
"1493",59418001,59419000
"1494",59435001,59436000
"1495",59472001,59474000
"1496",59482001,59488000
"1497",59497001,59498000
"1498",59539001,59541000
"1499",59565001,59568000
"1500",59577001,59579000
"1501",59584001,59586000
"1502",59589001,59590000
"1503",59615001,59620000
"1504",59653001,59661000
"1505",59668001,59669000
"1506",59679001,59681000
"1507",59687001,59688000
"1508",59691001,59692000
"1509",59694001,59695000
"1510",59723001,59724000
"1511",59726001,59727000
"1512",59748001,59753000
"1513",59769001,59770000
"1514",59919001,59920000
"1515",59957001,59958000
"1516",59959001,59961000
"1517",59969001,59970000
"1518",59990001,59991000
"1519",60020001,60021000
"1520",60024001,60026000
"1521",60027001,60028000
"1522",60075001,60077000
"1523",60082001,60083000
"1524",60088001,60089000
"1525",60140001,60142000
"1526",60149001,60150000
"1527",60184001,60185000
"1528",60224001,60225000
"1529",60230001,60231000
"1530",60243001,60244000
"1531",60245001,60246000
"1532",60275001,60277000
"1533",60414001,60415000
"1534",60509001,60510000
"1535",60517001,60518000
"1536",60519001,60520000
"1537",60521001,60523000
"1538",60649001,60651000
"1539",60686001,60689000
"1540",60712001,60713000
"1541",60744001,60745000
"1542",60756001,60757000
"1543",60793001,60796000
"1544",60813001,60815000
"1545",60819001,60820000
"1546",60837001,60839000
"1547",60858001,60859000
"1548",60873001,60874000
"1549",60886001,60887000
"1550",60940001,60941000
"1551",60951001,60952000
"1552",61046001,61047000
"1553",61069001,61072000
"1554",61073001,61074000
"1555",61081001,61082000
"1556",61102001,61103000
"1557",61111001,61113000
"1558",61188001,61189000
"1559",61250001,61251000
"1560",61258001,61263000
"1561",61277001,61280000
"1562",61292001,61294000
"1563",61302001,61304000
"1564",61311001,61312000
"1565",61315001,61317000
"1566",61324001,61325000
"1567",61326001,61327000
"1568",61339001,61340000
"1569",61347001,61348000
"1570",61351001,61352000
"1571",61360001,61364000
"1572",61366001,61376000
"1573",61376001,61382000
"1574",61385001,61387000
"1575",61396001,61397000
"1576",61404001,61406000
"1577",61420001,61421000
"1578",61433001,61436000
"1579",61443001,61444000
"1580",61446001,61447000
"1581",61449001,61450000
"1582",61457001,61458000
"1583",61468001,61472000
"1584",61510001,61512000
"1585",61528001,61529000
"1586",61530001,61531000
"1587",61537001,61539000
"1588",61573001,61574000
"1589",61667001,61669000
"1590",61688001,61689000
"1591",61695001,61699000
"1592",61745001,61746000
"1593",61860001,61861000
"1594",61872001,61873000
"1595",61879001,61880000
"1596",61898001,61901000
"1597",61909001,61916000
"1598",61945001,61949000
"1599",61965001,61966000
"1600",62026001,62028000
"1601",62035001,62036000
"1602",62040001,62041000
"1603",62106001,62107000
"1604",62118001,62125000
"1605",62143001,62144000
"1606",62166001,62167000
"1607",62181001,62182000
"1608",62202001,62203000
"1609",62222001,62223000
"1610",62237001,62238000
"1611",62244001,62245000
"1612",62287001,62288000
"1613",62295001,62296000
"1614",62338001,62347000
"1615",62348001,62349000
"1616",62363001,62365000
"1617",62373001,62374000
"1618",62381001,62382000
"1619",62415001,62416000
"1620",62435001,62437000
"1621",62438001,62439000
"1622",62469001,62471000
"1623",62477001,62478000
"1624",62497001,62498000
"1625",62531001,62533000
"1626",62535001,62538000
"1627",62541001,62542000
"1628",62549001,62551000
"1629",62553001,62554000
"1630",62555001,62556000
"1631",62622001,62623000
"1632",62744001,62745000
"1633",62777001,62778000
"1634",62783001,62784000
"1635",62790001,62791000
"1636",62810001,62814000
"1637",62818001,62819000
"1638",62825001,62831000
"1639",62836001,62837000
"1640",62838001,62840000
"1641",62847001,62848000
"1642",62858001,62859000
"1643",62871001,62872000
"1644",62901001,62902000
"1645",62936001,62937000
"1646",62978001,62984000
"1647",63051001,63052000
"1648",63058001,63060000
"1649",63074001,63075000
"1650",63091001,63093000
"1651",63108001,63111000
"1652",63123001,63125000
"1653",63131001,63141000
"1654",63141001,63151000
"1655",63151001,63152000
"1656",63182001,63183000
"1657",63187001,63188000
"1658",63195001,63199000
"1659",63293001,63295000
"1660",63376001,63380000
"1661",63392001,63393000
"1662",63394001,63395000
"1663",63397001,63403000
"1664",63420001,63422000
"1665",63462001,63464000
"1666",63497001,63498000
"1667",63530001,63536000
"1668",63557001,63558000
"1669",63570001,63571000
"1670",63601001,63604000
"1671",63613001,63614000
"1672",63696001,63698000
"1673",63705001,63706000
"1674",63716001,63717000
"1675",63750001,63751000
"1676",63755001,63760000
"1677",63782001,63784000
"1678",63785001,63788000
"1679",63803001,63805000
"1680",63837001,63838000
"1681",63844001,63845000
"1682",63849001,63850000
"1683",63862001,63863000
"1684",63875001,63878000
"1685",63879001,63882000
"1686",63883001,63884000
"1687",63909001,63910000
"1688",63918001,63919000
"1689",63953001,63954000
"1690",63956001,63957000
"1691",63958001,63961000
"1692",63980001,63981000
"1693",64015001,64024000
"1694",64025001,64026000
"1695",64049001,64051000
"1696",64060001,64061000
"1697",64084001,64086000
"1698",64087001,64088000
"1699",64100001,64101000
"1700",64120001,64122000
"1701",64139001,64140000
"1702",64171001,64180000
"1703",64184001,64185000
"1704",64220001,64221000
"1705",64232001,64234000
"1706",64240001,64241000
"1707",64242001,64244000
"1708",64252001,64256000
"1709",64258001,64259000
"1710",64267001,64269000
"1711",64272001,64275000
"1712",64277001,64278000
"1713",64280001,64284000
"1714",64304001,64305000
"1715",64306001,64307000
"1716",64313001,64314000
"1717",64315001,64317000
"1718",64339001,64343000
"1719",64347001,64350000
"1720",64351001,64352000
"1721",64385001,64387000
"1722",64390001,64391000
"1723",64394001,64395000
"1724",64473001,64474000
"1725",64488001,64490000
"1726",64507001,64509000
"1727",64520001,64521000
"1728",64529001,64530000
"1729",64533001,64534000
"1730",64565001,64566000
"1731",64594001,64595000
"1732",64613001,64614000
"1733",64624001,64625000
"1734",64639001,64640000
"1735",64658001,64659000
"1736",64668001,64670000
"1737",64672001,64673000
"1738",64687001,64688000
"1739",64714001,64716000
"1740",64719001,64720000
"1741",64735001,64740000
"1742",64769001,64770000
"1743",64774001,64775000
"1744",64779001,64780000
"1745",64785001,64786000
"1746",64810001,64814000
"1747",64815001,64816000
"1748",64822001,64823000
"1749",64903001,64904000
"1750",64917001,64920000
"1751",64934001,64935000
"1752",64936001,64937000
"1753",64945001,64946000
"1754",64956001,64957000
"1755",64958001,64962000
"1756",64991001,64992000
"1757",65018001,65019000
"1758",65020001,65023000
"1759",65031001,65034000
"1760",65100001,65105000
"1761",65108001,65111000
"1762",65121001,65122000
"1763",65123001,65125000
"1764",65128001,65130000
"1765",65133001,65135000
"1766",65137001,65138000
"1767",65139001,65144000
"1768",65145001,65147000
"1769",65150001,65158000
"1770",65160001,65166000
"1771",65167001,65171000
"1772",65172001,65173000
"1773",65174001,65182000
"1774",65186001,65196000
"1775",65196001,65203000
"1776",65205001,65206000
"1777",65212001,65219000
"1778",65225001,65227000
"1779",65257001,65258000
"1780",65268001,65269000
"1781",65283001,65284000
"1782",65292001,65296000
"1783",65311001,65313000
"1784",65345001,65348000
"1785",65360001,65362000
"1786",65363001,65365000
"1787",65367001,65368000
"1788",65385001,65387000
"1789",65391001,65392000
"1790",65393001,65394000
"1791",65397001,65400000
"1792",65430001,65431000
"1793",65432001,65433000
"1794",65434001,65437000
"1795",65459001,65463000
"1796",65520001,65521000
"1797",65523001,65525000
"1798",65575001,65576000
"1799",65579001,65582000
"1800",65583001,65584000
"1801",65585001,65589000
"1802",65598001,65602000
"1803",65603001,65607000
"1804",65612001,65613000
"1805",65618001,65619000
"1806",65628001,65633000
"1807",65635001,65636000
"1808",65638001,65639000
"1809",65640001,65644000
"1810",65663001,65665000
"1811",65666001,65668000
"1812",65675001,65680000
"1813",65681001,65683000
"1814",65691001,65692000
"1815",65721001,65722000
"1816",65724001,65727000
"1817",65744001,65746000
"1818",65756001,65757000
"1819",65761001,65762000
"1820",65771001,65772000
"1821",65773001,65774000
"1822",65775001,65780000
"1823",65784001,65785000
"1824",65787001,65788000
"1825",65792001,65793000
"1826",65824001,65834000
"1827",65834001,65836000
"1828",65843001,65844000
"1829",65850001,65851000
"1830",65882001,65883000
"1831",65884001,65892000
"1832",65897001,65898000
"1833",65899001,65900000
"1834",65907001,65912000
"1835",65913001,65914000
"1836",66004001,66005000
"1837",66059001,66062000
"1838",66067001,66070000
"1839",66121001,66122000
"1840",66124001,66129000
"1841",66136001,66137000
"1842",66144001,66145000
"1843",66158001,66159000
"1844",66170001,66172000
"1845",66186001,66187000
"1846",66275001,66277000
"1847",66284001,66285000
"1848",66349001,66354000
"1849",66370001,66371000
"1850",66380001,66381000
"1851",66396001,66397000
"1852",66406001,66407000
"1853",66465001,66466000
"1854",66506001,66507000
"1855",66510001,66515000
"1856",66568001,66569000
"1857",66584001,66585000
"1858",66587001,66589000
"1859",66590001,66594000
"1860",66596001,66597000
"1861",66598001,66600000
"1862",66611001,66612000
"1863",66631001,66632000
"1864",66640001,66641000
"1865",66646001,66647000
"1866",66705001,66706000
"1867",66713001,66714000
"1868",66787001,66789000
"1869",66794001,66797000
"1870",66809001,66810000
"1871",66826001,66827000
"1872",66830001,66831000
"1873",66834001,66837000
"1874",66850001,66852000
"1875",66918001,66922000
"1876",66933001,66935000
"1877",66938001,66940000
"1878",66943001,66944000
"1879",66945001,66948000
"1880",66952001,66953000
"1881",66974001,66976000
"1882",66980001,66981000
"1883",67000001,67003000
"1884",67040001,67050000
"1885",67050001,67051000
"1886",67105001,67109000
"1887",67112001,67113000
"1888",67208001,67210000
"1889",67213001,67214000
"1890",67315001,67316000
"1891",67400001,67401000
"1892",67541001,67542000
"1893",67549001,67551000
"1894",67617001,67618000
"1895",67629001,67630000
"1896",67632001,67635000
"1897",67683001,67684000
"1898",67711001,67712000
"1899",67718001,67719000
"1900",67735001,67736000
"1901",67758001,67762000
"1902",67767001,67768000
"1903",67802001,67803000
"1904",67807001,67808000
"1905",67828001,67829000
"1906",67830001,67833000
"1907",67839001,67841000
"1908",67877001,67878000
"1909",67879001,67880000
"1910",67900001,67902000
"1911",67955001,67956000
"1912",67973001,67974000
"1913",68015001,68017000
"1914",68652001,68656000
"1915",68689001,68690000
"1916",68717001,68718000
"1917",68947001,68949000
"1918",68957001,68958000
"1919",69121001,69122000
"1920",69125001,69126000
"1921",69141001,69143000
"1922",69232001,69233000
"1923",69289001,69292000
"1924",69296001,69297000
"1925",69358001,69359000
"1926",69396001,69399000
"1927",69419001,69420000
"1928",69431001,69433000
"1929",69453001,69456000
"1930",69464001,69465000
"1931",69467001,69470000
"1932",69480001,69481000
"1933",69489001,69490000
"1934",69502001,69504000
"1935",69505001,69507000
"1936",69552001,69554000
"1937",69567001,69570000
"1938",69573001,69575000
"1939",69623001,69625000
"1940",69662001,69663000
"1941",69669001,69672000
"1942",69681001,69683000
"1943",69687001,69688000
"1944",69712001,69720000
"1945",69753001,69763000
"1946",69763001,69771000
"1947",69773001,69774000
"1948",69790001,69791000
"1949",69802001,69803000
"1950",69899001,69900000
"1951",69934001,69935000
"1952",69949001,69950000
"1953",69987001,69991000
"1954",70011001,70016000
"1955",70019001,70020000
"1956",70022001,70024000
"1957",70048001,70049000
"1958",70053001,70054000
"1959",70077001,70078000
"1960",70081001,70082000
"1961",70083001,70085000
"1962",70086001,70088000
"1963",70109001,70110000
"1964",70140001,70143000
"1965",70175001,70176000
"1966",70197001,70198000
"1967",70202001,70210000
"1968",70257001,70258000
"1969",70260001,70261000
"1970",70297001,70299000
"1971",70392001,70394000
"1972",70420001,70424000
"1973",70445001,70446000
"1974",70477001,70478000
"1975",70484001,70485000
"1976",70487001,70488000
"1977",70491001,70492000
"1978",70502001,70506000
"1979",70535001,70537000
"1980",70538001,70539000
"1981",70540001,70546000
"1982",70547001,70548000
"1983",70572001,70573000
"1984",70655001,70659000
"1985",70668001,70669000
"1986",70677001,70683000
"1987",70692001,70693000
"1988",70728001,70731000
"1989",70742001,70743000
"1990",70750001,70751000
"1991",70794001,70796000
"1992",70817001,70819000
"1993",70848001,70849000
"1994",70859001,70861000
"1995",70862001,70865000
"1996",70930001,70931000
"1997",71092001,71093000
"1998",71126001,71127000
"1999",71129001,71130000
"2000",71151001,71152000
"2001",71188001,71190000
"2002",71211001,71212000
"2003",71215001,71219000
"2004",71227001,71228000
"2005",71231001,71232000
"2006",71241001,71242000
"2007",71320001,71321000
"2008",71359001,71360000
"2009",71447001,71448000
"2010",71476001,71478000
"2011",71484001,71488000
"2012",71490001,71494000
"2013",71527001,71528000
"2014",71543001,71545000
"2015",71592001,71593000
"2016",71614001,71617000
"2017",71624001,71625000
"2018",71646001,71647000
"2019",71763001,71764000
"2020",71770001,71773000
"2021",71806001,71807000
"2022",71808001,71809000
"2023",71831001,71833000
"2024",71835001,71836000
"2025",71839001,71840000
"2026",71862001,71863000
"2027",71878001,71883000
"2028",71895001,71900000
"2029",71915001,71918000
"2030",71973001,71979000
"2031",72001001,72002000
"2032",72012001,72013000
"2033",72018001,72019000
"2034",72029001,72030000
"2035",72066001,72067000
"2036",72084001,72085000
"2037",72086001,72087000
"2038",72090001,72091000
"2039",72094001,72095000
"2040",72103001,72104000
"2041",72109001,72115000
"2042",72116001,72117000
"2043",72132001,72135000
"2044",72154001,72157000
"2045",72168001,72171000
"2046",72192001,72193000
"2047",72273001,72277000
"2048",72278001,72280000
"2049",72288001,72289000
"2050",72294001,72295000
"2051",72297001,72298000
"2052",72305001,72306000
"2053",72319001,72321000
"2054",72328001,72329000
"2055",72333001,72335000
"2056",72339001,72342000
"2057",72349001,72350000
"2058",72351001,72352000
"2059",72353001,72354000
"2060",72357001,72358000
"2061",72374001,72375000
"2062",72389001,72390000
"2063",72407001,72409000
"2064",72435001,72436000
"2065",72437001,72440000
"2066",72448001,72452000
"2067",72458001,72459000
"2068",72491001,72494000
"2069",72512001,72513000
"2070",72520001,72521000
"2071",72529001,72539000
"2072",72549001,72550000
"2073",72553001,72554000
"2074",72556001,72557000
"2075",72558001,72559000
"2076",72564001,72565000
"2077",72567001,72568000
"2078",72575001,72576000
"2079",72577001,72582000
"2080",72595001,72596000
"2081",72604001,72605000
"2082",72613001,72615000
"2083",72625001,72626000
"2084",72628001,72629000
"2085",72633001,72642000
"2086",72644001,72645000
"2087",72653001,72654000
"2088",72655001,72656000
"2089",72657001,72667000
"2090",72667001,72670000
"2091",72671001,72677000
"2092",72679001,72681000
"2093",72691001,72693000
"2094",72696001,72697000
"2095",72699001,72700000
"2096",72701001,72702000
"2097",72706001,72707000
"2098",72709001,72713000
"2099",72714001,72715000
"2100",72717001,72718000
"2101",72723001,72726000
"2102",72732001,72737000
"2103",72749001,72752000
"2104",72759001,72760000
"2105",72766001,72768000
"2106",72779001,72782000
"2107",72788001,72793000
"2108",72795001,72798000
"2109",72802001,72812000
"2110",72812001,72815000
"2111",72816001,72817000
"2112",72821001,72822000
"2113",72825001,72826000
"2114",72827001,72828000
"2115",72829001,72830000
"2116",72833001,72836000
"2117",72839001,72840000
"2118",72841001,72842000
"2119",72847001,72848000
"2120",72852001,72853000
"2121",72854001,72855000
"2122",72856001,72857000
"2123",72861001,72862000
"2124",72863001,72869000
"2125",72870001,72875000
"2126",72876001,72885000
"2127",72889001,72890000
"2128",72894001,72895000
"2129",72907001,72908000
"2130",72911001,72912000
"2131",72918001,72919000
"2132",72922001,72927000
"2133",72935001,72936000
"2134",72954001,72956000
"2135",72958001,72959000
"2136",72968001,72969000
"2137",72984001,72988000
"2138",73026001,73027000
"2139",73038001,73041000
"2140",73044001,73046000
"2141",73048001,73049000
"2142",73063001,73064000
"2143",73066001,73069000
"2144",73070001,73072000
"2145",73086001,73087000
"2146",73091001,73092000
"2147",73094001,73096000
"2148",73112001,73114000
"2149",73159001,73160000
"2150",73162001,73164000
"2151",73185001,73186000
"2152",73192001,73193000
"2153",73657001,73660000
"2154",73780001,73781000
"2155",73970001,73971000
"2156",73983001,73984000
"2157",74028001,74029000
"2158",74141001,74144000
"2159",74160001,74161000
"2160",74187001,74188000
"2161",74198001,74199000
"2162",74247001,74251000
"2163",74275001,74283000
"2164",74285001,74287000
"2165",74331001,74332000
"2166",74348001,74350000
"2167",74530001,74533000
"2168",74592001,74593000
"2169",74706001,74708000
"2170",74846001,74851000
"2171",74852001,74862000
"2172",74862001,74865000
"2173",74866001,74872000
"2174",74896001,74897000
"2175",74904001,74906000
"2176",74922001,74923000
"2177",74924001,74926000
"2178",74951001,74955000
"2179",74961001,74962000
"2180",74974001,74978000
"2181",74998001,74999000
"2182",75016001,75017000
"2183",75036001,75039000
"2184",75050001,75051000
"2185",75070001,75073000
"2186",75076001,75077000
"2187",75085001,75086000
"2188",75094001,75095000
"2189",75119001,75120000
"2190",75168001,75169000
"2191",75231001,75233000
"2192",75261001,75262000
"2193",75282001,75284000
"2194",75299001,75300000
"2195",75303001,75305000
"2196",75312001,75316000
"2197",75353001,75354000
"2198",75361001,75362000
"2199",75376001,75377000
"2200",75383001,75388000
"2201",75398001,75399000
"2202",75407001,75412000
"2203",75414001,75415000
"2204",75423001,75426000
"2205",75431001,75432000
"2206",75433001,75439000
"2207",75440001,75443000
"2208",75468001,75469000
"2209",75479001,75480000
"2210",75515001,75516000
"2211",75558001,75561000
"2212",75582001,75583000
"2213",75610001,75612000
"2214",75625001,75627000
"2215",75683001,75685000
"2216",75719001,75721000
"2217",75760001,75761000
"2218",75762001,75763000
"2219",75802001,75803000
"2220",75848001,75849000
"2221",75899001,75900000
"2222",75905001,75906000
"2223",75915001,75917000
"2224",75960001,75961000
"2225",76014001,76016000
"2226",76236001,76238000
"2227",76323001,76324000
"2228",76385001,76386000
"2229",76391001,76392000
"2230",76566001,76568000
"2231",76572001,76573000
"2232",76661001,76662000
"2233",77374001,77375000
"2234",77381001,77382000
"2235",77398001,77399000
"2236",77407001,77408000
"2237",77427001,77429000
"2238",77481001,77482000
"2239",77496001,77498000
"2240",77500001,77504000
"2241",77512001,77513000
"2242",77543001,77547000
"2243",77596001,77597000
"2244",77616001,77617000
"2245",77620001,77622000
"2246",77623001,77624000
"2247",77654001,77657000
"2248",77749001,77757000
"2249",77771001,77772000
"2250",77806001,77808000
"2251",77825001,77827000
"2252",77908001,77913000
"2253",77915001,77919000
"2254",77955001,77956000
"2255",78006001,78007000
"2256",78021001,78022000
"2257",78024001,78026000
"2258",78039001,78040000
"2259",78046001,78048000
"2260",78051001,78052000
"2261",78078001,78079000
"2262",78107001,78111000
"2263",78112001,78115000
"2264",78171001,78179000
"2265",78186001,78187000
"2266",78190001,78196000
"2267",78340001,78341000
"2268",78358001,78361000
"2269",78364001,78366000
"2270",78368001,78370000
"2271",78371001,78372000
"2272",78374001,78376000
"2273",78386001,78387000
"2274",78395001,78397000
"2275",78442001,78445000
"2276",78446001,78450000
"2277",78472001,78482000
"2278",78482001,78484000
"2279",78485001,78487000
"2280",78488001,78490000
"2281",78502001,78507000
"2282",78518001,78523000
"2283",78525001,78529000
"2284",78538001,78539000
"2285",78553001,78554000
"2286",78587001,78589000
"2287",78597001,78598000
"2288",78615001,78617000
"2289",78630001,78631000
"2290",78646001,78647000
"2291",78769001,78770000
"2292",78775001,78776000
"2293",78788001,78789000
"2294",78880001,78882000
"2295",78923001,78924000
"2296",78984001,78987000
"2297",79044001,79046000
"2298",79454001,79456000
"2299",79529001,79531000
"2300",79598001,79599000
"2301",79605001,79607000
"2302",79685001,79687000
"2303",79688001,79692000
"2304",79696001,79697000
"2305",79713001,79720000
"2306",79721001,79722000
"2307",79723001,79724000
"2308",79745001,79746000
"2309",79758001,79762000
"2310",79788001,79789000
"2311",79791001,79795000
"2312",79806001,79809000
"2313",79823001,79826000
"2314",79830001,79832000
"2315",79870001,79877000
"2316",79884001,79885000
"2317",79889001,79892000
"2318",79914001,79915000
"2319",79918001,79919000
"2320",79976001,79978000
"2321",79993001,79994000
"2322",80001001,80004000
"2323",80026001,80027000
"2324",80039001,80040000
"2325",80065001,80071000
"2326",80073001,80078000
"2327",80087001,80088000
"2328",80096001,80098000
"2329",80113001,80114000
"2330",80139001,80140000
"2331",80146001,80147000
"2332",80155001,80156000
"2333",80163001,80167000
"2334",80172001,80174000
"2335",80186001,80187000
"2336",80188001,80189000
"2337",80209001,80210000
"2338",80227001,80228000
"2339",80293001,80294000
"2340",80332001,80333000
"2341",80386001,80387000
"2342",80391001,80392000
"2343",80615001,80616000
"2344",80943001,80944000
"2345",81627001,81628000
"2346",81632001,81635000
"2347",81863001,81865000
"2348",82218001,82219000
"2349",82709001,82710000
"2350",82807001,82808000
"2351",82814001,82815000
"2352",82827001,82828000
"2353",82829001,82832000
"2354",82854001,82855000
"2355",82863001,82864000
"2356",82866001,82867000
"2357",82885001,82886000
"2358",82887001,82890000
"2359",82904001,82905000
"2360",82906001,82907000
"2361",82913001,82915000
"2362",82921001,82922000
"2363",82925001,82926000
"2364",82963001,82964000
"2365",82970001,82979000
"2366",83145001,83148000
"2367",83326001,83327000
"2368",83350001,83351000
"2369",83368001,83369000
"2370",83370001,83372000
"2371",83382001,83383000
"2372",83440001,83443000
"2373",83447001,83449000
"2374",83482001,83483000
"2375",83486001,83487000
"2376",83537001,83539000
"2377",83547001,83550000
"2378",83569001,83570000
"2379",83576001,83577000
"2380",83605001,83607000
"2381",83610001,83611000
"2382",83613001,83614000
"2383",83629001,83630000
"2384",83636001,83637000
"2385",83652001,83653000
"2386",83657001,83658000
"2387",83664001,83665000
"2388",83686001,83687000
"2389",83691001,83693000
"2390",83726001,83728000
"2391",83805001,83808000
"2392",83831001,83836000
"2393",83924001,83926000
"2394",83957001,83958000
"2395",84019001,84020000
"2396",84253001,84254000
"2397",84343001,84344000
"2398",84408001,84409000
"2399",84466001,84467000
"2400",85156001,85158000
"2401",85325001,85329000
"2402",85485001,85487000
"2403",85496001,85498000
"2404",85685001,85686000
"2405",85748001,85751000
"2406",85779001,85780000
"2407",85841001,85845000
"2408",86089001,86091000
"2409",86187001,86188000
"2410",86265001,86268000
"2411",86281001,86282000
"2412",86449001,86452000
"2413",86463001,86469000
"2414",86571001,86574000
"2415",86593001,86594000
"2416",86695001,86697000
"2417",86726001,86727000
"2418",86743001,86744000
"2419",86746001,86747000
"2420",86800001,86801000
"2421",86878001,86882000
"2422",86987001,86988000
"2423",87015001,87016000
"2424",87020001,87023000
"2425",87027001,87028000
"2426",87115001,87116000
"2427",87144001,87145000
"2428",87248001,87249000
"2429",87254001,87257000
"2430",87419001,87420000
"2431",87425001,87426000
"2432",87432001,87433000
"2433",87725001,87735000
"2434",87736001,87741000
"2435",88064001,88065000
"2436",88073001,88074000
"2437",88222001,88223000
"2438",88237001,88238000
"2439",88241001,88242000
"2440",88319001,88320000
"2441",88327001,88329000
"2442",88332001,88333000
"2443",88362001,88363000
"2444",88398001,88399000
"2445",88437001,88443000
"2446",88447001,88453000
"2447",88454001,88458000
"2448",88459001,88460000
"2449",88461001,88463000
"2450",88464001,88465000
"2451",88473001,88474000
"2452",88475001,88476000
"2453",88478001,88486000
"2454",88487001,88488000
"2455",88518001,88524000
"2456",88546001,88550000
"2457",88720001,88721000
"2458",88859001,88860000
"2459",89210001,89212000
"2460",89286001,89287000
"2461",89461001,89462000
"2462",89497001,89498000
"2463",89622001,89624000
"2464",89674001,89675000
"2465",89679001,89680000
"2466",89704001,89708000
"2467",89793001,89794000
"2468",89826001,89828000
"2469",89879001,89880000
"2470",89882001,89884000
"2471",89908001,89911000
"2472",89973001,89975000
"2473",90054001,90055000
"2474",90077001,90078000
"2475",90088001,90090000
"2476",90100001,90101000
"2477",90112001,90118000
"2478",90124001,90128000
"2479",90162001,90164000
"2480",90206001,90207000
"2481",90270001,90272000
"2482",90447001,90448000
"2483",90691001,90692000
"2484",90693001,90694000
"2485",90699001,90703000
"2486",90704001,90705000
"2487",90834001,90835000
"2488",90837001,90840000
"2489",91228001,91229000
"2490",91349001,91359000
"2491",91359001,91369000
"2492",91373001,91374000
"2493",91375001,91376000
"2494",91377001,91387000
"2495",91387001,91391000
"2496",91392001,91393000
"2497",91403001,91410000
"2498",91411001,91412000
"2499",91414001,91415000
"2500",91420001,91422000
"2501",91567001,91568000
"2502",92147001,92148000
"2503",92173001,92175000
"2504",92178001,92180000
"2505",92249001,92252000
"2506",92317001,92318000
"2507",92360001,92361000
"2508",92499001,92501000
"2509",92541001,92544000
"2510",92610001,92612000
"2511",92616001,92617000
"2512",92878001,92879000
"2513",92930001,92931000
"2514",93459001,93460000
"2515",93524001,93526000
"2516",94035001,94036000
"2517",94377001,94380000
"2518",94410001,94411000
"2519",94455001,94457000
"2520",94533001,94534000
"2521",94535001,94541000
"2522",94669001,94671000
"2523",94727001,94728000
"2524",94738001,94740000
"2525",95073001,95074000
"2526",95327001,95328000
"2527",95405001,95409000
"2528",95473001,95474000
"2529",95493001,95494000
"2530",95497001,95498000
"2531",95510001,95513000
"2532",95521001,95522000
"2533",95534001,95535000
"2534",95558001,95561000
"2535",95581001,95583000
"2536",95613001,95615000
"2537",95636001,95639000
"2538",95640001,95641000
"2539",95749001,95752000
"2540",95814001,95815000
"2541",95844001,95846000
"2542",95852001,95855000
"2543",95856001,95859000
"2544",95951001,95952000
"2545",95953001,95958000
"2546",95993001,95994000
"2547",96117001,96121000
"2548",96128001,96129000
"2549",96139001,96141000
"2550",96163001,96164000
"2551",96166001,96168000
"2552",96194001,96199000
"2553",96218001,96221000
"2554",96229001,96231000
"2555",96234001,96240000
"2556",96241001,96242000
"2557",96257001,96262000
"2558",96266001,96267000
"2559",96291001,96292000
"2560",96308001,96310000
"2561",96324001,96325000
"2562",96350001,96351000
"2563",96362001,96366000
"2564",96398001,96400000
"2565",96437001,96439000
"2566",96477001,96481000
"2567",96491001,96494000
"2568",96506001,96507000
"2569",96530001,96531000
"2570",96536001,96538000
"2571",96539001,96540000
"2572",96544001,96545000
"2573",96573001,96574000
"2574",96603001,96604000
"2575",96629001,96633000
"2576",96668001,96671000
"2577",96675001,96676000
"2578",96690001,96691000
"2579",96713001,96717000
"2580",96718001,96721000
"2581",96726001,96727000
"2582",96730001,96731000
"2583",96732001,96733000
"2584",96736001,96737000
"2585",96752001,96753000
"2586",96759001,96760000
"2587",96783001,96784000
"2588",96790001,96791000
"2589",96795001,96797000
"2590",96799001,96802000
"2591",96818001,96819000
"2592",96833001,96834000
"2593",96888001,96894000
"2594",96914001,96915000
"2595",96916001,96918000
"2596",96935001,96936000
"2597",96957001,96960000
"2598",96961001,96962000
"2599",96963001,96964000
"2600",96977001,96985000
"2601",96986001,96994000
"2602",97003001,97004000
"2603",97005001,97006000
"2604",97011001,97021000
"2605",97024001,97027000
"2606",97049001,97052000
"2607",97056001,97057000
"2608",97063001,97071000
"2609",97074001,97075000
"2610",97099001,97100000
"2611",97102001,97106000
"2612",97109001,97115000
"2613",97125001,97126000
"2614",97162001,97163000
"2615",97172001,97173000
"2616",97284001,97285000
"2617",97289001,97290000
"2618",97297001,97298000
"2619",97477001,97478000
"2620",97671001,97673000
"2621",97729001,97730000
"2622",97816001,97817000
"2623",97889001,97891000
"2624",97892001,97893000
"2625",98030001,98035000
"2626",98296001,98297000
"2627",98409001,98410000
"2628",98420001,98421000
"2629",98423001,98431000
"2630",98433001,98435000
"2631",98449001,98451000
"2632",98471001,98472000
"2633",98497001,98500000
"2634",98501001,98502000
"2635",98535001,98536000
"2636",98538001,98540000
"2637",98563001,98565000
"2638",98601001,98603000
"2639",98614001,98615000
"2640",98864001,98865000
"2641",98939001,98940000
"2642",98952001,98959000
"2643",98962001,98963000
"2644",98973001,98975000
"2645",98978001,98981000
"2646",98985001,98988000
"2647",99062001,99063000
"2648",99064001,99065000
"2649",99086001,99088000
"2650",99138001,99142000
"2651",99146001,99147000
"2652",99152001,99154000
"2653",99163001,99164000
"2654",99218001,99219000
"2655",99241001,99246000
"2656",99256001,99257000
"2657",99358001,99359000
"2658",99376001,99377000
"2659",99435001,99438000
"2660",99446001,99447000
"2661",99450001,99452000
"2662",99551001,99552000
"2663",99564001,99565000
"2664",99567001,99571000
"2665",99574001,99577000
"2666",99587001,99589000
"2667",99629001,99633000
"2668",99662001,99663000
"2669",99695001,99696000
"2670",99729001,99731000
"2671",99770001,99771000
"2672",99797001,99801000
"2673",99846001,99848000
"2674",99867001,99877000
"2675",99877001,99878000
"2676",99992001,99996000
"2677",100267001,100268000
"2678",100271001,100274000
"2679",100300001,100302000
"2680",100382001,100383000
"2681",100394001,100396000
"2682",100400001,100401000
"2683",100413001,100414000
"2684",100440001,100441000
"2685",100446001,100447000
"2686",100454001,100455000
"2687",100500001,100501000
"2688",100508001,100509000
"2689",100512001,100513000
"2690",100520001,100521000
"2691",100539001,100540000
"2692",100542001,100543000
"2693",100544001,100549000
"2694",100570001,100573000
"2695",100580001,100583000
"2696",100596001,100597000
"2697",100606001,100607000
"2698",100640001,100647000
"2699",100678001,100679000
"2700",100683001,100688000
"2701",100725001,100726000
"2702",100736001,100737000
"2703",100751001,100752000
"2704",100756001,100757000
"2705",100758001,100759000
"2706",100769001,100770000
"2707",100782001,100783000
"2708",100828001,100830000
"2709",100857001,100858000
"2710",100888001,100889000
"2711",100917001,100918000
"2712",100944001,100945000
"2713",100960001,100961000
"2714",100963001,100964000
"2715",100969001,100970000
"2716",101012001,101013000
"2717",101018001,101019000
"2718",101034001,101036000
"2719",101041001,101042000
"2720",101046001,101047000
"2721",101062001,101063000
"2722",101069001,101078000
"2723",101080001,101081000
"2724",101084001,101085000
"2725",101097001,101098000
"2726",101105001,101106000
"2727",101137001,101138000
"2728",101159001,101160000
"2729",101182001,101183000
"2730",101250001,101255000
"2731",101314001,101315000
"2732",101402001,101403000
"2733",101425001,101427000
"2734",101471001,101473000
"2735",101641001,101642000
"2736",101690001,101691000
"2737",101730001,101731000
"2738",101733001,101734000
"2739",101823001,101824000
"2740",102069001,102070000
"2741",102183001,102184000
"2742",102205001,102206000
"2743",102211001,102214000
"2744",102240001,102241000
"2745",102261001,102264000
"2746",102267001,102268000
"2747",102352001,102356000
"2748",102388001,102389000
"2749",102420001,102421000
"2750",102423001,102425000
"2751",102506001,102507000
"2752",102528001,102529000
"2753",102531001,102532000
"2754",102544001,102546000
"2755",102622001,102623000
"2756",102625001,102628000
"2757",102633001,102634000
"2758",102636001,102638000
"2759",102643001,102645000
"2760",102649001,102651000
"2761",102660001,102661000
"2762",102665001,102669000
"2763",102689001,102694000
"2764",102714001,102720000
"2765",102724001,102727000
"2766",102733001,102734000
"2767",102779001,102780000
"2768",102784001,102785000
"2769",102792001,102793000
"2770",102829001,102830000
"2771",102834001,102837000
"2772",102867001,102868000
"2773",102925001,102926000
"2774",102930001,102931000
"2775",102934001,102935000
"2776",102949001,102950000
"2777",102961001,102962000
"2778",102973001,102974000
"2779",103000001,103001000
"2780",103007001,103009000
"2781",103013001,103014000
"2782",103028001,103029000
"2783",103092001,103093000
"2784",103108001,103110000
"2785",103111001,103113000
"2786",103146001,103147000
"2787",103175001,103176000
"2788",103181001,103182000
"2789",103196001,103197000
"2790",103201001,103203000
"2791",103207001,103209000
"2792",103302001,103307000
"2793",103346001,103347000
"2794",103349001,103353000
"2795",103362001,103368000
"2796",103372001,103374000
"2797",103385001,103386000
"2798",103490001,103491000
"2799",103494001,103495000
"2800",103502001,103503000
"2801",103504001,103505000
"2802",103514001,103515000
"2803",103524001,103526000
"2804",103536001,103537000
"2805",103551001,103552000
"2806",103563001,103565000
"2807",103574001,103576000
"2808",103595001,103596000
"2809",103624001,103625000
"2810",103629001,103630000
"2811",103651001,103652000
"2812",103654001,103655000
"2813",103759001,103763000
"2814",103996001,103997000
"2815",104001001,104004000
"2816",104035001,104036000
"2817",104063001,104065000
"2818",104079001,104080000
"2819",104099001,104100000
"2820",104103001,104104000
"2821",104128001,104129000
"2822",104134001,104135000
"2823",104184001,104185000
"2824",104202001,104203000
"2825",104261001,104264000
"2826",104269001,104270000
"2827",104277001,104278000
"2828",104306001,104308000
"2829",104315001,104316000
"2830",104337001,104338000
"2831",104355001,104357000
"2832",104373001,104374000
"2833",104379001,104380000
"2834",104407001,104411000
"2835",104569001,104570000
"2836",104574001,104575000
"2837",104646001,104647000
"2838",105052001,105054000
"2839",105131001,105133000
"2840",105389001,105390000
"2841",105394001,105396000
"2842",105446001,105448000
"2843",105462001,105463000
"2844",105493001,105497000
"2845",105523001,105524000
"2846",105525001,105526000
"2847",105544001,105545000
"2848",105548001,105549000
"2849",105552001,105555000
"2850",105617001,105618000
"2851",105639001,105640000
"2852",105641001,105644000
"2853",105693001,105695000
"2854",105857001,105859000
"2855",105915001,105916000
"2856",106036001,106037000
"2857",106038001,106041000
"2858",106065001,106066000
"2859",106080001,106081000
"2860",106100001,106103000
"2861",106104001,106105000
"2862",106112001,106114000
"2863",106116001,106117000
"2864",106123001,106124000
"2865",106126001,106128000
"2866",106137001,106139000
"2867",106141001,106142000
"2868",106148001,106150000
"2869",106156001,106157000
"2870",106159001,106162000
"2871",106166001,106168000
"2872",106169001,106174000
"2873",106198001,106200000
"2874",106202001,106204000
"2875",106211001,106213000
"2876",106226001,106227000
"2877",106247001,106249000
"2878",106268001,106271000
"2879",106279001,106283000
"2880",106306001,106308000
"2881",106338001,106339000
"2882",106367001,106370000
"2883",106418001,106419000
"2884",106420001,106423000
"2885",106428001,106431000
"2886",106433001,106434000
"2887",106437001,106439000
"2888",106446001,106450000
"2889",106452001,106458000
"2890",106464001,106468000
"2891",106472001,106473000
"2892",106474001,106479000
"2893",106532001,106533000
"2894",106566001,106567000
"2895",106600001,106601000
"2896",106643001,106644000
"2897",106656001,106657000
"2898",106659001,106661000
"2899",106675001,106676000
"2900",106684001,106688000
"2901",106740001,106741000
"2902",106788001,106790000
"2903",106819001,106820000
"2904",106821001,106824000
"2905",106879001,106881000
"2906",106884001,106889000
"2907",106891001,106894000
"2908",106966001,106967000
"2909",107083001,107084000
"2910",107230001,107233000
"2911",107280001,107281000
"2912",107289001,107292000
"2913",107294001,107295000
"2914",107296001,107298000
"2915",107336001,107341000
"2916",107356001,107358000
"2917",107361001,107362000
"2918",107366001,107367000
"2919",107374001,107376000
"2920",107378001,107379000
"2921",107389001,107390000
"2922",107399001,107402000
"2923",107438001,107439000
"2924",107445001,107446000
"2925",107452001,107453000
"2926",107463001,107464000
"2927",107469001,107470000
"2928",107479001,107482000
"2929",107514001,107515000
"2930",107526001,107528000
"2931",107533001,107535000
"2932",107541001,107543000
"2933",107545001,107548000
"2934",107551001,107557000
"2935",107562001,107564000
"2936",107566001,107571000
"2937",107574001,107578000
"2938",107580001,107582000
"2939",107586001,107589000
"2940",107594001,107595000
"2941",107602001,107603000
"2942",107611001,107615000
"2943",107626001,107632000
"2944",107633001,107638000
"2945",107640001,107642000
"2946",107644001,107646000
"2947",107667001,107669000
"2948",107675001,107679000
"2949",107697001,107698000
"2950",107709001,107711000
"2951",107724001,107725000
"2952",107726001,107728000
"2953",107729001,107731000
"2954",107738001,107740000
"2955",107755001,107756000
"2956",107761001,107762000
"2957",107763001,107764000
"2958",107769001,107773000
"2959",107784001,107785000
"2960",107797001,107798000
"2961",107815001,107816000
"2962",107826001,107827000
"2963",107861001,107862000
"2964",107871001,107874000
"2965",107887001,107889000
"2966",107891001,107892000
"2967",107901001,107902000
"2968",107904001,107907000
"2969",107935001,107937000
"2970",107950001,107952000
"2971",107957001,107958000
"2972",107961001,107962000
"2973",107963001,107964000
"2974",107985001,107988000
"2975",107991001,107992000
"2976",108001001,108004000
"2977",108048001,108050000
"2978",108052001,108054000
"2979",108068001,108069000
"2980",108079001,108080000
"2981",108082001,108083000
"2982",108094001,108096000
"2983",108165001,108166000
"2984",108189001,108192000
"2985",108200001,108204000
"2986",108205001,108206000
"2987",108213001,108215000
"2988",108219001,108220000
"2989",108227001,108230000
"2990",108262001,108267000
"2991",108279001,108280000
"2992",108284001,108285000
"2993",108288001,108291000
"2994",108295001,108298000
"2995",108301001,108302000
"2996",108305001,108310000
"2997",108334001,108335000
"2998",108338001,108343000
"2999",108347001,108349000
"3000",108357001,108358000
"3001",108392001,108393000
"3002",108395001,108396000
"3003",108412001,108413000
"3004",108431001,108432000
"3005",108450001,108451000
"3006",108452001,108454000
"3007",108460001,108462000
"3008",108478001,108480000
"3009",108490001,108491000
"3010",108506001,108509000
"3011",108515001,108520000
"3012",108522001,108523000
"3013",108527001,108528000
"3014",108547001,108548000
"3015",108559001,108562000
"3016",108565001,108571000
"3017",108573001,108575000
"3018",108577001,108580000
"3019",108586001,108590000
"3020",108596001,108601000
"3021",108648001,108652000
"3022",108654001,108656000
"3023",108661001,108663000
"3024",108686001,108694000
"3025",108701001,108702000
"3026",108703001,108705000
"3027",108710001,108711000
"3028",108753001,108754000
"3029",108759001,108760000
"3030",108782001,108787000
"3031",108795001,108796000
"3032",108805001,108806000
"3033",108807001,108810000
"3034",108819001,108820000
"3035",108824001,108828000
"3036",108831001,108833000
"3037",108853001,108855000
"3038",108936001,108939000
"3039",108987001,108989000
"3040",108991001,108993000
"3041",109000001,109002000
"3042",109003001,109004000
"3043",109038001,109040000
"3044",109054001,109055000
"3045",109059001,109061000
"3046",109073001,109075000
"3047",109082001,109084000
"3048",109085001,109086000
"3049",109088001,109089000
"3050",109094001,109098000
"3051",109121001,109122000
"3052",109177001,109178000
"3053",109832001,109834000
"3054",109862001,109864000
"3055",109871001,109872000
"3056",109873001,109878000
"3057",109892001,109893000
"3058",109894001,109897000
"3059",109900001,109903000
"3060",109907001,109908000
"3061",109910001,109911000
"3062",109913001,109914000
"3063",109915001,109916000
"3064",109929001,109935000
"3065",109953001,109954000
"3066",109955001,109956000
"3067",109969001,109970000
"3068",109975001,109976000
"3069",109985001,109987000
"3070",110010001,110011000
"3071",110019001,110020000
"3072",110040001,110041000
"3073",110046001,110050000
"3074",110051001,110056000
"3075",110071001,110073000
"3076",110076001,110077000
"3077",110094001,110096000
"3078",110100001,110102000
"3079",110115001,110119000
"3080",110123001,110124000
"3081",110125001,110126000
"3082",110129001,110135000
"3083",110137001,110138000
"3084",110147001,110148000
"3085",110169001,110170000
"3086",110171001,110172000
"3087",110178001,110179000
"3088",110181001,110182000
"3089",110206001,110207000
"3090",110210001,110211000
"3091",110213001,110214000
"3092",110217001,110218000
"3093",110244001,110247000
"3094",110248001,110251000
"3095",110255001,110257000
"3096",110281001,110282000
"3097",110293001,110295000
"3098",110296001,110299000
"3099",110300001,110301000
"3100",110303001,110307000
"3101",110332001,110335000
"3102",110406001,110410000
"3103",110411001,110415000
"3104",110449001,110450000
"3105",110475001,110478000
"3106",110529001,110535000
"3107",110545001,110546000
"3108",110582001,110583000
"3109",110623001,110626000
"3110",110631001,110632000
"3111",110635001,110636000
"3112",110653001,110658000
"3113",110665001,110666000
"3114",110709001,110710000
"3115",110716001,110720000
"3116",110732001,110734000
"3117",110738001,110739000
"3118",110741001,110747000
"3119",110759001,110760000
"3120",110780001,110783000
"3121",110797001,110798000
"3122",110837001,110838000
"3123",110857001,110858000
"3124",110871001,110872000
"3125",110873001,110876000
"3126",110880001,110881000
"3127",110896001,110897000
"3128",110921001,110924000
"3129",110937001,110939000
"3130",110944001,110949000
"3131",110953001,110955000
"3132",110960001,110961000
"3133",110994001,110996000
"3134",110997001,110998000
"3135",111014001,111015000
"3136",111070001,111071000
"3137",111093001,111094000
"3138",111117001,111120000
"3139",111199001,111200000
"3140",111270001,111274000
"3141",111285001,111286000
"3142",111289001,111291000
"3143",111311001,111315000
"3144",111356001,111357000
"3145",111460001,111461000
"3146",111474001,111475000
"3147",111479001,111480000
"3148",111495001,111496000
"3149",111497001,111498000
"3150",111523001,111524000
"3151",111535001,111536000
"3152",111551001,111552000
"3153",111690001,111691000
"3154",111725001,111726000
"3155",111917001,111919000
"3156",111963001,111965000
"3157",112071001,112072000
"3158",112118001,112119000
"3159",112208001,112209000
"3160",112234001,112236000
"3161",112769001,112770000
"3162",112799001,112801000
"3163",113415001,113416000
"3164",113442001,113443000
"3165",113458001,113459000
"3166",113463001,113464000
"3167",113486001,113488000
"3168",113629001,113630000
"3169",113645001,113646000
"3170",113706001,113711000
"3171",113719001,113720000
"3172",113740001,113743000
"3173",113752001,113753000
"3174",113786001,113787000
"3175",113791001,113794000
"3176",113795001,113796000
"3177",113811001,113813000
"3178",113930001,113933000
"3179",113976001,113977000
"3180",113990001,113991000
"3181",114026001,114028000
"3182",114057001,114058000
"3183",114092001,114093000
"3184",114318001,114319000
"3185",114368001,114369000
"3186",114381001,114382000
"3187",114389001,114391000
"3188",114394001,114395000
"3189",114400001,114403000
"3190",114498001,114503000
"3191",114519001,114521000
"3192",114523001,114525000
"3193",114526001,114530000
"3194",114531001,114533000
"3195",114536001,114538000
"3196",114539001,114540000
"3197",114541001,114542000
"3198",114545001,114552000
"3199",114556001,114566000
"3200",114568001,114569000
"3201",114579001,114586000
"3202",114639001,114642000
"3203",114647001,114649000
"3204",114663001,114664000
"3205",114672001,114674000
"3206",114688001,114691000
"3207",114710001,114711000
"3208",114727001,114733000
"3209",114752001,114754000
"3210",114763001,114764000
"3211",114780001,114783000
"3212",114785001,114786000
"3213",114794001,114795000
"3214",114796001,114802000
"3215",114815001,114816000
"3216",114818001,114819000
"3217",114843001,114845000
"3218",114913001,114914000
"3219",114932001,114935000
"3220",114957001,114958000
"3221",114977001,114980000
"3222",114985001,114986000
"3223",114990001,114991000
"3224",115029001,115031000
"3225",115039001,115040000
"3226",115088001,115089000
"3227",115127001,115128000
"3228",115140001,115141000
"3229",115163001,115164000
"3230",115169001,115170000
"3231",115214001,115215000
"3232",115216001,115217000
"3233",115298001,115299000
"3234",115302001,115303000
"3235",115307001,115313000
"3236",115314001,115315000
"3237",115340001,115341000
"3238",115356001,115358000
"3239",115548001,115549000
"3240",115645001,115646000
"3241",115704001,115705000
"3242",115708001,115711000
"3243",115724001,115725000
"3244",115845001,115846000
"3245",115847001,115848000
"3246",116041001,116042000
"3247",116088001,116089000
"3248",116175001,116176000
"3249",116212001,116214000
"3250",116298001,116300000
"3251",116426001,116428000
"3252",116553001,116554000
"3253",116639001,116641000
"3254",116762001,116763000
"3255",116807001,116809000
"3256",116912001,116913000
"3257",116919001,116920000
"3258",116948001,116949000
"3259",117081001,117082000
"3260",117127001,117128000
"3261",117163001,117164000
"3262",117167001,117168000
"3263",117173001,117174000
"3264",117218001,117219000
"3265",117251001,117253000
"3266",117297001,117298000
"3267",117356001,117358000
"3268",117361001,117362000
"3269",117380001,117381000
"3270",117413001,117414000
"3271",117837001,117838000
"3272",117872001,117873000
"3273",118039001,118042000
"3274",118053001,118054000
"3275",118099001,118100000
"3276",118149001,118152000
"3277",118389001,118391000
"3278",118405001,118407000
"3279",118475001,118483000
"3280",118485001,118490000
"3281",118496001,118499000
"3282",118505001,118508000
"3283",118518001,118519000
"3284",118589001,118590000
"3285",118592001,118593000
"3286",118606001,118608000
"3287",118664001,118665000
"3288",118674001,118675000
"3289",118688001,118689000
"3290",118704001,118705000
"3291",118793001,118794000
"3292",118871001,118872000
"3293",118908001,118912000
"3294",118914001,118916000
"3295",118920001,118922000
"3296",118924001,118928000
"3297",118939001,118940000
"3298",119052001,119053000
"3299",119067001,119068000
"3300",119088001,119090000
"3301",119092001,119094000
"3302",119099001,119101000
"3303",119102001,119103000
"3304",119110001,119111000
"3305",119156001,119158000
"3306",119320001,119325000
"3307",119326001,119327000
"3308",119339001,119342000
"3309",119352001,119353000
"3310",119356001,119359000
"3311",119360001,119361000
"3312",119401001,119404000
"3313",119443001,119446000
"3314",119460001,119462000
"3315",119505001,119506000
"3316",119558001,119559000
"3317",119571001,119572000
"3318",119579001,119582000
"3319",119647001,119648000
"3320",119732001,119733000
"3321",119792001,119793000
"3322",119803001,119804000
"3323",119888001,119891000
"3324",119894001,119896000
"3325",119913001,119914000
"3326",119937001,119938000
"3327",119963001,119964000
"3328",119974001,119975000
"3329",119980001,119986000
"3330",120001001,120003000
"3331",120004001,120005000
"3332",120009001,120013000
"3333",120020001,120021000
"3334",120028001,120029000
"3335",120073001,120074000
"3336",120098001,120099000
"3337",120109001,120112000
"3338",120126001,120130000
"3339",120131001,120135000
"3340",120140001,120142000
"3341",120149001,120150000
"3342",120151001,120152000
"3343",120154001,120156000
"3344",120157001,120158000
"3345",120164001,120165000
"3346",120171001,120172000
"3347",120184001,120185000
"3348",120186001,120187000
"3349",120191001,120192000
"3350",120202001,120203000
"3351",120216001,120217000
"3352",120303001,120305000
"3353",120377001,120379000
"3354",120410001,120411000
"3355",120415001,120416000
"3356",120425001,120426000
"3357",120434001,120435000
"3358",120455001,120457000
"3359",120491001,120494000
"3360",120496001,120498000
"3361",120501001,120503000
"3362",120519001,120520000
"3363",120570001,120579000
"3364",120582001,120584000
"3365",120586001,120587000
"3366",120591001,120592000
"3367",120601001,120604000
"3368",120619001,120620000
"3369",120674001,120682000
"3370",120686001,120687000
"3371",120690001,120693000
"3372",120703001,120704000
"3373",120708001,120710000
"3374",120732001,120733000
"3375",120734001,120735000
"3376",120738001,120739000
"3377",120919001,120920000
"3378",120927001,120928000
"3379",120930001,120937000
"3380",120961001,120963000
"3381",120970001,120971000
"3382",121037001,121039000
"3383",121108001,121109000
"3384",121215001,121216000
"3385",121240001,121241000
"3386",121247001,121249000
"3387",121276001,121279000
"3388",121283001,121287000
"3389",121296001,121302000
"3390",121303001,121305000
"3391",121309001,121310000
"3392",121311001,121318000
"3393",121330001,121339000
"3394",121343001,121345000
"3395",121348001,121349000
"3396",121350001,121353000
"3397",121360001,121361000
"3398",121370001,121373000
"3399",121374001,121375000
"3400",121385001,121386000
"3401",121392001,121393000
"3402",121403001,121404000
"3403",121458001,121459000
"3404",121477001,121478000
"3405",121479001,121480000
"3406",121494001,121495000
"3407",121605001,121606000
"3408",121614001,121615000
"3409",121642001,121643000
"3410",121669001,121670000
"3411",121671001,121672000
"3412",121679001,121680000
"3413",121697001,121698000
"3414",121704001,121706000
"3415",121708001,121712000
"3416",121717001,121725000
"3417",121743001,121744000
"3418",121757001,121761000
"3419",121810001,121811000
"3420",121831001,121832000
"3421",121839001,121841000
"3422",121846001,121847000
"3423",121856001,121859000
"3424",121870001,121871000
"3425",121877001,121878000
"3426",121880001,121882000
"3427",121928001,121929000
"3428",121937001,121938000
"3429",121948001,121949000
"3430",121984001,121986000
"3431",121989001,121990000
"3432",121995001,121997000
"3433",122009001,122010000
"3434",122014001,122015000
"3435",122018001,122019000
"3436",122116001,122119000
"3437",122120001,122121000
"3438",122125001,122126000
"3439",122185001,122186000
"3440",122225001,122226000
"3441",122244001,122245000
"3442",122247001,122249000
"3443",122285001,122286000
"3444",122292001,122296000
"3445",122310001,122312000
"3446",122315001,122316000
"3447",122351001,122353000
"3448",122380001,122382000
"3449",122421001,122422000
"3450",122471001,122472000
"3451",122525001,122526000
"3452",122567001,122574000
"3453",122671001,122673000
"3454",122687001,122688000
"3455",122729001,122730000
"3456",122736001,122737000
"3457",122805001,122807000
"3458",122865001,122867000
"3459",122886001,122888000
"3460",122902001,122904000
"3461",122922001,122924000
"3462",122950001,122953000
"3463",122964001,122965000
"3464",123018001,123019000
"3465",123020001,123022000
"3466",123112001,123115000
"3467",123158001,123160000
"3468",123174001,123175000
"3469",123253001,123254000
"3470",123259001,123262000
"3471",123362001,123364000
"3472",123365001,123368000
"3473",123385001,123386000
"3474",123431001,123432000
"3475",123450001,123451000
"3476",123461001,123463000
"3477",123477001,123480000
"3478",123504001,123505000
"3479",123523001,123524000
"3480",123525001,123526000
"3481",123527001,123533000
"3482",123576001,123577000
"3483",123677001,123679000
"3484",123716001,123718000
"3485",123850001,123854000
"3486",123923001,123933000
"3487",123933001,123937000
"3488",124128001,124129000
"3489",124251001,124252000
"3490",124256001,124259000
"3491",124265001,124266000
"3492",124267001,124271000
"3493",124273001,124280000
"3494",124281001,124283000
"3495",124312001,124313000
"3496",124408001,124409000
"3497",124422001,124428000
"3498",124429001,124430000
"3499",124439001,124441000
"3500",124456001,124457000
